0 Torus Outside  1 x 0.0625 x 1
0 Name: t01o0625.dat
0 Author: Michael Heidemann [mikeheide]
0 !LDRAW_ORG Primitive UPDATE 2011-02
0 !LICENSE Redistributable under CCAL version 2.0 : see CAreadme.txt

0 BFC CERTIFY CCW

0 !HISTORY 2011-12-29 [PTadmin] Official Update 2011-02

0 // Major Radius: 8
0 // Tube(Minor) Radius: 0.5
0 // Segments(Sweep): 16/16 = 1
0 // 1 9 0 0 0 1 0 0 0 1 0 0 0 1 4-4edge.dat
0 // 1 12 1 0 0 0.0625 0 0 0 0 0.0625 0 1 0 4-4edge.dat

4 16 1 0.0625 0 0.9239 0.0625 0.3827 0.946 0.0577 0.3918 1.0239 0.0577 0
5 24 1 0.0625 0 0.9239 0.0625 0.3827 1.0239 0.0577 0 0.9761 0.0577 0
5 24 1 0.0625 0 1.0239 0.0577 0 0.9239 0.0625 0.3827 0.9239 0.0625 -0.3827
4 16 1.0239 0.0577 0 0.946 0.0577 0.3918 0.9647 0.0442 0.3996 1.0442 0.0442 0
5 24 1.0239 0.0577 0 0.946 0.0577 0.3918 1.0442 0.0442 0 1 0.0625 0
5 24 1.0239 0.0577 0 1.0442 0.0442 0 0.946 0.0577 0.3918 0.946 0.0577 -0.3918
4 16 1.0442 0.0442 0 0.9647 0.0442 0.3996 0.9772 0.0239 0.4048 1.0577 0.0239 0
5 24 1.0442 0.0442 0 0.9647 0.0442 0.3996 1.0577 0.0239 0 1.0239 0.0577 0
5 24 1.0442 0.0442 0 1.0577 0.0239 0 0.9647 0.0442 0.3996 0.9647 0.0442 -0.3996
4 16 1.0577 0.0239 0 0.9772 0.0239 0.4048 0.9816 0 0.4066 1.0625 0 0
5 24 1.0577 0.0239 0 0.9772 0.0239 0.4048 1.0625 0 0 1.0442 0.0442 0
5 24 1.0577 0.0239 0 1.0625 0 0 0.9772 0.0239 0.4048 0.9772 0.0239 -0.4048
5 24 1.0625 0 0 0.9816 0 0.4066 1.0577 -0.0239 0 1.0577 0.0239 0
4 16 0.9239 0.0625 0.3827 0.7071 0.0625 0.7071 0.724 0.0577 0.724 0.946 0.0577 0.3918
5 24 0.9239 0.0625 0.3827 0.7071 0.0625 0.7071 0.946 0.0577 0.3918 0.9018 0.0577 0.3736
5 24 0.9239 0.0625 0.3827 0.946 0.0577 0.3918 0.7071 0.0625 0.7071 1 0.0625 0
4 16 0.946 0.0577 0.3918 0.724 0.0577 0.724 0.7384 0.0442 0.7384 0.9647 0.0442 0.3996
5 24 0.946 0.0577 0.3918 0.724 0.0577 0.724 0.9647 0.0442 0.3996 0.9239 0.0625 0.3827
5 24 0.946 0.0577 0.3918 0.9647 0.0442 0.3996 0.724 0.0577 0.724 1.0239 0.0577 0
4 16 0.9647 0.0442 0.3996 0.7384 0.0442 0.7384 0.7479 0.0239 0.7479 0.9772 0.0239 0.4048
5 24 0.9647 0.0442 0.3996 0.7384 0.0442 0.7384 0.9772 0.0239 0.4048 0.946 0.0577 0.3918
5 24 0.9647 0.0442 0.3996 0.9772 0.0239 0.4048 0.7384 0.0442 0.7384 1.0442 0.0442 0
4 16 0.9772 0.0239 0.4048 0.7479 0.0239 0.7479 0.7513 0 0.7513 0.9816 0 0.4066
5 24 0.9772 0.0239 0.4048 0.7479 0.0239 0.7479 0.9816 0 0.4066 0.9647 0.0442 0.3996
5 24 0.9772 0.0239 0.4048 0.9816 0 0.4066 0.7479 0.0239 0.7479 1.0577 0.0239 0
5 24 0.9816 0 0.4066 0.7513 0 0.7513 0.9772 -0.0239 0.4048 0.9772 0.0239 0.4048
4 16 0.7071 0.0625 0.7071 0.3827 0.0625 0.9239 0.3918 0.0577 0.946 0.724 0.0577 0.724
5 24 0.7071 0.0625 0.7071 0.3827 0.0625 0.9239 0.724 0.0577 0.724 0.6902 0.0577 0.6902
5 24 0.7071 0.0625 0.7071 0.724 0.0577 0.724 0.3827 0.0625 0.9239 0.9239 0.0625 0.3827
4 16 0.724 0.0577 0.724 0.3918 0.0577 0.946 0.3996 0.0442 0.9647 0.7384 0.0442 0.7384
5 24 0.724 0.0577 0.724 0.3918 0.0577 0.946 0.7384 0.0442 0.7384 0.7071 0.0625 0.7071
5 24 0.724 0.0577 0.724 0.7384 0.0442 0.7384 0.3918 0.0577 0.946 0.946 0.0577 0.3918
4 16 0.7384 0.0442 0.7384 0.3996 0.0442 0.9647 0.4048 0.0239 0.9772 0.7479 0.0239 0.7479
5 24 0.7384 0.0442 0.7384 0.3996 0.0442 0.9647 0.7479 0.0239 0.7479 0.724 0.0577 0.724
5 24 0.7384 0.0442 0.7384 0.7479 0.0239 0.7479 0.3996 0.0442 0.9647 0.9647 0.0442 0.3996
4 16 0.7479 0.0239 0.7479 0.4048 0.0239 0.9772 0.4066 0 0.9816 0.7513 0 0.7513
5 24 0.7479 0.0239 0.7479 0.4048 0.0239 0.9772 0.7513 0 0.7513 0.7384 0.0442 0.7384
5 24 0.7479 0.0239 0.7479 0.7513 0 0.7513 0.4048 0.0239 0.9772 0.9772 0.0239 0.4048
5 24 0.7513 0 0.7513 0.4066 0 0.9816 0.7479 -0.0239 0.7479 0.7479 0.0239 0.7479
4 16 0.3827 0.0625 0.9239 0 0.0625 1 0 0.0577 1.0239 0.3918 0.0577 0.946
5 24 0.3827 0.0625 0.9239 0 0.0625 1 0.3918 0.0577 0.946 0.3736 0.0577 0.9018
5 24 0.3827 0.0625 0.9239 0.3918 0.0577 0.946 0 0.0625 1 0.7071 0.0625 0.7071
4 16 0.3918 0.0577 0.946 0 0.0577 1.0239 0 0.0442 1.0442 0.3996 0.0442 0.9647
5 24 0.3918 0.0577 0.946 0 0.0577 1.0239 0.3996 0.0442 0.9647 0.3827 0.0625 0.9239
5 24 0.3918 0.0577 0.946 0.3996 0.0442 0.9647 0 0.0577 1.0239 0.724 0.0577 0.724
4 16 0.3996 0.0442 0.9647 0 0.0442 1.0442 0 0.0239 1.0577 0.4048 0.0239 0.9772
5 24 0.3996 0.0442 0.9647 0 0.0442 1.0442 0.4048 0.0239 0.9772 0.3918 0.0577 0.946
5 24 0.3996 0.0442 0.9647 0.4048 0.0239 0.9772 0 0.0442 1.0442 0.7384 0.0442 0.7384
4 16 0.4048 0.0239 0.9772 0 0.0239 1.0577 0 0 1.0625 0.4066 0 0.9816
5 24 0.4048 0.0239 0.9772 0 0.0239 1.0577 0.4066 0 0.9816 0.3996 0.0442 0.9647
5 24 0.4048 0.0239 0.9772 0.4066 0 0.9816 0 0.0239 1.0577 0.7479 0.0239 0.7479
5 24 0.4066 0 0.9816 0 0 1.0625 0.4048 -0.0239 0.9772 0.4048 0.0239 0.9772
4 16 0 0.0625 1 -0.3827 0.0625 0.9239 -0.3918 0.0577 0.946 0 0.0577 1.0239
5 24 0 0.0625 1 -0.3827 0.0625 0.9239 0 0.0577 1.0239 0 0.0577 0.9761
5 24 0 0.0625 1 0 0.0577 1.0239 -0.3827 0.0625 0.9239 0.3827 0.0625 0.9239
4 16 0 0.0577 1.0239 -0.3918 0.0577 0.946 -0.3996 0.0442 0.9647 0 0.0442 1.0442
5 24 0 0.0577 1.0239 -0.3918 0.0577 0.946 0 0.0442 1.0442 0 0.0625 1
5 24 0 0.0577 1.0239 0 0.0442 1.0442 -0.3918 0.0577 0.946 0.3918 0.0577 0.946
4 16 0 0.0442 1.0442 -0.3996 0.0442 0.9647 -0.4048 0.0239 0.9772 0 0.0239 1.0577
5 24 0 0.0442 1.0442 -0.3996 0.0442 0.9647 0 0.0239 1.0577 0 0.0577 1.0239
5 24 0 0.0442 1.0442 0 0.0239 1.0577 -0.3996 0.0442 0.9647 0.3996 0.0442 0.9647
4 16 0 0.0239 1.0577 -0.4048 0.0239 0.9772 -0.4066 0 0.9816 0 0 1.0625
5 24 0 0.0239 1.0577 -0.4048 0.0239 0.9772 0 0 1.0625 0 0.0442 1.0442
5 24 0 0.0239 1.0577 0 0 1.0625 -0.4048 0.0239 0.9772 0.4048 0.0239 0.9772
5 24 0 0 1.0625 -0.4066 0 0.9816 0 -0.0239 1.0577 0 0.0239 1.0577
4 16 -0.3827 0.0625 0.9239 -0.7071 0.0625 0.7071 -0.724 0.0577 0.724 -0.3918 0.0577 0.946
5 24 -0.3827 0.0625 0.9239 -0.7071 0.0625 0.7071 -0.3918 0.0577 0.946 -0.3736 0.0577 0.9018
5 24 -0.3827 0.0625 0.9239 -0.3918 0.0577 0.946 -0.7071 0.0625 0.7071 0 0.0625 1
4 16 -0.3918 0.0577 0.946 -0.724 0.0577 0.724 -0.7384 0.0442 0.7384 -0.3996 0.0442 0.9647
5 24 -0.3918 0.0577 0.946 -0.724 0.0577 0.724 -0.3996 0.0442 0.9647 -0.3827 0.0625 0.9239
5 24 -0.3918 0.0577 0.946 -0.3996 0.0442 0.9647 -0.724 0.0577 0.724 0 0.0577 1.0239
4 16 -0.3996 0.0442 0.9647 -0.7384 0.0442 0.7384 -0.7479 0.0239 0.7479 -0.4048 0.0239 0.9772
5 24 -0.3996 0.0442 0.9647 -0.7384 0.0442 0.7384 -0.4048 0.0239 0.9772 -0.3918 0.0577 0.946
5 24 -0.3996 0.0442 0.9647 -0.4048 0.0239 0.9772 -0.7384 0.0442 0.7384 0 0.0442 1.0442
4 16 -0.4048 0.0239 0.9772 -0.7479 0.0239 0.7479 -0.7513 0 0.7513 -0.4066 0 0.9816
5 24 -0.4048 0.0239 0.9772 -0.7479 0.0239 0.7479 -0.4066 0 0.9816 -0.3996 0.0442 0.9647
5 24 -0.4048 0.0239 0.9772 -0.4066 0 0.9816 -0.7479 0.0239 0.7479 0 0.0239 1.0577
5 24 -0.4066 0 0.9816 -0.7513 0 0.7513 -0.4048 -0.0239 0.9772 -0.4048 0.0239 0.9772
4 16 -0.7071 0.0625 0.7071 -0.9239 0.0625 0.3827 -0.946 0.0577 0.3918 -0.724 0.0577 0.724
5 24 -0.7071 0.0625 0.7071 -0.9239 0.0625 0.3827 -0.724 0.0577 0.724 -0.6902 0.0577 0.6902
5 24 -0.7071 0.0625 0.7071 -0.724 0.0577 0.724 -0.9239 0.0625 0.3827 -0.3827 0.0625 0.9239
4 16 -0.724 0.0577 0.724 -0.946 0.0577 0.3918 -0.9647 0.0442 0.3996 -0.7384 0.0442 0.7384
5 24 -0.724 0.0577 0.724 -0.946 0.0577 0.3918 -0.7384 0.0442 0.7384 -0.7071 0.0625 0.7071
5 24 -0.724 0.0577 0.724 -0.7384 0.0442 0.7384 -0.946 0.0577 0.3918 -0.3918 0.0577 0.946
4 16 -0.7384 0.0442 0.7384 -0.9647 0.0442 0.3996 -0.9772 0.0239 0.4048 -0.7479 0.0239 0.7479
5 24 -0.7384 0.0442 0.7384 -0.9647 0.0442 0.3996 -0.7479 0.0239 0.7479 -0.724 0.0577 0.724
5 24 -0.7384 0.0442 0.7384 -0.7479 0.0239 0.7479 -0.9647 0.0442 0.3996 -0.3996 0.0442 0.9647
4 16 -0.7479 0.0239 0.7479 -0.9772 0.0239 0.4048 -0.9816 0 0.4066 -0.7513 0 0.7513
5 24 -0.7479 0.0239 0.7479 -0.9772 0.0239 0.4048 -0.7513 0 0.7513 -0.7384 0.0442 0.7384
5 24 -0.7479 0.0239 0.7479 -0.7513 0 0.7513 -0.9772 0.0239 0.4048 -0.4048 0.0239 0.9772
5 24 -0.7513 0 0.7513 -0.9816 0 0.4066 -0.7479 -0.0239 0.7479 -0.7479 0.0239 0.7479
4 16 -0.9239 0.0625 0.3827 -1 0.0625 0 -1.0239 0.0577 0 -0.946 0.0577 0.3918
5 24 -0.9239 0.0625 0.3827 -1 0.0625 0 -0.946 0.0577 0.3918 -0.9018 0.0577 0.3736
5 24 -0.9239 0.0625 0.3827 -0.946 0.0577 0.3918 -1 0.0625 0 -0.7071 0.0625 0.7071
4 16 -0.946 0.0577 0.3918 -1.0239 0.0577 0 -1.0442 0.0442 0 -0.9647 0.0442 0.3996
5 24 -0.946 0.0577 0.3918 -1.0239 0.0577 0 -0.9647 0.0442 0.3996 -0.9239 0.0625 0.3827
5 24 -0.946 0.0577 0.3918 -0.9647 0.0442 0.3996 -1.0239 0.0577 0 -0.724 0.0577 0.724
4 16 -0.9647 0.0442 0.3996 -1.0442 0.0442 0 -1.0577 0.0239 0 -0.9772 0.0239 0.4048
5 24 -0.9647 0.0442 0.3996 -1.0442 0.0442 0 -0.9772 0.0239 0.4048 -0.946 0.0577 0.3918
5 24 -0.9647 0.0442 0.3996 -0.9772 0.0239 0.4048 -1.0442 0.0442 0 -0.7384 0.0442 0.7384
4 16 -0.9772 0.0239 0.4048 -1.0577 0.0239 0 -1.0625 0 0 -0.9816 0 0.4066
5 24 -0.9772 0.0239 0.4048 -1.0577 0.0239 0 -0.9816 0 0.4066 -0.9647 0.0442 0.3996
5 24 -0.9772 0.0239 0.4048 -0.9816 0 0.4066 -1.0577 0.0239 0 -0.7479 0.0239 0.7479
5 24 -0.9816 0 0.4066 -1.0625 0 0 -0.9772 -0.0239 0.4048 -0.9772 0.0239 0.4048
4 16 -1 0.0625 0 -0.9239 0.0625 -0.3827 -0.946 0.0577 -0.3918 -1.0239 0.0577 0
5 24 -1 0.0625 0 -0.9239 0.0625 -0.3827 -1.0239 0.0577 0 -0.9761 0.0577 0
5 24 -1 0.0625 0 -1.0239 0.0577 0 -0.9239 0.0625 -0.3827 -0.9239 0.0625 0.3827
4 16 -1.0239 0.0577 0 -0.946 0.0577 -0.3918 -0.9647 0.0442 -0.3996 -1.0442 0.0442 0
5 24 -1.0239 0.0577 0 -0.946 0.0577 -0.3918 -1.0442 0.0442 0 -1 0.0625 0
5 24 -1.0239 0.0577 0 -1.0442 0.0442 0 -0.946 0.0577 -0.3918 -0.946 0.0577 0.3918
4 16 -1.0442 0.0442 0 -0.9647 0.0442 -0.3996 -0.9772 0.0239 -0.4048 -1.0577 0.0239 0
5 24 -1.0442 0.0442 0 -0.9647 0.0442 -0.3996 -1.0577 0.0239 0 -1.0239 0.0577 0
5 24 -1.0442 0.0442 0 -1.0577 0.0239 0 -0.9647 0.0442 -0.3996 -0.9647 0.0442 0.3996
4 16 -1.0577 0.0239 0 -0.9772 0.0239 -0.4048 -0.9816 0 -0.4066 -1.0625 0 0
5 24 -1.0577 0.0239 0 -0.9772 0.0239 -0.4048 -1.0625 0 0 -1.0442 0.0442 0
5 24 -1.0577 0.0239 0 -1.0625 0 0 -0.9772 0.0239 -0.4048 -0.9772 0.0239 0.4048
5 24 -1.0625 0 0 -0.9816 0 -0.4066 -1.0577 -0.0239 0 -1.0577 0.0239 0
4 16 -0.9239 0.0625 -0.3827 -0.7071 0.0625 -0.7071 -0.724 0.0577 -0.724 -0.946 0.0577 -0.3918
5 24 -0.9239 0.0625 -0.3827 -0.7071 0.0625 -0.7071 -0.946 0.0577 -0.3918 -0.9018 0.0577 -0.3736
5 24 -0.9239 0.0625 -0.3827 -0.946 0.0577 -0.3918 -0.7071 0.0625 -0.7071 -1 0.0625 0
4 16 -0.946 0.0577 -0.3918 -0.724 0.0577 -0.724 -0.7384 0.0442 -0.7384 -0.9647 0.0442 -0.3996
5 24 -0.946 0.0577 -0.3918 -0.724 0.0577 -0.724 -0.9647 0.0442 -0.3996 -0.9239 0.0625 -0.3827
5 24 -0.946 0.0577 -0.3918 -0.9647 0.0442 -0.3996 -0.724 0.0577 -0.724 -1.0239 0.0577 0
4 16 -0.9647 0.0442 -0.3996 -0.7384 0.0442 -0.7384 -0.7479 0.0239 -0.7479 -0.9772 0.0239 -0.4048
5 24 -0.9647 0.0442 -0.3996 -0.7384 0.0442 -0.7384 -0.9772 0.0239 -0.4048 -0.946 0.0577 -0.3918
5 24 -0.9647 0.0442 -0.3996 -0.9772 0.0239 -0.4048 -0.7384 0.0442 -0.7384 -1.0442 0.0442 0
4 16 -0.9772 0.0239 -0.4048 -0.7479 0.0239 -0.7479 -0.7513 0 -0.7513 -0.9816 0 -0.4066
5 24 -0.9772 0.0239 -0.4048 -0.7479 0.0239 -0.7479 -0.9816 0 -0.4066 -0.9647 0.0442 -0.3996
5 24 -0.9772 0.0239 -0.4048 -0.9816 0 -0.4066 -0.7479 0.0239 -0.7479 -1.0577 0.0239 0
5 24 -0.9816 0 -0.4066 -0.7513 0 -0.7513 -0.9772 -0.0239 -0.4048 -0.9772 0.0239 -0.4048
4 16 -0.7071 0.0625 -0.7071 -0.3827 0.0625 -0.9239 -0.3918 0.0577 -0.946 -0.724 0.0577 -0.724
5 24 -0.7071 0.0625 -0.7071 -0.3827 0.0625 -0.9239 -0.724 0.0577 -0.724 -0.6902 0.0577 -0.6902
5 24 -0.7071 0.0625 -0.7071 -0.724 0.0577 -0.724 -0.3827 0.0625 -0.9239 -0.9239 0.0625 -0.3827
4 16 -0.724 0.0577 -0.724 -0.3918 0.0577 -0.946 -0.3996 0.0442 -0.9647 -0.7384 0.0442 -0.7384
5 24 -0.724 0.0577 -0.724 -0.3918 0.0577 -0.946 -0.7384 0.0442 -0.7384 -0.7071 0.0625 -0.7071
5 24 -0.724 0.0577 -0.724 -0.7384 0.0442 -0.7384 -0.3918 0.0577 -0.946 -0.946 0.0577 -0.3918
4 16 -0.7384 0.0442 -0.7384 -0.3996 0.0442 -0.9647 -0.4048 0.0239 -0.9772 -0.7479 0.0239 -0.7479
5 24 -0.7384 0.0442 -0.7384 -0.3996 0.0442 -0.9647 -0.7479 0.0239 -0.7479 -0.724 0.0577 -0.724
5 24 -0.7384 0.0442 -0.7384 -0.7479 0.0239 -0.7479 -0.3996 0.0442 -0.9647 -0.9647 0.0442 -0.3996
4 16 -0.7479 0.0239 -0.7479 -0.4048 0.0239 -0.9772 -0.4066 0 -0.9816 -0.7513 0 -0.7513
5 24 -0.7479 0.0239 -0.7479 -0.4048 0.0239 -0.9772 -0.7513 0 -0.7513 -0.7384 0.0442 -0.7384
5 24 -0.7479 0.0239 -0.7479 -0.7513 0 -0.7513 -0.4048 0.0239 -0.9772 -0.9772 0.0239 -0.4048
5 24 -0.7513 0 -0.7513 -0.4066 0 -0.9816 -0.7479 -0.0239 -0.7479 -0.7479 0.0239 -0.7479
4 16 -0.3827 0.0625 -0.9239 0 0.0625 -1 0 0.0577 -1.0239 -0.3918 0.0577 -0.946
5 24 -0.3827 0.0625 -0.9239 0 0.0625 -1 -0.3918 0.0577 -0.946 -0.3736 0.0577 -0.9018
5 24 -0.3827 0.0625 -0.9239 -0.3918 0.0577 -0.946 0 0.0625 -1 -0.7071 0.0625 -0.7071
4 16 -0.3918 0.0577 -0.946 0 0.0577 -1.0239 0 0.0442 -1.0442 -0.3996 0.0442 -0.9647
5 24 -0.3918 0.0577 -0.946 0 0.0577 -1.0239 -0.3996 0.0442 -0.9647 -0.3827 0.0625 -0.9239
5 24 -0.3918 0.0577 -0.946 -0.3996 0.0442 -0.9647 0 0.0577 -1.0239 -0.724 0.0577 -0.724
4 16 -0.3996 0.0442 -0.9647 0 0.0442 -1.0442 0 0.0239 -1.0577 -0.4048 0.0239 -0.9772
5 24 -0.3996 0.0442 -0.9647 0 0.0442 -1.0442 -0.4048 0.0239 -0.9772 -0.3918 0.0577 -0.946
5 24 -0.3996 0.0442 -0.9647 -0.4048 0.0239 -0.9772 0 0.0442 -1.0442 -0.7384 0.0442 -0.7384
4 16 -0.4048 0.0239 -0.9772 0 0.0239 -1.0577 0 0 -1.0625 -0.4066 0 -0.9816
5 24 -0.4048 0.0239 -0.9772 0 0.0239 -1.0577 -0.4066 0 -0.9816 -0.3996 0.0442 -0.9647
5 24 -0.4048 0.0239 -0.9772 -0.4066 0 -0.9816 0 0.0239 -1.0577 -0.7479 0.0239 -0.7479
5 24 -0.4066 0 -0.9816 0 0 -1.0625 -0.4048 -0.0239 -0.9772 -0.4048 0.0239 -0.9772
4 16 0 0.0625 -1 0.3827 0.0625 -0.9239 0.3918 0.0577 -0.946 0 0.0577 -1.0239
5 24 0 0.0625 -1 0.3827 0.0625 -0.9239 0 0.0577 -1.0239 0 0.0577 -0.9761
5 24 0 0.0625 -1 0 0.0577 -1.0239 0.3827 0.0625 -0.9239 -0.3827 0.0625 -0.9239
4 16 0 0.0577 -1.0239 0.3918 0.0577 -0.946 0.3996 0.0442 -0.9647 0 0.0442 -1.0442
5 24 0 0.0577 -1.0239 0.3918 0.0577 -0.946 0 0.0442 -1.0442 0 0.0625 -1
5 24 0 0.0577 -1.0239 0 0.0442 -1.0442 0.3918 0.0577 -0.946 -0.3918 0.0577 -0.946
4 16 0 0.0442 -1.0442 0.3996 0.0442 -0.9647 0.4048 0.0239 -0.9772 0 0.0239 -1.0577
5 24 0 0.0442 -1.0442 0.3996 0.0442 -0.9647 0 0.0239 -1.0577 0 0.0577 -1.0239
5 24 0 0.0442 -1.0442 0 0.0239 -1.0577 0.3996 0.0442 -0.9647 -0.3996 0.0442 -0.9647
4 16 0 0.0239 -1.0577 0.4048 0.0239 -0.9772 0.4066 0 -0.9816 0 0 -1.0625
5 24 0 0.0239 -1.0577 0.4048 0.0239 -0.9772 0 0 -1.0625 0 0.0442 -1.0442
5 24 0 0.0239 -1.0577 0 0 -1.0625 0.4048 0.0239 -0.9772 -0.4048 0.0239 -0.9772
5 24 0 0 -1.0625 0.4066 0 -0.9816 0 -0.0239 -1.0577 0 0.0239 -1.0577
4 16 0.3827 0.0625 -0.9239 0.7071 0.0625 -0.7071 0.724 0.0577 -0.724 0.3918 0.0577 -0.946
5 24 0.3827 0.0625 -0.9239 0.7071 0.0625 -0.7071 0.3918 0.0577 -0.946 0.3736 0.0577 -0.9018
5 24 0.3827 0.0625 -0.9239 0.3918 0.0577 -0.946 0.7071 0.0625 -0.7071 0 0.0625 -1
4 16 0.3918 0.0577 -0.946 0.724 0.0577 -0.724 0.7384 0.0442 -0.7384 0.3996 0.0442 -0.9647
5 24 0.3918 0.0577 -0.946 0.724 0.0577 -0.724 0.3996 0.0442 -0.9647 0.3827 0.0625 -0.9239
5 24 0.3918 0.0577 -0.946 0.3996 0.0442 -0.9647 0.724 0.0577 -0.724 0 0.0577 -1.0239
4 16 0.3996 0.0442 -0.9647 0.7384 0.0442 -0.7384 0.7479 0.0239 -0.7479 0.4048 0.0239 -0.9772
5 24 0.3996 0.0442 -0.9647 0.7384 0.0442 -0.7384 0.4048 0.0239 -0.9772 0.3918 0.0577 -0.946
5 24 0.3996 0.0442 -0.9647 0.4048 0.0239 -0.9772 0.7384 0.0442 -0.7384 0 0.0442 -1.0442
4 16 0.4048 0.0239 -0.9772 0.7479 0.0239 -0.7479 0.7513 0 -0.7513 0.4066 0 -0.9816
5 24 0.4048 0.0239 -0.9772 0.7479 0.0239 -0.7479 0.4066 0 -0.9816 0.3996 0.0442 -0.9647
5 24 0.4048 0.0239 -0.9772 0.4066 0 -0.9816 0.7479 0.0239 -0.7479 0 0.0239 -1.0577
5 24 0.4066 0 -0.9816 0.7513 0 -0.7513 0.4048 -0.0239 -0.9772 0.4048 0.0239 -0.9772
4 16 0.7071 0.0625 -0.7071 0.9239 0.0625 -0.3827 0.946 0.0577 -0.3918 0.724 0.0577 -0.724
5 24 0.7071 0.0625 -0.7071 0.9239 0.0625 -0.3827 0.724 0.0577 -0.724 0.6902 0.0577 -0.6902
5 24 0.7071 0.0625 -0.7071 0.724 0.0577 -0.724 0.9239 0.0625 -0.3827 0.3827 0.0625 -0.9239
4 16 0.724 0.0577 -0.724 0.946 0.0577 -0.3918 0.9647 0.0442 -0.3996 0.7384 0.0442 -0.7384
5 24 0.724 0.0577 -0.724 0.946 0.0577 -0.3918 0.7384 0.0442 -0.7384 0.7071 0.0625 -0.7071
5 24 0.724 0.0577 -0.724 0.7384 0.0442 -0.7384 0.946 0.0577 -0.3918 0.3918 0.0577 -0.946
4 16 0.7384 0.0442 -0.7384 0.9647 0.0442 -0.3996 0.9772 0.0239 -0.4048 0.7479 0.0239 -0.7479
5 24 0.7384 0.0442 -0.7384 0.9647 0.0442 -0.3996 0.7479 0.0239 -0.7479 0.724 0.0577 -0.724
5 24 0.7384 0.0442 -0.7384 0.7479 0.0239 -0.7479 0.9647 0.0442 -0.3996 0.3996 0.0442 -0.9647
4 16 0.7479 0.0239 -0.7479 0.9772 0.0239 -0.4048 0.9816 0 -0.4066 0.7513 0 -0.7513
5 24 0.7479 0.0239 -0.7479 0.9772 0.0239 -0.4048 0.7513 0 -0.7513 0.7384 0.0442 -0.7384
5 24 0.7479 0.0239 -0.7479 0.7513 0 -0.7513 0.9772 0.0239 -0.4048 0.4048 0.0239 -0.9772
5 24 0.7513 0 -0.7513 0.9816 0 -0.4066 0.7479 -0.0239 -0.7479 0.7479 0.0239 -0.7479
4 16 0.9239 0.0625 -0.3827 1 0.0625 0 1.0239 0.0577 0 0.946 0.0577 -0.3918
5 24 0.9239 0.0625 -0.3827 1 0.0625 0 0.946 0.0577 -0.3918 0.9018 0.0577 -0.3736
5 24 0.9239 0.0625 -0.3827 0.946 0.0577 -0.3918 1 0.0625 0 0.7071 0.0625 -0.7071
4 16 0.946 0.0577 -0.3918 1.0239 0.0577 0 1.0442 0.0442 0 0.9647 0.0442 -0.3996
5 24 0.946 0.0577 -0.3918 1.0239 0.0577 0 0.9647 0.0442 -0.3996 0.9239 0.0625 -0.3827
5 24 0.946 0.0577 -0.3918 0.9647 0.0442 -0.3996 1.0239 0.0577 0 0.724 0.0577 -0.724
4 16 0.9647 0.0442 -0.3996 1.0442 0.0442 0 1.0577 0.0239 0 0.9772 0.0239 -0.4048
5 24 0.9647 0.0442 -0.3996 1.0442 0.0442 0 0.9772 0.0239 -0.4048 0.946 0.0577 -0.3918
5 24 0.9647 0.0442 -0.3996 0.9772 0.0239 -0.4048 1.0442 0.0442 0 0.7384 0.0442 -0.7384
4 16 0.9772 0.0239 -0.4048 1.0577 0.0239 0 1.0625 0 0 0.9816 0 -0.4066
5 24 0.9772 0.0239 -0.4048 1.0577 0.0239 0 0.9816 0 -0.4066 0.9647 0.0442 -0.3996
5 24 0.9772 0.0239 -0.4048 0.9816 0 -0.4066 1.0577 0.0239 0 0.7479 0.0239 -0.7479
5 24 0.9816 0 -0.4066 1.0625 0 0 0.9772 -0.0239 -0.4048 0.9772 0.0239 -0.4048

