0 Boat Mast  2 x  2 x 16 Top
0 Name: 2538.dat
0 Author: Andy Westrate [westrate]
0 !LDRAW_ORG Part UPDATE 2002-06
0 !LICENSE Redistributable under CCAL version 2.0 : see CAreadme.txt

0 !HISTORY 2002-12-31 [PTadmin] Official Update 2002-06
0 !HISTORY 2007-05-14 [PTadmin] Header formatted for Contributor Agreement
0 !HISTORY 2008-07-01 [PTadmin] Official Update 2008-01

 1 16 0 0 0 -1.4142 0 -1.4142 0 -212 0 1.4142 0 -1.4142 1-4con6.dat
 1 16 0 0 0 -1.4142 0 1.4142 0 -212 0 -1.4142 0 -1.4142 1-4con6.dat
 1 16 0 0 0 1.4142 0 1.4142 0 -212 0 -1.4142 0 1.4142 1-4con6.dat
 1 16 0 0 0 -9.8995 0 -9.8995 0 1 0 9.8995 0 -9.8995 3-4edge.dat
 1 16 0 -212 0 -8.4853 0 -8.4853 0 1 0 8.4853 0 -8.4853 3-4edge.dat
 1 16 0 -80 0 -8 0 0 0 -132 0 0 0 -8 2-4cyli.dat
 1 16 0 -80 0 -8 0 0 0 1 0 0 0 -8 2-4disc.dat
 1 16 0 -80 0 -8 0 0 0 1 0 0 0 -8 2-4edge.dat
 1 16 0 -212 0 -8 0 0 0 1 0 0 0 -8 2-4edge.dat
 1 16 0 -216 0 -6 0 0 0 1 0 0 0 -6 2-4edge.dat
 1 16 0 -356 0 -6 0 0 0 1 0 0 0 -6 2-4edge.dat
 1 16 0 -216 0 -1.4142 0 -1.4142 0 -140 0 1.4142 0 -1.4142 1-4con5.dat
 1 16 0 -216 0 -1.4142 0 1.4142 0 -140 0 -1.4142 0 -1.4142 1-4con5.dat
 1 16 0 -216 0 1.4142 0 1.4142 0 -140 0 -1.4142 0 1.4142 1-4con5.dat
 1 16 0 -216 0 -8.4853 0 -8.4853 0 1 0 8.4853 0 -8.4853 3-4edge.dat
 1 16 0 -356 0 -7.0711 0 -7.0711 0 1 0 7.0711 0 -7.0711 3-4edge.dat
 1 16 0 -216 0 -6 0 0 0 -140 0 0 0 -6 2-4cyli.dat
 4 16 10 -356 0 10 -360 0 8 -360 -30 8 -356 -30
 4 16 10 -356 0 10 -360 0 8 -360 30 8 -356 30
 2 24 10 -356 0 10 -360 0
 2 24 10 -356 0 8 -356 -30
 2 24 10 -356 0 8 -356 30
 2 24 10 -360 0 8 -360 -30
 2 24 10 -360 0 8 -360 30
 2 24 -10 -356 0 -10 -360 0
 2 24 -10 -356 0 -8 -356 30
 2 24 -10 -356 0 -8 -356 -30
 2 24 -10 -360 0 -8 -360 30
 2 24 -10 -360 0 -8 -360 -30
 4 16 -4 -360 26 -10 -360 0 -8 -360 30 -4 -360 30
 4 16 -4 -360 26 -10 -360 0 10 -360 0 4 -360 26
 4 16 4 -360 26 10 -360 0 8 -360 30 4 -360 30
 4 16 4 -360 -26 10 -360 0 8 -360 -30 4 -360 -30
 4 16 4 -360 -26 10 -360 0 -10 -360 0 -4 -360 -26
 4 16 -4 -360 -26 -10 -360 0 -8 -360 -30 -4 -360 -30
 4 16 -4 -356 26 -10 -356 0 -8 -356 30 -4 -356 30
 4 16 -4 -356 26 -10 -356 0 10 -356 0 4 -356 26
 4 16 4 -356 26 10 -356 0 8 -356 30 4 -356 30
 4 16 4 -356 -26 10 -356 0 8 -356 -30 4 -356 -30
 4 16 4 -356 -26 10 -356 0 -10 -356 0 -4 -356 -26
 4 16 -4 -356 -26 -10 -356 0 -8 -356 -30 -4 -356 -30
 4 16 -10 -356 0 -10 -360 0 -8 -360 -30 -8 -356 -30
 4 16 -10 -356 0 -10 -360 0 -8 -360 30 -8 -356 30
 1 16 0 -356 30 8 0 0 0 -4 0 0 0 8 2-4cyli.dat
 1 16 0 -356 30 4 0 0 0 1 0 0 0 4 2-4RING1.DAT
 1 16 0 -360 30 4 0 0 0 1 0 0 0 4 2-4RING1.DAT
 1 16 0 -360 30 -4 0 0 0 1 0 0 0 -4 2-4ndis.dat
 1 16 0 -356 30 -4 0 0 0 1 0 0 0 -4 2-4ndis.dat
 1 16 0 -360 -30 4 0 0 0 1 0 0 0 4 2-4ndis.dat
 1 16 0 -356 -30 4 0 0 0 1 0 0 0 4 2-4ndis.dat
 1 16 0 -356 -30 -4 0 0 0 1 0 0 0 -4 2-4RING1.DAT
 1 16 0 -360 -30 -4 0 0 0 1 0 0 0 -4 2-4RING1.DAT
 1 16 0 -356 30 0 0 -4 0 -4 0 4 0 0 4-4cyli.dat
 1 16 0 -356 -30 0 0 4 0 -4 0 -4 0 0 4-4cyli.dat
 1 16 0 -356 -30 -8 0 0 0 -4 0 0 0 -8 2-4cyli.dat
 4 16 12 -212 0 12 -216 0 8 -216 -30 8 -212 -30
 2 24 12 -212 0 12 -216 0
 2 24 12 -212 0 8 -212 -30
 2 24 12 -212 0 8 -212 30
 2 24 12 -216 0 8 -216 -30
 2 24 12 -216 0 8 -216 30
 2 24 -12 -212 0 -12 -216 0
 2 24 -12 -212 0 -8 -212 30
 2 24 -12 -212 0 -8 -212 -30
 2 24 -12 -216 0 -8 -216 30
 2 24 -12 -216 0 -8 -216 -30
 1 16 0 -212 30 0 0 -4 0 -4 0 4 0 0 4-4cyli.dat
 1 16 0 -212 30 0 0 -4 0 1 0 4 0 0 4-4edge.dat
 1 16 0 -216 30 0 0 -4 0 1 0 4 0 0 4-4edge.dat
 1 16 0 -356 30 0 0 -4 0 1 0 4 0 0 4-4edge.dat
 1 16 0 -212 -30 0 0 4 0 1 0 -4 0 0 4-4edge.dat
 1 16 0 -216 -30 0 0 4 0 1 0 -4 0 0 4-4edge.dat
 1 16 0 -356 -30 0 0 4 0 1 0 -4 0 0 4-4edge.dat
 1 16 0 -212 -30 0 0 4 0 -4 0 -4 0 0 4-4cyli.dat
 4 16 12 -212 0 12 -216 0 8 -216 30 8 -212 30
 4 16 -4 -216 26 -12 -216 0 -8 -216 30 -4 -216 30
 4 16 -4 -216 26 -12 -216 0 12 -216 0 4 -216 26
 4 16 4 -216 26 12 -216 0 8 -216 30 4 -216 30
 4 16 4 -216 -26 12 -216 0 8 -216 -30 4 -216 -30
 4 16 4 -216 -26 12 -216 0 -12 -216 0 -4 -216 -26
 4 16 -4 -216 -26 -12 -216 0 -8 -216 -30 -4 -216 -30
 4 16 -4 -212 26 -12 -212 0 -8 -212 30 -4 -212 30
 4 16 -4 -212 26 -12 -212 0 12 -212 0 4 -212 26
 4 16 4 -212 26 12 -212 0 8 -212 30 4 -212 30
 4 16 4 -212 -26 12 -212 0 8 -212 -30 4 -212 -30
 4 16 4 -212 -26 12 -212 0 -12 -212 0 -4 -212 -26
 4 16 -4 -212 -26 -12 -212 0 -8 -212 -30 -4 -212 -30
 4 16 -12 -212 0 -12 -216 0 -8 -216 -30 -8 -212 -30
 4 16 -12 -212 0 -12 -216 0 -8 -216 30 -8 -212 30
 1 16 0 -212 30 8 0 0 0 -4 0 0 0 8 2-4cyli.dat
 1 16 0 -212 30 8 0 0 0 1 0 0 0 8 2-4edge.dat
 1 16 0 -216 30 8 0 0 0 1 0 0 0 8 2-4edge.dat
 1 16 0 -356 30 8 0 0 0 1 0 0 0 8 2-4edge.dat
 1 16 0 -360 30 8 0 0 0 1 0 0 0 8 2-4edge.dat
 1 16 0 -212 -30 -8 0 0 0 1 0 0 0 -8 2-4edge.dat
 1 16 0 -216 -30 -8 0 0 0 1 0 0 0 -8 2-4edge.dat
 1 16 0 -356 -30 -8 0 0 0 1 0 0 0 -8 2-4edge.dat
 1 16 0 -360 -30 -8 0 0 0 1 0 0 0 -8 2-4edge.dat
 1 16 0 -212 -30 -8 0 0 0 -4 0 0 0 -8 2-4cyli.dat
 1 16 0 -212 30 4 0 0 0 1 0 0 0 4 2-4RING1.DAT
 1 16 0 -216 30 4 0 0 0 1 0 0 0 4 2-4RING1.DAT
 1 16 0 -216 30 -4 0 0 0 1 0 0 0 -4 2-4ndis.dat
 1 16 0 -212 30 -4 0 0 0 1 0 0 0 -4 2-4ndis.dat
 1 16 0 -216 -30 4 0 0 0 1 0 0 0 4 2-4ndis.dat
 1 16 0 -212 -30 4 0 0 0 1 0 0 0 4 2-4ndis.dat
 1 16 0 -212 -30 -4 0 0 0 1 0 0 0 -4 2-4RING1.DAT
 1 16 0 -216 -30 -4 0 0 0 1 0 0 0 -4 2-4RING1.DAT
 1 16 0 -360 -30 0 0 -1 0 1 0 1 0 0 stud2a.dat
 1 16 0 -360 30 0 0 1 0 1 0 -1 0 0 stud2a.dat
 1 16 0 -384 0 0 0 1 0 1 0 -1 0 0 stud2a.dat
 1 16 0 -360 0 0 0 -10 0 -24 0 10 0 0 4-4cyli.dat
 1 16 0 -360 0 0 0 -10 0 -24 0 10 0 0 4-4edge.dat
 1 16 0 -384 0 0 0 -10 0 -24 0 10 0 0 4-4edge.dat
 1 16 0 -384 0 0 0 -5 0 1 0 5 0 0 ring1.dat
 1 16 0 -360 0 0 0 -4 0 -24 0 4 0 0 4-4cyli.dat
 1 16 0 -360 0 0 0 -4 0 1 0 4 0 0 4-4edge.dat
 1 16 0 -40 12 0 0 -6 -36 0 0 0 -20 0 box5.dat
 1 16 0 -60 -8 0 0 -1 -1 0 0 0 -5 0 stud3.dat
 1 16 0 -40 -8 0 0 -1 -1 0 0 0 -5 0 stud3.dat
 1 16 0 -20 -8 0 0 -1 -1 0 0 0 -5 0 stud3.dat
 4 16 -10 0 12 -6 -4 12 6 -4 12 10 0 12
 4 16 10 -80 12 6 -76 12 -6 -76 12 -10 -80 12
 4 16 -10 0 12 -6 -4 12 -6 -76 12 -10 -80 12
 4 16 10 -80 12 6 -76 12 6 -4 12 10 0 12
 2 24 -10 -80 12 -10 0 12
 2 24 10 -80 12 -10 -80 12
 2 24 10 0 12 -10 0 12
 2 24 10 -80 12 10 0 12
 1 16 0 0 0 -9.8995 0 -9.8995 0 1 0 9.8995 0 -9.8995 3-4disc.dat
 3 16 0 0 0 -9.899 0 9.899 9.899 0 9.899
 4 16 -5 0 8 -5 12 8 5 12 8 5 0 8
 2 24 -5 0 8 5 0 8
 2 24 -5 12 8 5 12 8
 1 16 -5 0 5 0 0 -3 0 12 0 3 0 0 1-4cyli.DAT
 1 16 -5 0 5 0 0 -3 0 1 0 3 0 0 1-4edge.DAT
 1 16 -5 12 5 0 0 -3 0 1 0 3 0 0 1-4edge.DAT
 1 16 -5 12 5 0 0 -3 0 1 0 3 0 0 1-4disc.dat
 3 16 -8 12 0 -8 12 5 -5 12 5
 3 16 0 12 8 -5 12 8 -5 12 5
 4 16 -8 0 -5 -8 12 -5 -8 12 5 -8 0 5
 2 24 -8 0 -5 -8 0 5
 2 24 -8 12 -5 -8 12 5
 1 16 -5 0 -5 -3 0 0 0 12 0 0 0 -3 1-4cyli.DAT
 1 16 -5 0 -5 -3 0 0 0 1 0 0 0 -3 1-4edge.DAT
 1 16 -5 12 -5 -3 0 0 0 1 0 0 0 -3 1-4edge.DAT
 1 16 -5 12 -5 -3 0 0 0 1 0 0 0 -3 1-4disc.dat
 3 16 0 12 -8 -5 12 -8 -5 12 -5
 3 16 -8 12 0 -8 12 -5 -5 12 -5
 4 16 5 0 -8 5 12 -8 -5 12 -8 -5 0 -8
 2 24 5 0 -8 -5 0 -8
 2 24 5 12 -8 -5 12 -8
 1 16 5 0 -5 0 0 3 0 12 0 -3 0 0 1-4cyli.DAT
 1 16 5 0 -5 0 0 3 0 1 0 -3 0 0 1-4edge.DAT
 1 16 5 12 -5 0 0 3 0 1 0 -3 0 0 1-4edge.DAT
 1 16 5 12 -5 0 0 3 0 1 0 -3 0 0 1-4disc.dat
 3 16 8 12 0 8 12 -5 5 12 -5
 3 16 0 12 -8 5 12 -8 5 12 -5
 4 16 8 0 5 8 12 5 8 12 -5 8 0 -5
 2 24 8 0 5 8 0 -5
 2 24 8 12 5 8 12 -5
 1 16 5 0 5 3 0 0 0 12 0 0 0 3 1-4cyli.DAT
 1 16 5 0 5 3 0 0 0 1 0 0 0 3 1-4edge.DAT
 1 16 5 12 5 3 0 0 0 1 0 0 0 3 1-4edge.DAT
 1 16 5 12 5 3 0 0 0 1 0 0 0 3 1-4disc.dat
 3 16 0 12 8 5 12 8 5 12 5
 3 16 8 12 0 8 12 5 5 12 5
 4 16 -9.899 0 9.899 -10 0 12 10 0 12 9.899 0 9.899
 4 16 -9.899 0 9.899 -10 0 12 -10 -80 12 -9.899 -80 9
 4 16 9.899 0 9.899 10 0 12 10 -80 12 9.899 -80 9
 4 16 9.899 0 9.899 10 0 12 10 -80 12 9.899 -80 9
 2 24 9.899 -80 9 10 -80 12
 2 24 9.899 0 9.899 10 0 12
 2 24 -9.899 -80 9 -10 -80 12
 2 24 -9.899 0 9.899 -10 0 12
 4 16 9.899 -80 9 10 -80 12 -10 -80 12 -9.899 -80 9
 4 16 8.85 -80 9 8 -80 0 -8 -80 0 -8.85 -80 9
 2 24 8 -80 0 8.85 -80 9
 2 24 -8 -80 0 -8.85 -80 9
 1 16 0 12 0 0 0 -1 0 -1 0 1 0 0 stud4.DAT
 1 16 0 0 0 0 0 -6 0 12 0 6 0 0 4-4edge.dat
 1 16 0 0 0 0 0 -6 0 12 0 6 0 0 4-4cyli.dat
 3 16 -8.85 -80 9 -8 -80 0 -8 -212 0
 3 16 -8.85 -80 9 -8.4853 -212 8.4853 -8 -212 0
 3 16 -8.4853 -216 8.4853 -6 -216 0 -6 -356 0
 3 16 -8.4853 -216 8.4853 -7.0711 -356 7.0711 -6 -356 0
 3 16 8.85 -80 9 8 -80 0 8 -212 0
 3 16 8.85 -80 9 8.4853 -212 8.4853 8 -212 0
 2 24 8.85 -80 9 8.4853 -212 8.4853
 2 24 -8.85 -80 9 -8.4853 -212 8.4853
 3 16 8.4853 -216 8.4853 6 -216 0 6 -356 0
 3 16 8.4853 -216 8.4853 7.0711 -356 7.0711 6 -356 0
 2 24 8.4853 -216 8.4853 7.0711 -356 7.0711
 2 24 -8.4853 -216 8.4853 -7.0711 -356 7.0711
 2 24 -8 -212 0 -8.4853 -212 8.4853
 2 24 8 -212 0 8.4853 -212 8.4853
 2 24 -8 -216 0 -8.4853 -216 8.4853
 2 24 8 -216 0 8.4853 -216 8.4853
 2 24 -6 -356 0 -7.0711 -356 7.0711
 2 24 6 -356 0 7.0711 -356 7.0711
 1 16 -16 -6 0 0 -2 0 0 0 -2 2 0 0 4-8sphe.dat
 1 16 -16 -6 0 0 2.5 0 0 0 -2 2 0 0 4-4cyli.dat
 1 16 16 -6 0 0 -2.5 0 0 0 -2 -2 0 0 4-4cyli.dat
 1 16 16 -6 0 0 2 0 0 0 -2 -2 0 0 4-8sphe.dat
0
