0 Wedge  2 x 12 Triple
0 Name: 30382.dat
0 Author: Tore Eriksson [Tore_Eriksson]
0 !LDRAW_ORG Part UPDATE 2000-02
0 !LICENSE Redistributable under CCAL version 2.0 : see CAreadme.txt

0 !HISTORY 2000-09-30 [PTadmin] Official Update 2000-02
0 !HISTORY 2007-06-09 [PTadmin] Header formatted for Contributor Agreement
0 !HISTORY 2008-07-01 [PTadmin] Official Update 2008-01

0 // TEXTURE ROOF
4 16 60 0 -10 60 0 10 160 20 10 160 20 -10 
4 16 -60 0 -10 -60 0 10 -160 20 10 -160 20 -10 
3 16 60 0 -10 60 20 -30 160 20 -10 
3 16 -60 0 -10 -60 20 -30 -160 20 -10 
4 16 -60 0 -10 -60 20 -30 60 20 -30 60 0 -10 
 0 TEXTURE END
1 16 0 16 8 40 0 0 0 0 0 0 0 2 rect.dat
2 24 40 4 6 40 16 6 
2 24 -40 4 6 -40 16 6 
2 24 -40 4 6 40 4 6 
4 16 40 4 6 -40 4 6 -40 16 6 40 16 6 
1 16 -20 4 0 1 0 0 0 -3 0 0 0 1 stud3.dat
1 16 0 4 0 1 0 0 0 -3 0 0 0 1 stud3.dat
1 16 20 4 0 1 0 0 0 -3 0 0 0 1 stud3.dat
2 24 40 4 6 40 4 -10 
2 24 -40 4 6 -40 4 -10 
2 24 -40 4 -10 40 4 -10 
2 24 -40 24 -10 40 24 -10 
2 24 40 4 6 40 16 6 
2 24 -40 4 6 -40 16 6 
2 24 40 4 -10 40 24 -10 
2 24 -40 4 -10 -40 24 -10 
4 16 40 4 6 40 4 -10 40 24 -10 40 16 6 
4 16 -40 4 6 -40 4 -10 -40 24 -10 -40 16 6 
1 16 -30 10 -8 1 0 0 0 6 0 0 0 2 box.dat
1 16 -10 10 -8 1 0 0 0 6 0 0 0 2 box.dat
1 16 10 10 -8 1 0 0 0 6 0 0 0 2 box.dat
1 16 30 10 -8 1 0 0 0 6 0 0 0 2 box.dat
1 16 38 10 0 2 0 0 0 6 0 0 0 1 box.dat
1 16 -38 10 0 2 0 0 0 6 0 0 0 1 box.dat
4 16 -40 4 6 40 4 6 40 4 -10 -40 4 -10 
4 16 40 4 -10 40 24 -10 -40 24 -10 -40 4 -10 
2 24 40 16 10 40 24 10 
2 24 -40 16 10 -40 24 10 
2 24 40 24 -10 40 24 10 
2 24 -40 24 -10 -40 24 10 
4 16 40 16 10 40 24 10 40 24 -10 40 16 6 
4 16 -40 16 10 -40 24 10 -40 24 -10 -40 16 6 
1 16 0 0 0 60 0 0 0 0 0 0 0 10 rect.dat
1 16 -50 0 0 1 0 0 0 1 0 0 0 1 stud.dat
1 16 -30 0 0 1 0 0 0 1 0 0 0 1 stud.dat
1 16 -10 0 0 1 0 0 0 1 0 0 0 1 stud.dat
1 16 10 0 0 1 0 0 0 1 0 0 0 1 stud.dat
1 16 30 0 0 1 0 0 0 1 0 0 0 1 stud.dat
1 16 50 0 0 1 0 0 0 1 0 0 0 1 stud.dat
2 24 -60 20 -30 60 20 -30 
2 24 -60 24 -30 60 24 -30 
2 24 60 0 -10 160 20 -10 
2 24 -60 0 -10 -160 20 -10 
2 24 60 0 -10 60 20 -30 
2 24 -60 0 -10 -60 20 -30 
2 24 60 0 10 160 20 10 
2 24 -60 0 10 -160 20 10 
2 24 160 20 -10 160 20 10 
2 24 -160 20 -10 -160 20 10 
2 24 160 20 -10 160 24 -10 
2 24 -160 20 -10 -160 24 -10 
2 24 160 20 10 160 24 10 
2 24 -160 20 10 -160 24 10 
2 24 160 24 -10 160 24 10 
2 24 -160 24 -10 -160 24 10 
4 16 160 20 -10 160 24 -10 160 24 10 160 20 10 
4 16 -160 20 -10 -160 24 -10 -160 24 10 -160 20 10 
2 24 160 20 -10 60 20 -30 
2 24 -160 20 -10 -60 20 -30 
2 24 60 20 -30 60 24 -30 
2 24 -60 20 -30 -60 24 -30 
4 16 -60 20 -30 60 20 -30 60 24 -30 -60 24 -30 
2 24 -40 24 -14 40 24 -14 
4 16 -40 24 -10 40 24 -10 40 24 -14 -40 24 -14 
2 24 40 8 -14 -40 8 -14 
2 24 40 20 -26 -40 20 -26 
2 24 40 24 -14 -40 24 -14 
2 24 40 24 -26 -40 24 -26 
4 16 40 8 -14 40 20 -26 -40 20 -26 -40 8 -14 
4 16 40 8 -14 40 24 -14 -40 24 -14 -40 8 -14 
4 16 40 24 -26 40 20 -26 -40 20 -26 -40 24 -26 
2 24 40 8 -14 40 20 -26 
2 24 -40 8 -14 -40 20 -26 
2 24 40 20 -26 40 24 -26 
2 24 -40 20 -26 -40 24 -26 
2 24 40 24 -26 40 24 -19 
2 24 -40 24 -26 -40 24 -19 
2 24 40 24 -26 40 24 -21 
2 24 -40 24 -26 -40 24 -21 
2 24 40 24 -14 40 8 -14 
2 24 -40 24 -14 -40 8 -14 
4 16 40 8 -14 40 20 -26 40 24 -26 40 24 -14 
4 16 -40 8 -14 -40 20 -26 -40 24 -26 -40 24 -14 
2 24 44 24 -26 60 24 -26 
2 24 -44 24 -26 -60 24 -26 
2 24 36 13 -19 36 15 -21 
2 24 -36 13 -19 -36 15 -21 
2 24 36 13 -19 36 24 -19 
2 24 -36 13 -19 -36 24 -19 
2 24 36 15 -21 36 24 -21 
2 24 -36 15 -21 -36 24 -21 
2 24 36 24 -19 36 24 -21 
2 24 -36 24 -19 -36 24 -21 
2 24 36 13 -19 36 24 -19 
2 24 -36 13 -19 -36 24 -19 
2 24 40 13 -19 40 24 -19 
2 24 -40 13 -19 -40 24 -19 
4 16 40 13 -19 36 13 -19 36 24 -19 40 24 -19 
4 16 -40 13 -19 -36 13 -19 -36 24 -19 -40 24 -19 
4 16 36 15 -21 36 13 -19 36 24 -19 36 24 -21 
4 16 -36 15 -21 -36 13 -19 -36 24 -19 -36 24 -21 
4 16 36 24 -19 40 24 -19 40 24 -21 36 24 -21 
4 16 -36 24 -19 -40 24 -19 -40 24 -21 -36 24 -21 
4 16 36 15 -21 36 24 -21 40 24 -21 40 15 -21 
4 16 -36 15 -21 -36 24 -21 -40 24 -21 -40 15 -21 
4 16 -60 24 -26 60 24 -26 60 24 -30 -60 24 -30 
1 16 -20 14 -20 4 0 0 0 0 -4 0 0 4 4-4edge.dat
1 16 0 14 -20 4 0 0 0 0 -4 0 0 4 4-4edge.dat
1 16 20 14 -20 4 0 0 0 0 -4 0 0 4 4-4edge.dat
1 16 -20 18 -20 0 0 4 0 -4 0 -4 0 0 2-4cyls.dat
1 16 -20 18 -20 0 0 -4 0 -4 0 -4 0 0 2-4cyls.dat
1 16 0 18 -20 0 0 4 0 -4 0 -4 0 0 2-4cyls.dat
1 16 0 18 -20 0 0 -4 0 -4 0 -4 0 0 2-4cyls.dat
1 16 20 18 -20 0 0 4 0 -4 0 -4 0 0 2-4cyls.dat
1 16 20 18 -20 0 0 -4 0 -4 0 -4 0 0 2-4cyls.dat
1 16 -20 24 -20 4 0 0 0 0 0 0 0 4 4-4edge.dat
1 16 0 24 -20 4 0 0 0 0 0 0 0 4 4-4edge.dat
1 16 20 24 -20 4 0 0 0 0 0 0 0 4 4-4edge.dat
1 16 -20 18 -20 4 0 0 0 6 0 0 0 4 4-4cyli.dat
1 16 0 18 -20 4 0 0 0 6 0 0 0 4 4-4cyli.dat
1 16 20 18 -20 4 0 0 0 6 0 0 0 4 4-4cyli.dat
1 16 -20 24 -20 4 0 0 0 0 0 0 0 4 4-4disc.dat
1 16 0 24 -20 4 0 0 0 0 0 0 0 4 4-4disc.dat
1 16 20 24 -20 4 0 0 0 0 0 0 0 4 4-4disc.dat
4 16 -60 0 10 60 0 10 40 16 10 -40 16 10 
0 bottom sides
2 24 44 24 6 44 24 -6 
2 24 -44 24 6 -44 24 -6 
2 24 44 24 -14 44 24 -26 
2 24 -44 24 -14 -44 24 -26 
4 16 40 24 -26 40 24 10 44 24 6 44 24 -26 
4 16 -40 24 -26 -40 24 10 -44 24 6 -44 24 -26 
2 24 44 24 6 156 24 6 
2 24 -44 24 6 -156 24 6 
2 24 156 24 6 156 20 6 
2 24 -156 24 6 -156 20 6 
2 24 156 20 6 146 20 6 
2 24 -156 20 6 -146 20 6 
2 24 146 20 6 60 4 6 
2 24 -146 20 6 -60 4 6 
2 24 60 4 6 44 4 6 
2 24 -60 4 6 -44 4 6 
2 24 44 4 6 44 24 6 
2 24 -44 4 6 -44 24 6 
4 16 44 24 6 44 4 6 60 4 6 146 20 6 
4 16 -44 24 6 -44 4 6 -60 4 6 -146 20 6 
4 16 44 24 6 146 20 6 156 20 6 156 24 6 
4 16 -44 24 6 -146 20 6 -156 20 6 -156 24 6 
2 24 40 24 10 160 24 10 
2 24 -40 24 10 -160 24 10 
4 16 40 24 10 160 24 10 156 24 6 44 24 6 
4 16 -40 24 10 -160 24 10 -156 24 6 -44 24 6 
4 16 60 0 10 40 16 10 160 20 10 160 24 10 
4 16 -60 0 10 -40 16 10 -160 20 10 -160 24 10 
3 16 40 16 10 160 24 10 40 24 10 
3 16 -40 16 10 -160 24 10 -40 24 10 
2 24 44 24 -6 138 24 -6 
2 24 -44 24 -6 -138 24 -6 
2 24 138 24 -6 138 18.5 -6 
2 24 -138 24 -6 -138 18.5 -6 
2 24 138 18.5 -6 60 4 -6 
2 24 -138 18.5 -6 -60 4 -6 
2 24 60 4 -6 44 4 -6 
2 24 -60 4 -6 -44 4 -6 
2 24 44 4 -6 44 24 -6 
2 24 -44 4 -6 -44 24 -6 
4 16 44 24 -6 138 24 -6 138 18.5 -6 60 4 -6 
4 16 -44 24 -6 -138 24 -6 -138 18.5 -6 -60 4 -6 
3 16 44 24 -6 60 4 -6 44 4 -6 
3 16 -44 24 -6 -60 4 -6 -44 4 -6 
2 24 44 4 -6 44 4 6 
2 24 -44 4 -6 -44 4 6 
4 16 44 4 -6 44 24 -6 44 24 6 44 4 6 
4 16 -44 4 -6 -44 24 -6 -44 24 6 -44 4 6 
2 24 60 4 -6 60 4 6 
2 24 -60 4 -6 -60 4 6 
4 16 44 4 -6 60 4 -6 60 4 6 44 4 6 
4 16 -44 4 -6 -60 4 -6 -60 4 6 -44 4 6 
4 16 60 4 -6 138 18.5 -6 138 18.5 6 60 4 6 
4 16 -60 4 -6 -138 18.5 -6 -138 18.5 6 -60 4 6 
2 24 138 24 -6 139 24 -10 
2 24 -138 24 -6 -139 24 -10 
2 24 138 18.5 -6 139 18.6 -10 
2 24 -138 18.5 -6 -139 18.6 -10 
2 24 139 24 -10 139 18.6 -10 
2 24 -139 24 -10 -139 18.6 -10 
2 24 139 24 -10 156 24 -6 
2 24 -139 24 -10 -156 24 -6 
4 16 138 24 -6 138 18.5 -6 139 18.6 -10 139 24 -10 
4 16 -138 24 -6 -138 18.5 -6 -139 18.6 -10 -139 24 -10 
2 24 139 18.6 -10 146 20 -8.5 
2 24 -139 18.6 -10 -146 20 -8.5 
2 24 146 20 -8.5 156 20 -6 
2 24 -146 20 -8.5 -156 20 -6 
2 24 156 20 -6 156 24 -6 
2 24 -156 20 -6 -156 24 -6 
3 16 139 24 -10 139 18.6 -10 146 20 -8.5 
3 16 -139 24 -10 -139 18.6 -10 -146 20 -8.5 
3 16 139 24 -10 146 20 -8.5 156 24 -6 
3 16 -139 24 -10 -146 20 -8.5 -156 24 -6 
3 16 156 24 -6 146 20 -8.5 156 20 -6 
3 16 -156 24 -6 -146 20 -8.5 -156 20 -6 
4 16 156 24 -6 156 24 6 160 24 10 160 24 -10 
4 16 -156 24 -6 -156 24 6 -160 24 10 -160 24 -10 
2 24 60 20 -26 134.215 20 -11.078 
2 24 -60 20 -26 -134.215 20 -11.078 
2 24 134.215 24 -11.078 135.216 24 -10.878 
2 24 -134.215 24 -11.078 -135.216 24 -10.878 
2 24 134.215 20 -11.078 135.216 20 -10.878 
2 24 -134.215 20 -11.078 -135.216 20 -10.878 
2 24 135.216 24 -10.878 135.216 20 -10.878 
2 24 -135.216 24 -10.878 -135.216 20 -10.878 
4 16 134.215 24 -11.078 135.216 24 -10.878 135.216 20 -10.878 134.215 20 -11.078 
4 16 -134.215 24 -11.078 -135.216 24 -10.878 -135.216 20 -10.878 -134.215 20 -11.078 
2 24 135.216 24 -10.878 135.216 24 -10 
2 24 -135.216 24 -10.878 -135.216 24 -10 
2 24 135.216 20 -10.878 135.216 20 -10 
2 24 -135.216 20 -10.878 -135.216 20 -10 
2 24 135.216 20 -10 135.216 24 -10 
2 24 -135.216 20 -10 -135.216 24 -10 
4 16 135.216 24 -10.878 135.216 24 -10 135.216 20 -10 135.216 20 -10.878 
4 16 -135.216 24 -10.878 -135.216 24 -10 -135.216 20 -10 -135.216 20 -10.878 
2 24 135.216 24 -10 51 24 -10 
2 24 -135.216 24 -10 -51 24 -10 
2 24 51 24 -10 51 4 -10 
2 24 -51 24 -10 -51 4 -10 
2 24 51 4 -10 60 4 -10 
2 24 -51 4 -10 -60 4 -10 
2 24 60 4 -10 135.216 20 -10 
2 24 -60 4 -10 -135.216 20 -10 
4 16 135.216 24 -10 51 24 -10 51 4 -10 135.216 20 -10 
4 16 -135.216 24 -10 -51 24 -10 -51 4 -10 -135.216 20 -10 
2 24 51 24 -10 51 24 -14 
2 24 -51 24 -10 -51 24 -14 
2 24 51 24 -14 51 8 -14 
2 24 -51 24 -14 -51 8 -14 
2 24 51 8 -14 51 4 -10 
2 24 -51 8 -14 -51 4 -10 
2 24 51 4 -10 51 24 -10 
2 24 -51 4 -10 -51 24 -10 
4 16 51 24 -10 51 24 -14 51 8 -14 51 4 -10 
4 16 -51 24 -10 -51 24 -14 -51 8 -14 -51 4 -10 
2 24 51 24 -14 49 24 -14 
2 24 -51 24 -14 -49 24 -14 
2 24 49 24 -14 49 8 -14 
2 24 -49 24 -14 -49 8 -14 
2 24 49 8 -14 51 8 -14 
2 24 -49 8 -14 -51 8 -14 
2 24 51 8 -14 51 24 -14 
2 24 -51 8 -14 -51 24 -14 
4 16 51 24 -14 49 24 -14 49 8 -14 51 8 -14 
4 16 -51 24 -14 -49 24 -14 -49 8 -14 -51 8 -14 
2 24 49 24 -14 49 24 -10 
2 24 -49 24 -14 -49 24 -10 
2 24 49 24 -10 49 4 -10 
2 24 -49 24 -10 -49 4 -10 
2 24 49 4 -10 49 8 -14 
2 24 -49 4 -10 -49 8 -14 
2 24 49 8 -14 49 24 -14 
2 24 -49 8 -14 -49 24 -14 
4 16 49 24 -14 49 24 -10 49 4 -10 49 8 -14 
4 16 -49 24 -14 -49 24 -10 -49 4 -10 -49 8 -14 
2 24 49 24 -10 44 24 -10 
2 24 -49 24 -10 -44 24 -10 
2 24 44 24 -10 44 4 -10 
2 24 -44 24 -10 -44 4 -10 
2 24 44 4 -10 49 4 -10 
2 24 -44 4 -10 -49 4 -10 
2 24 49 4 -10 49 24 -10 
2 24 -49 4 -10 -49 24 -10 
4 16 49 24 -10 44 24 -10 44 4 -10 49 4 -10 
4 16 -49 24 -10 -44 24 -10 -44 4 -10 -49 4 -10 
2 24 44 24 -10 44 24 -26 
2 24 -44 24 -10 -44 24 -26 
2 24 44 24 -26 44 20 -26 
2 24 -44 24 -26 -44 20 -26 
2 24 44 20 -26 44 4 -10 
2 24 -44 20 -26 -44 4 -10 
2 24 44 4 -10 44 24 -10 
2 24 -44 4 -10 -44 24 -10 
4 16 44 24 -10 44 24 -26 44 20 -26 44 4 -10 
4 16 -44 24 -10 -44 24 -26 -44 20 -26 -44 4 -10 
2 24 44 24 -26 60 24 -26 
2 24 -44 24 -26 -60 24 -26 
2 24 60 24 -26 60 20 -26 
2 24 -60 24 -26 -60 20 -26 
2 24 60 20 -26 44 20 -26 
2 24 -60 20 -26 -44 20 -26 
2 24 44 20 -26 44 24 -26 
2 24 -44 20 -26 -44 24 -26 
4 16 44 24 -26 60 24 -26 60 20 -26 44 20 -26 
4 16 -44 24 -26 -60 24 -26 -60 20 -26 -44 20 -26 
2 24 60 20 -26 60 4 -10 
2 24 -60 20 -26 -60 4 -10 
4 16 51 24 -10 51 24 -14 49 24 -14 49 24 -10 
4 16 -51 24 -10 -51 24 -14 -49 24 -14 -49 24 -10 
3 16 135.216 20 -10 60 20 -26 60 4 -10 
3 16 -135.216 20 -10 -60 20 -26 -60 4 -10 
3 16 135.216 20 -10 51 4 -10 60 4 -10 
3 16 -135.216 20 -10 -51 4 -10 -60 4 -10 
4 16 51 8 -14 49 8 -14 44 20 -26 60 20 -26 
4 16 -51 8 -14 -49 8 -14 -44 20 -26 -60 20 -26 
3 16 49 8 -14 49 4 -10 44 4 -10 
3 16 -49 8 -14 -49 4 -10 -44 4 -10 
3 16 49 8 -14 44 4 -10 44 20 -26 
3 16 -49 8 -14 -44 4 -10 -44 20 -26 
3 16 51 4 -10 60 20 -26 60 4 -10 
3 16 -51 4 -10 -60 20 -26 -60 4 -10 
3 16 51 4 -10 51 8 -14 60 20 -26 
3 16 -51 4 -10 -51 8 -14 -60 20 -26 
4 16 135.216 24 -10 44 24 -10 44 24 -6 138 24 -6 
4 16 -135.216 24 -10 -44 24 -10 -44 24 -6 -138 24 -6 
4 16 135.216 24 -10 135.216 24 -10.878 138 24 -6 139 24 -10 
4 16 -135.216 24 -10 -135.216 24 -10.878 -138 24 -6 -139 24 -10 
3 16 135.216 24 -10.878 139 24 -10 160 24 -10 
3 16 -135.216 24 -10.878 -139 24 -10 -160 24 -10 
3 16 139 24 -10 160 24 -10 156 24 -6 
3 16 -139 24 -10 -160 24 -10 -156 24 -6 
2 24 60 24 -30 65 24 -29 
2 24 -60 24 -30 -65 24 -29 
4 16 60 24 -30 65 24 -29 65 20 -29 60 20 -30 
4 16 -60 24 -30 -65 24 -29 -65 20 -29 -60 20 -30 
2 24 76 24 -26.8 85 24 -25 
2 24 -76 24 -26.8 -85 24 -25 
4 16 76 24 -26.8 85 24 -25 85 20 -25 76 20 -26.8 
4 16 -76 24 -26.8 -85 24 -25 -85 20 -25 -76 20 -26.8 
2 24 97 24 -22.6 104 24 -21.2 
2 24 -97 24 -22.6 -104 24 -21.2 
4 16 97 24 -22.6 104 24 -21.2 104 20 -21.2 97 20 -22.6 
4 16 -97 24 -22.6 -104 24 -21.2 -104 20 -21.2 -97 20 -22.6 
2 24 116 24 -18.8 125 24 -17 
2 24 -116 24 -18.8 -125 24 -17 
4 16 116 24 -18.8 125 24 -17 125 20 -17 116 20 -18.8 
4 16 -116 24 -18.8 -125 24 -17 -125 20 -17 -116 20 -18.8 
2 24 135 24 -15 160 24 -10 
2 24 -135 24 -15 -160 24 -10 
4 16 135 24 -15 160 24 -10 160 20 -10 135 20 -15 
4 16 -135 24 -15 -160 24 -10 -160 20 -10 -135 20 -15 
2 24 65 24 -29 65 20 -29 
2 24 -65 24 -29 -65 20 -29 
2 24 76 24 -26.8 76 20 -26.8 
2 24 -76 24 -26.8 -76 20 -26.8 
2 24 85 24 -25 85 20 -25 
2 24 -85 24 -25 -85 20 -25 
2 24 97 24 -22.6 97 20 -22.6 
2 24 -97 24 -22.6 -97 20 -22.6 
2 24 104 24 -21.2 104 20 -21.2 
2 24 -104 24 -21.2 -104 20 -21.2 
2 24 116 24 -18.8 116 20 -18.8 
2 24 -116 24 -18.8 -116 20 -18.8 
2 24 125 24 -17 125 20 -17 
2 24 -125 24 -17 -125 20 -17 
2 24 135 24 -15 135 20 -15 
2 24 -135 24 -15 -135 20 -15 
4 16 60 24 -30 60 24 -26 64.2155 24 -25.078 65 24 -29 
4 16 -60 24 -30 -60 24 -26 -64.2155 24 -25.078 -65 24 -29 
4 16 76 24 -26.8 75.2155 24 -22.878 84.2155 24 -21.078 85 24 -25 
4 16 -76 24 -26.8 -75.2155 24 -22.878 -84.2155 24 -21.078 -85 24 -25 
4 16 97 24 -22.6 96.2155 24 -18.678 103.215 24 -17.278 104 24 -21.2 
4 16 -97 24 -22.6 -96.2155 24 -18.678 -103.215 24 -17.278 -104 24 -21.2 
4 16 116 24 -18.8 115.215 24 -14.878 124.215 24 -13.078 125 24 -17 
4 16 -116 24 -18.8 -115.215 24 -14.878 -124.215 24 -13.078 -125 24 -17 
4 16 135 24 -15 134.215 24 -11.078 135.216 24 -10.878 160 24 -10 
4 16 -135 24 -15 -134.215 24 -11.078 -135.216 24 -10.878 -160 24 -10 
2 24 60 24 -26 64.2155 24 -25.078 
2 24 -60 24 -26 -64.2155 24 -25.078 
2 24 75.2155 24 -22.878 84.2155 24 -21.078 
2 24 -75.2155 24 -22.878 -84.2155 24 -21.078 
2 24 96.2155 24 -18.678 103.215 24 -17.278 
2 24 -96.2155 24 -18.678 -103.215 24 -17.278 
2 24 115.215 24 -14.878 124.215 24 -13.078 
2 24 -115.215 24 -14.878 -124.215 24 -13.078 
2 24 65 24 -29 64.2155 24 -25.078 
2 24 -65 24 -29 -64.2155 24 -25.078 
2 24 65 20 -29 64.2155 20 -25.078 
2 24 -65 20 -29 -64.2155 20 -25.078 
4 16 65 24 -29 65 20 -29 64.2155 24 -25.078 64.2155 20 -25.078 
4 16 -65 24 -29 -65 20 -29 -64.2155 24 -25.078 -64.2155 20 -25.078 
2 24 76 24 -26.8 75.2155 24 -22.878 
2 24 -76 24 -26.8 -75.2155 24 -22.878 
2 24 76 20 -26.8 75.2155 20 -22.878 
2 24 -76 20 -26.8 -75.2155 20 -22.878 
4 16 76 24 -26.8 76 20 -26.8 75.2155 24 -22.878 75.2155 20 -22.878 
4 16 -76 24 -26.8 -76 20 -26.8 -75.2155 24 -22.878 -75.2155 20 -22.878 
2 24 85 24 -25 84.2155 24 -21.078 
2 24 -85 24 -25 -84.2155 24 -21.078 
2 24 85 20 -25 84.2155 20 -21.078 
2 24 -85 20 -25 -84.2155 20 -21.078 
4 16 85 24 -25 85 20 -25 84.2155 24 -21.078 84.2155 20 -21.078 
4 16 -85 24 -25 -85 20 -25 -84.2155 24 -21.078 -84.2155 20 -21.078 
2 24 97 24 -22.6 96.2155 24 -18.678 
2 24 -97 24 -22.6 -96.2155 24 -18.678 
2 24 97 20 -22.6 96.2155 20 -18.678 
2 24 -97 20 -22.6 -96.2155 20 -18.678 
4 16 97 24 -22.6 97 20 -22.6 96.2155 24 -18.678 96.2155 20 -18.678 
4 16 -97 24 -22.6 -97 20 -22.6 -96.2155 24 -18.678 -96.2155 20 -18.678 
2 24 104 24 -21.2 103.215 24 -17.278 
2 24 -104 24 -21.2 -103.215 24 -17.278 
2 24 104 20 -21.2 103.215 20 -17.278 
2 24 -104 20 -21.2 -103.215 20 -17.278 
4 16 104 24 -21.2 104 20 -21.2 103.215 24 -17.278 103.215 20 -17.278 
4 16 -104 24 -21.2 -104 20 -21.2 -103.215 24 -17.278 -103.215 20 -17.278 
2 24 116 24 -18.8 115.215 24 -14.878 
2 24 -116 24 -18.8 -115.215 24 -14.878 
2 24 116 20 -18.8 115.215 20 -14.878 
2 24 -116 20 -18.8 -115.215 20 -14.878 
4 16 116 24 -18.8 116 20 -18.8 115.215 24 -14.878 115.215 20 -14.878 
4 16 -116 24 -18.8 -116 20 -18.8 -115.215 24 -14.878 -115.215 20 -14.878 
2 24 125 24 -17 124.215 24 -13.078 
2 24 -125 24 -17 -124.215 24 -13.078 
2 24 125 20 -17 124.215 20 -13.078 
2 24 -125 20 -17 -124.215 20 -13.078 
4 16 125 24 -17 125 20 -17 124.215 24 -13.078 124.215 20 -13.078 
4 16 -125 24 -17 -125 20 -17 -124.215 24 -13.078 -124.215 20 -13.078 
2 24 135 24 -15 134.215 24 -11.078 
2 24 -135 24 -15 -134.215 24 -11.078 
2 24 135 20 -15 134.215 20 -11.078 
2 24 -135 20 -15 -134.215 20 -11.078 
4 16 135 24 -15 135 20 -15 134.215 24 -11.078 134.215 20 -11.078 
4 16 -135 24 -15 -135 20 -15 -134.215 24 -11.078 -134.215 20 -11.078 
4 16 64.2155 20 -25.078 65 20 -29 76 20 -26.8 75.2155 20 -22.878 
4 16 -64.2155 20 -25.078 -65 20 -29 -76 20 -26.8 -75.2155 20 -22.878 
4 16 64.2155 20 -25.078 64.2155 24 -25.078 60 24 -26 60 20 -26 
4 16 -64.2155 20 -25.078 -64.2155 24 -25.078 -60 24 -26 -60 20 -26 
4 16 84.2155 20 -21.078 85 20 -25 97 20 -22.6 96.2155 20 -18.678 
4 16 -84.2155 20 -21.078 -85 20 -25 -97 20 -22.6 -96.2155 20 -18.678 
4 16 84.2155 20 -21.078 84.2155 24 -21.078 75.2155 24 -22.878 75.2155 20 -22.878 
4 16 -84.2155 20 -21.078 -84.2155 24 -21.078 -75.2155 24 -22.878 -75.2155 20 -22.878 
4 16 103.215 20 -17.278 104 20 -21.2 116 20 -18.8 115.215 20 -14.878 
4 16 -103.215 20 -17.278 -104 20 -21.2 -116 20 -18.8 -115.215 20 -14.878 
4 16 103.215 20 -17.278 103.215 24 -17.278 96.2155 24 -18.678 96.2155 20 -18.678 
4 16 -103.215 20 -17.278 -103.215 24 -17.278 -96.2155 24 -18.678 -96.2155 20 -18.678 
4 16 124.215 20 -13.078 125 20 -17 135 20 -15 134.215 20 -11.078 
4 16 -124.215 20 -13.078 -125 20 -17 -135 20 -15 -134.215 20 -11.078 
4 16 124.215 20 -13.078 124.215 24 -13.078 115.215 24 -14.878 115.215 20 -14.878 
4 16 -124.215 20 -13.078 -124.215 24 -13.078 -115.215 24 -14.878 -115.215 20 -14.878 
1 16 60 4 0 1 0 0 0 -5 0 0 0 1 stud3.dat
1 16 -60 4 0 -1 0 0 0 -5 0 0 0 1 stud3.dat
1 16 60 18 -20 1 0 0 0 -1.5 0 0 0 1 stud3a.dat
1 16 -60 18 -20 -1 0 0 0 -1.5 0 0 0 1 stud3a.dat
1 16 60 18 -20 0 0 -4 0 -4 0 -4 0 0 2-4cyls.dat
1 16 -60 18 -20 0 0 4 0 -4 0 -4 0 0 2-4cyls.dat
1 16 60 18 -20 0 0 4 0 -4 0 -4 0 0 2-4cyls.dat
1 16 -60 18 -20 0 0 -4 0 -4 0 -4 0 0 2-4cyls.dat
1 16 60 14 -20 0 0 4 -4 0 0 4 0 0 4-4edge.dat
1 16 -60 14 -20 0 0 -4 -4 0 0 4 0 0 4-4edge.dat
1 16 80 24 0 4 0 0 0 0 0 0 0 4 4-4edge.dat
1 16 -80 24 0 -4 0 0 0 0 0 0 0 4 4-4edge.dat
1 16 80 24 0 4 0 0 0 0 0 0 0 4 4-4disc.dat
1 16 -80 24 0 -4 0 0 0 0 0 0 0 4 4-4disc.dat
1 16 100 24 0 4 0 0 0 0 0 0 0 4 4-4edge.dat
1 16 -100 24 0 -4 0 0 0 0 0 0 0 4 4-4edge.dat
1 16 100 24 0 4 0 0 0 0 0 0 0 4 4-4disc.dat
1 16 -100 24 0 -4 0 0 0 0 0 0 0 4 4-4disc.dat
1 16 120 24 0 4 0 0 0 0 0 0 0 4 4-4edge.dat
1 16 -120 24 0 -4 0 0 0 0 0 0 0 4 4-4edge.dat
1 16 120 24 0 4 0 0 0 0 0 0 0 4 4-4disc.dat
1 16 -120 24 0 -4 0 0 0 0 0 0 0 4 4-4disc.dat
1 16 140 24 0 4 0 0 0 0 0 0 0 4 4-4edge.dat
1 16 -140 24 0 -4 0 0 0 0 0 0 0 4 4-4edge.dat
1 16 140 24 0 4 0 0 0 0 0 0 0 4 4-4disc.dat
1 16 -140 24 0 -4 0 0 0 0 0 0 0 4 4-4disc.dat
1 16 80 8.465 0 4 0 0 0 -0.7442 0 0 0 4 2-4cyls.dat
1 16 -80 8.465 0 -4 0 0 0 -0.7442 0 0 0 4 2-4cyls.dat
1 16 80 7.7208 0 4 0 0 0.7442 0 0 0 0 4 4-4edge.dat
1 16 -80 7.7208 0 -4 0 0 0.7442 0 0 0 0 4 4-4edge.dat
1 16 100 12.186 0 4 0 0 0 -0.7442 0 0 0 4 2-4cyls.dat
1 16 -100 12.186 0 -4 0 0 0 -0.7442 0 0 0 4 2-4cyls.dat
1 16 100 11.4418 0 4 0 0 0.7442 0 0 0 0 4 4-4edge.dat
1 16 -100 11.4418 0 -4 0 0 0.7442 0 0 0 0 4 4-4edge.dat
1 16 120 15.907 0 4 0 0 0 -0.7442 0 0 0 4 2-4cyls.dat
1 16 -120 15.907 0 -4 0 0 0 -0.7442 0 0 0 4 2-4cyls.dat
1 16 120 15.1628 0 4 0 0 0.7442 0 0 0 0 4 4-4edge.dat
1 16 -120 15.1628 0 -4 0 0 0.7442 0 0 0 0 4 4-4edge.dat
1 16 140 19.628 0 4 0 0 0 -0.7442 0 0 0 4 2-4cyls.dat
1 16 -140 19.628 0 -4 0 0 0 -0.7442 0 0 0 4 2-4cyls.dat
1 16 140 18.8838 0 4 0 0 0.7442 0 0 0 0 4 4-4edge.dat
1 16 -140 18.8838 0 -4 0 0 0.7442 0 0 0 0 4 4-4edge.dat
1 16 80 8.465 0 4 0 0 0 15.535 0 0 0 4 4-4cyli.dat
1 16 -80 8.465 0 -4 0 0 0 15.535 0 0 0 4 4-4cyli.dat
1 16 100 12.186 0 4 0 0 0 11.814 0 0 0 4 4-4cyli.dat
1 16 -100 12.186 0 -4 0 0 0 11.814 0 0 0 4 4-4cyli.dat
1 16 120 15.907 0 4 0 0 0 8.093 0 0 0 4 4-4cyli.dat
1 16 -120 15.907 0 -4 0 0 0 8.093 0 0 0 4 4-4cyli.dat
1 16 140 19.628 0 4 0 0 0 4.372 0 0 0 4 4-4cyli.dat
1 16 -140 19.628 0 -4 0 0 0 4.372 0 0 0 4 4-4cyli.dat
0
