0 Hinge  1 x  2 Top
0 Name: 3938.dat
0 Author: James Jessiman
0 !LDRAW_ORG Part UPDATE 2003-03
0 !LICENSE Redistributable under CCAL version 2.0 : see CAreadme.txt

0 BFC CERTIFY CCW

0 !HISTORY 2003-06-08 [jriley] BFC compliant
0 !HISTORY 2003-09-22 [OrionP] Rounded over bottom
0 !HISTORY 2003-11-05 [Steffen] fixed L3P error
0 !HISTORY 2003-12-19 [PTadmin] Official Update 2003-03
0 !HISTORY 2007-06-30 [PTadmin] Header formatted for Contributor Agreement
0 !HISTORY 2008-07-01 [PTadmin] Official Update 2008-01

1 16 0 8 0 -2 0 0 0 -1 0 0 0 2 rect.dat
2 24 16 2 6 14 2 6
2 24 14 2 6 14 2 2
2 24 14 2 2 -14 2 2
2 24 -14 2 2 -14 2 6
2 24 -14 2 6 -16 2 6
2 24 -16 2 6 -16 2 -6
2 24 -16 2 -6 -14 2 -6
2 24 -14 2 -6 -14 2 -2
2 24 -14 2 -2 14 2 -2
2 24 14 2 -2 14 2 -6
2 24 14 2 -6 16 2 -6
2 24 16 2 -6 16 2 6
1 16 20 10 0 0 4 0 4 0 0 0 0 4 4-4edge.dat
1 16 -20 10 0 0 -1 0 4 0 0 0 0 4 4-4edge.dat
1 16 16 10 0 0 -1 0 4 0 0 0 0 4 4-4edge.dat
1 16 -16 10 0 0 -1 0 4 0 0 0 0 4 4-4edge.dat
1 16 16 10 0 0 1 0 0 0 6 6 0 0 2-4edge.dat
1 16 -16 10 0 0 1 0 0 0 6 6 0 0 2-4edge.dat
1 16 14 10 0 0 1 0 0 0 6 6 0 0 2-4edge.dat
1 16 -14 10 0 0 1 0 0 0 6 6 0 0 2-4edge.dat
2 24 16 2 6 16 10 6
2 24 16 10 -6 16 2 -6
2 24 -16 2 6 -16 10 6
2 24 -16 10 -6 -16 2 -6
2 24 14 2 6 14 10 6
2 24 14 10 -6 14 2 -6
2 24 -14 2 6 -14 10 6
2 24 -14 10 -6 -14 2 -6
2 24 14 2 2 14 15.602 2
2 24 14 2 -2 14 15.602 -2
2 24 2 8 2 2 15.602 2
2 24 2 8 -2 2 15.602 -2
2 24 -14 2 2 -14 15.602 2
2 24 -14 2 -2 -14 15.602 -2
2 24 -2 8 2 -2 15.602 2
2 24 -2 8 -2 -2 15.602 -2
1 16 0 1 0 20 0 0 0 1 0 0 0 10 box.dat
1 16 20 10 0 0 -1 0 4 0 0 0 0 4 4-4disc.dat
1 16 -20 10 0 0 1 0 4 0 0 0 0 -4 4-4disc.dat
1 16 16 10 0 0 -1 0 0 0 6 -6 0 0 2-4disc.dat
1 16 -16 10 0 0 1 0 0 0 6 6 0 0 2-4disc.dat
1 16 14 10 0 0 1 0 0 0 6 6 0 0 2-4disc.dat
1 16 -14 10 0 0 -1 0 0 0 6 -6 0 0 2-4disc.dat
4 16 16 2 -6 16 10 -6 16 10 6 16 2 6
4 16 -16 2 6 -16 10 6 -16 10 -6 -16 2 -6
4 16 14 2 6 14 10 6 14 10 -6 14 2 -6
4 16 -14 2 -6 -14 10 -6 -14 10 6 -14 2 6
4 16 2 15.602 -2 2 8 -2 2 8 2 2 16 0
3 16 2 8 2 2 15.602 2 2 16 0
2 24 2 15.602 2 2 16 0
2 24 2 15.602 -2 2 16 0
2 24 -2 15.602 2 -2 16 0
2 24 -2 15.602 -2 -2 16 0
4 16 -2 15.602 2 -2 8 2 -2 8 -2 -2 16 0
3 16 -2 8 -2 -2 15.602 -2 -2 16 0
1 16 20 10 0 0 -4 0 4 0 0 0 0 4 4-4cyli.dat
1 16 -20 10 0 0 4 0 4 0 0 0 0 4 4-4cyli.dat
1 16 16 10 0 0 -2 0 0 0 6 6 0 0 2-4cyli.dat
1 16 -16 10 0 0 2 0 0 0 6 6 0 0 2-4cyli.dat
4 16 14 10 6 14 2 6 16 2 6 16 10 6
4 16 -16 10 6 -16 2 6 -14 2 6 -14 10 6
4 16 16 10 -6 16 2 -6 14 2 -6 14 10 -6
4 16 -14 10 -6 -14 2 -6 -16 2 -6 -16 10 -6
4 16 14 15.602 2 2 15.602 2 2 8 2 14 2 2
4 16 -14 15.602 2 -14 2 2 -2 8 2 -2 15.602 2
4 16 14 2 2 2 8 2 -2 8 2 -14 2 2
4 16 14 15.602 -2 14 2 -2 2 8 -2 2 15.602 -2
4 16 -14 15.602 -2 -2 15.602 -2 -2 8 -2 -14 2 -2
4 16 -14 2 -2 -2 8 -2 2 8 -2 14 2 -2
1 16 10 0 0 1 0 0 0 1 0 0 0 1 stud2.dat
1 16 -10 0 0 1 0 0 0 1 0 0 0 1 stud2.dat
4 16 2 15.602 -2 2 16 0 14 16 0 14 15.602 -2
4 16 2 16 0 2 15.602 2 14 15.602 2 14 16 0
5 24 14 16.0002 0 2 16.0002 0 14 15.5432 2.2961 14 15.5433 -2.2961
4 16 -14 15.602 -2 -14 16 0 -2 16 0 -2 15.602 -2
4 16 -14 16 0 -14 15.602 2 -2 15.602 2 -2 16 0
5 24 -2 16.0002 0 -14 16.0002 0 -2 15.5432 2.2961 -2 15.5433 -2.2961
2 24 -2 15.602 -2 -14 15.602 -2
2 24 -2 15.602 2 -14 15.602 2
2 24 14 15.602 2 2 15.602 2
2 24 14 15.602 -2 2 15.602 -2
0
