0 Brick  2 x  4 Black with Train Wheels Small (Complete)
0 Name: 4180c02.dat
0 Author: James Jessiman
0 !LDRAW_ORG Shortcut UPDATE 2011-01
0 !LICENSE Redistributable under CCAL version 2.0 : see CAreadme.txt

0 !HISTORY 2007-07-04 [PTadmin] Header formatted for Contributor Agreement
0 !HISTORY 2008-07-01 [PTadmin] Official Update 2008-01
0 !HISTORY 2009-04-28 [PTadmin] Renamed from 4180; amended description
0 !HISTORY 2011-07-25 [PTadmin] Official Update 2011-01

1 0 0 0 0 1 0 0 0 1 0 0 0 1 4180a.dat
1 0 0 0 0 1 0 0 0 1 0 0 0 1 4179.dat
1 16 50 10 0 0 0 -1 0 1 0 1 0 0 2344.dat
1 16 -50 10 0 0 0 1 0 1 0 -1 0 0 2344.dat
1 16 50 10 0 0 0 -1 0 1 0 1 0 0 996.dat
1 16 -50 10 0 0 0 1 0 1 0 -1 0 0 996.dat
