0 Animal Cattlehorns
0 Name: 6029a.dat
0 Author: Franklin W. Cain [fwcain]
0 !LDRAW_ORG Part UPDATE 2012-02
0 !LICENSE Redistributable under CCAL version 2.0 : see CAreadme.txt

0 BFC CERTIFY CCW

0 !HISTORY 2000-09-30 [PTadmin] Official Update 2000-02
0 !HISTORY 2002-10-20 [cwdee] 4-4con12.dat >> 4-4con1.dat
0 !HISTORY 2002-11-30 [PTadmin] Official Update 2002-05
0 !HISTORY 2007-07-09 [PTadmin] Header formatted for Contributor Agreement
0 !HISTORY 2008-07-01 [PTadmin] Official Update 2008-01
0 !HISTORY 2012-03-25 [Steffen] BFCed
0 !HISTORY 2012-03-28 [Philo] Rebuilt smoother
0 !HISTORY 2012-08-09 [PTadmin] Official Update 2012-02

1 16 7 0 0 0 -14 0 4 0 0 0 0 4 4-4cyli.dat
1 16 7 0 0 0 -1 0 0.2 0 0 0 0 -0.2 4-4rin19.dat
1 16 -7 0 0 0 1 0 0.2 0 0 0 0 0.2 4-4rin19.dat
1 16 -7 0 0 0 1 0 4 0 0 0 0 4 4-4edge.dat
1 16 -7 0 0 0 1 0 3.8 0 0 0 0 3.8 4-4edge.dat
1 16 7 0 0 0 1 0 4 0 0 0 0 4 4-4edge.dat
1 16 7 0 0 0 1 0 3.8 0 0 0 0 3.8 4-4edge.dat
3 16 27.64 -20.95 0.63 28.1 -20.9 0 27.85 -20.8 0.68
3 16 27.46 -21.08 0.48 28.1 -20.9 0 27.64 -20.95 0.63
3 16 27.34 -21.17 0.26 28.1 -20.9 0 27.46 -21.08 0.48
3 16 27.3 -21.2 0 28.1 -20.9 0 27.34 -21.17 0.26
3 16 27.34 -21.17 -0.26 28.1 -20.9 0 27.3 -21.2 0
3 16 27.46 -21.08 -0.48 28.1 -20.9 0 27.34 -21.17 -0.26
3 16 27.64 -20.95 -0.63 28.1 -20.9 0 27.46 -21.08 -0.48
3 16 27.85 -20.8 -0.68 28.1 -20.9 0 27.64 -20.95 -0.63
3 16 28.06 -20.65 -0.63 28.1 -20.9 0 27.85 -20.8 -0.68
3 16 28.24 -20.52 -0.48 28.1 -20.9 0 28.06 -20.65 -0.63
3 16 28.36 -20.43 -0.26 28.1 -20.9 0 28.24 -20.52 -0.48
3 16 28.4 -20.4 0 28.1 -20.9 0 28.36 -20.43 -0.26
3 16 28.36 -20.43 0.26 28.1 -20.9 0 28.4 -20.4 0
3 16 28.24 -20.52 0.48 28.1 -20.9 0 28.36 -20.43 0.26
3 16 28.06 -20.65 0.63 28.1 -20.9 0 28.24 -20.52 0.48
3 16 27.85 -20.8 0.68 28.1 -20.9 0 28.06 -20.65 0.63
3 16 26.53 -20.44 1.5 27.85 -20.8 0.68 27.05 -20.1 1.62
3 16 27.64 -20.95 0.63 27.85 -20.8 0.68 26.53 -20.44 1.5
4 16 27.64 -20.95 0.63 26.53 -20.44 1.5 26.1 -20.74 1.15 27.46 -21.08 0.48
3 16 25.8 -20.93 0.62 27.46 -21.08 0.48 26.1 -20.74 1.15
3 16 27.34 -21.17 0.26 27.46 -21.08 0.48 25.8 -20.93 0.62
4 16 25.8 -20.93 0.62 25.7 -21 0 27.3 -21.2 0 27.34 -21.17 0.26
4 16 25.7 -21 0 25.8 -20.93 -0.62 27.34 -21.17 -0.26 27.3 -21.2 0
3 16 26.1 -20.74 -1.15 27.34 -21.17 -0.26 25.8 -20.93 -0.62
3 16 27.46 -21.08 -0.48 27.34 -21.17 -0.26 26.1 -20.74 -1.15
4 16 27.46 -21.08 -0.48 26.1 -20.74 -1.15 26.53 -20.44 -1.5 27.64 -20.95 -0.63
3 16 27.05 -20.1 -1.62 27.64 -20.95 -0.63 26.53 -20.44 -1.5
3 16 27.85 -20.8 -0.68 27.64 -20.95 -0.63 27.05 -20.1 -1.62
3 16 27.57 -19.76 -1.5 27.85 -20.8 -0.68 27.05 -20.1 -1.62
3 16 28.06 -20.65 -0.63 27.85 -20.8 -0.68 27.57 -19.76 -1.5
4 16 28.06 -20.65 -0.63 27.57 -19.76 -1.5 28 -19.46 -1.15 28.24 -20.52 -0.48
4 16 28 -19.46 -1.15 28.3 -19.27 -0.62 28.36 -20.43 -0.26 28.24 -20.52 -0.48
4 16 28.3 -19.27 -0.62 28.4 -19.2 0 28.4 -20.4 0 28.36 -20.43 -0.26
4 16 28.4 -19.2 0 28.3 -19.27 0.62 28.36 -20.43 0.26 28.4 -20.4 0
4 16 28.3 -19.27 0.62 28 -19.46 1.15 28.24 -20.52 0.48 28.36 -20.43 0.26
4 16 28.24 -20.52 0.48 28 -19.46 1.15 27.57 -19.76 1.5 28.06 -20.65 0.63
3 16 27.05 -20.1 1.62 28.06 -20.65 0.63 27.57 -19.76 1.5
3 16 27.85 -20.8 0.68 28.06 -20.65 0.63 27.05 -20.1 1.62
3 16 24.73 -19.16 2.15 27.05 -20.1 1.62 25.5 -18.7 2.33
3 16 26.53 -20.44 1.5 27.05 -20.1 1.62 24.73 -19.16 2.15
3 16 24.09 -19.55 1.65 26.53 -20.44 1.5 24.73 -19.16 2.15
3 16 26.1 -20.74 1.15 26.53 -20.44 1.5 24.09 -19.55 1.65
4 16 24.09 -19.55 1.65 23.65 -19.81 0.89 25.8 -20.93 0.62 26.1 -20.74 1.15
4 16 23.65 -19.81 0.89 23.5 -19.9 0 25.7 -21 0 25.8 -20.93 0.62
4 16 23.5 -19.9 0 23.65 -19.81 -0.89 25.8 -20.93 -0.62 25.7 -21 0
4 16 23.65 -19.81 -0.89 24.09 -19.55 -1.65 26.1 -20.74 -1.15 25.8 -20.93 -0.62
3 16 24.73 -19.16 -2.15 26.1 -20.74 -1.15 24.09 -19.55 -1.65
3 16 26.53 -20.44 -1.5 26.1 -20.74 -1.15 24.73 -19.16 -2.15
3 16 25.5 -18.7 -2.33 26.53 -20.44 -1.5 24.73 -19.16 -2.15
3 16 27.05 -20.1 -1.62 26.53 -20.44 -1.5 25.5 -18.7 -2.33
4 16 25.5 -18.7 -2.33 26.27 -18.24 -2.15 27.57 -19.76 -1.5 27.05 -20.1 -1.62
4 16 26.27 -18.24 -2.15 26.91 -17.85 -1.65 28 -19.46 -1.15 27.57 -19.76 -1.5
4 16 26.91 -17.85 -1.65 27.35 -17.59 -0.89 28.3 -19.27 -0.62 28 -19.46 -1.15
4 16 27.35 -17.59 -0.89 27.5 -17.5 0 28.4 -19.2 0 28.3 -19.27 -0.62
4 16 27.5 -17.5 0 27.35 -17.59 0.89 28.3 -19.27 0.62 28.4 -19.2 0
4 16 27.35 -17.59 0.89 26.91 -17.85 1.65 28 -19.46 1.15 28.3 -19.27 0.62
4 16 26.91 -17.85 1.65 26.27 -18.24 2.15 27.57 -19.76 1.5 28 -19.46 1.15
4 16 26.27 -18.24 2.15 25.5 -18.7 2.33 27.05 -20.1 1.62 27.57 -19.76 1.5
3 16 21.55 -15.2 3.02 25.5 -18.7 2.33 22.7 -14.7 3.27
3 16 24.73 -19.16 2.15 25.5 -18.7 2.33 21.55 -15.2 3.02
3 16 20.58 -15.62 2.31 24.73 -19.16 2.15 21.55 -15.2 3.02
3 16 24.09 -19.55 1.65 24.73 -19.16 2.15 20.58 -15.62 2.31
3 16 19.93 -15.9 1.25 24.09 -19.55 1.65 20.58 -15.62 2.31
3 16 23.65 -19.81 0.89 24.09 -19.55 1.65 19.93 -15.9 1.25
4 16 19.93 -15.9 1.25 19.7 -16 0 23.5 -19.9 0 23.65 -19.81 0.89
4 16 19.7 -16 0 19.93 -15.9 -1.25 23.65 -19.81 -0.89 23.5 -19.9 0
3 16 20.58 -15.62 -2.31 23.65 -19.81 -0.89 19.93 -15.9 -1.25
3 16 24.09 -19.55 -1.65 23.65 -19.81 -0.89 20.58 -15.62 -2.31
3 16 21.55 -15.2 -3.02 24.09 -19.55 -1.65 20.58 -15.62 -2.31
3 16 24.73 -19.16 -2.15 24.09 -19.55 -1.65 21.55 -15.2 -3.02
3 16 22.7 -14.7 -3.27 24.73 -19.16 -2.15 21.55 -15.2 -3.02
3 16 25.5 -18.7 -2.33 24.73 -19.16 -2.15 22.7 -14.7 -3.27
3 16 23.85 -14.2 -3.02 25.5 -18.7 -2.33 22.7 -14.7 -3.27
3 16 26.27 -18.24 -2.15 25.5 -18.7 -2.33 23.85 -14.2 -3.02
4 16 23.85 -14.2 -3.02 24.82 -13.78 -2.31 26.91 -17.85 -1.65 26.27 -18.24 -2.15
4 16 24.82 -13.78 -2.31 25.47 -13.5 -1.25 27.35 -17.59 -0.89 26.91 -17.85 -1.65
4 16 25.47 -13.5 -1.25 25.7 -13.4 0 27.5 -17.5 0 27.35 -17.59 -0.89
4 16 25.7 -13.4 0 25.47 -13.5 1.25 27.35 -17.59 0.89 27.5 -17.5 0
4 16 25.47 -13.5 1.25 24.82 -13.78 2.31 26.91 -17.85 1.65 27.35 -17.59 0.89
4 16 24.82 -13.78 2.31 23.85 -14.2 3.02 26.27 -18.24 2.15 26.91 -17.85 1.65
3 16 22.7 -14.7 3.27 26.27 -18.24 2.15 23.85 -14.2 3.02
3 16 25.5 -18.7 2.33 26.27 -18.24 2.15 22.7 -14.7 3.27
4 16 21.15 -10.3 3.5 19.87 -10.68 3.23 21.55 -15.2 3.02 22.7 -14.7 3.27
4 16 19.87 -10.68 3.23 18.78 -11.01 2.47 20.58 -15.62 2.31 21.55 -15.2 3.02
4 16 18.78 -11.01 2.47 18.05 -11.22 1.34 19.93 -15.9 1.25 20.58 -15.62 2.31
4 16 18.05 -11.22 1.34 17.8 -11.3 0 19.7 -16 0 19.93 -15.9 1.25
4 16 17.8 -11.3 0 18.05 -11.22 -1.34 19.93 -15.9 -1.25 19.7 -16 0
4 16 18.05 -11.22 -1.34 18.78 -11.01 -2.47 20.58 -15.62 -2.31 19.93 -15.9 -1.25
4 16 18.78 -11.01 -2.47 19.87 -10.68 -3.23 21.55 -15.2 -3.02 20.58 -15.62 -2.31
4 16 19.87 -10.68 -3.23 21.15 -10.3 -3.5 22.7 -14.7 -3.27 21.55 -15.2 -3.02
4 16 21.15 -10.3 -3.5 22.43 -9.92 -3.23 23.85 -14.2 -3.02 22.7 -14.7 -3.27
4 16 22.43 -9.92 -3.23 23.52 -9.59 -2.47 24.82 -13.78 -2.31 23.85 -14.2 -3.02
4 16 23.52 -9.59 -2.47 24.25 -9.38 -1.34 25.47 -13.5 -1.25 24.82 -13.78 -2.31
4 16 24.25 -9.38 -1.34 24.5 -9.3 0 25.7 -13.4 0 25.47 -13.5 -1.25
4 16 24.5 -9.3 0 24.25 -9.38 1.34 25.47 -13.5 1.25 25.7 -13.4 0
4 16 24.25 -9.38 1.34 23.52 -9.59 2.47 24.82 -13.78 2.31 25.47 -13.5 1.25
4 16 23.52 -9.59 2.47 22.43 -9.92 3.23 23.85 -14.2 3.02 24.82 -13.78 2.31
4 16 22.43 -9.92 3.23 21.15 -10.3 3.5 22.7 -14.7 3.27 23.85 -14.2 3.02
4 16 19.3 -6.05 3.69 18.04 -6.68 3.41 19.87 -10.68 3.23 21.15 -10.3 3.5
4 16 18.04 -6.68 3.41 16.97 -7.22 2.61 18.78 -11.01 2.47 19.87 -10.68 3.23
4 16 16.97 -7.22 2.61 16.25 -7.57 1.41 18.05 -11.22 1.34 18.78 -11.01 2.47
4 16 16.25 -7.57 1.41 16 -7.7 0 17.8 -11.3 0 18.05 -11.22 1.34
4 16 16 -7.7 0 16.25 -7.57 -1.41 18.05 -11.22 -1.34 17.8 -11.3 0
4 16 16.25 -7.57 -1.41 16.97 -7.22 -2.61 18.78 -11.01 -2.47 18.05 -11.22 -1.34
4 16 16.97 -7.22 -2.61 18.04 -6.68 -3.41 19.87 -10.68 -3.23 18.78 -11.01 -2.47
4 16 18.04 -6.68 -3.41 19.3 -6.05 -3.69 21.15 -10.3 -3.5 19.87 -10.68 -3.23
4 16 19.3 -6.05 -3.69 20.56 -5.42 -3.41 22.43 -9.92 -3.23 21.15 -10.3 -3.5
4 16 20.56 -5.42 -3.41 21.63 -4.88 -2.61 23.52 -9.59 -2.47 22.43 -9.92 -3.23
4 16 21.63 -4.88 -2.61 22.35 -4.53 -1.41 24.25 -9.38 -1.34 23.52 -9.59 -2.47
4 16 22.35 -4.53 -1.41 22.6 -4.4 0 24.5 -9.3 0 24.25 -9.38 -1.34
4 16 22.6 -4.4 0 22.35 -4.53 1.41 24.25 -9.38 1.34 24.5 -9.3 0
4 16 22.35 -4.53 1.41 21.63 -4.88 2.61 23.52 -9.59 2.47 24.25 -9.38 1.34
4 16 21.63 -4.88 2.61 20.56 -5.42 3.41 22.43 -9.92 3.23 23.52 -9.59 2.47
4 16 20.56 -5.42 3.41 19.3 -6.05 3.69 21.15 -10.3 3.5 22.43 -9.92 3.23
3 16 14.69 -3.52 3.5 19.3 -6.05 3.69 15.55 -2.35 3.79
3 16 18.04 -6.68 3.41 19.3 -6.05 3.69 14.69 -3.52 3.5
3 16 13.96 -4.51 2.68 18.04 -6.68 3.41 14.69 -3.52 3.5
3 16 16.97 -7.22 2.61 18.04 -6.68 3.41 13.96 -4.51 2.68
3 16 13.47 -5.17 1.45 16.97 -7.22 2.61 13.96 -4.51 2.68
3 16 16.25 -7.57 1.41 16.97 -7.22 2.61 13.47 -5.17 1.45
4 16 13.47 -5.17 1.45 13.3 -5.4 0 16 -7.7 0 16.25 -7.57 1.41
4 16 13.3 -5.4 0 13.47 -5.17 -1.45 16.25 -7.57 -1.41 16 -7.7 0
3 16 13.96 -4.51 -2.68 16.25 -7.57 -1.41 13.47 -5.17 -1.45
3 16 16.97 -7.22 -2.61 16.25 -7.57 -1.41 13.96 -4.51 -2.68
3 16 14.69 -3.52 -3.5 16.97 -7.22 -2.61 13.96 -4.51 -2.68
3 16 18.04 -6.68 -3.41 16.97 -7.22 -2.61 14.69 -3.52 -3.5
3 16 15.55 -2.35 -3.79 18.04 -6.68 -3.41 14.69 -3.52 -3.5
3 16 19.3 -6.05 -3.69 18.04 -6.68 -3.41 15.55 -2.35 -3.79
4 16 15.55 -2.35 -3.79 16.41 -1.18 -3.5 20.56 -5.42 -3.41 19.3 -6.05 -3.69
4 16 16.41 -1.18 -3.5 17.14 -0.19 -2.68 21.63 -4.88 -2.61 20.56 -5.42 -3.41
4 16 17.14 -0.19 -2.68 17.63 0.47 -1.45 22.35 -4.53 -1.41 21.63 -4.88 -2.61
4 16 17.63 0.47 -1.45 17.8 0.7 0 22.6 -4.4 0 22.35 -4.53 -1.41
4 16 17.8 0.7 0 17.63 0.47 1.45 22.35 -4.53 1.41 22.6 -4.4 0
4 16 17.63 0.47 1.45 17.14 -0.19 2.68 21.63 -4.88 2.61 22.35 -4.53 1.41
4 16 17.14 -0.19 2.68 16.41 -1.18 3.5 20.56 -5.42 3.41 21.63 -4.88 2.61
4 16 16.41 -1.18 3.5 15.55 -2.35 3.79 19.3 -6.05 3.69 20.56 -5.42 3.41
4 16 11.2 -0.4 3.83 11.01 -1.85 3.54 14.69 -3.52 3.5 15.55 -2.35 3.79
4 16 11.01 -1.85 3.54 10.85 -3.09 2.71 13.96 -4.51 2.68 14.69 -3.52 3.5
4 16 10.85 -3.09 2.71 10.74 -3.91 1.47 13.47 -5.17 1.45 13.96 -4.51 2.68
4 16 10.74 -3.91 1.47 10.7 -4.2 0 13.3 -5.4 0 13.47 -5.17 1.45
4 16 10.7 -4.2 0 10.74 -3.91 -1.47 13.47 -5.17 -1.45 13.3 -5.4 0
4 16 10.74 -3.91 -1.47 10.85 -3.09 -2.71 13.96 -4.51 -2.68 13.47 -5.17 -1.45
4 16 10.85 -3.09 -2.71 11.01 -1.85 -3.54 14.69 -3.52 -3.5 13.96 -4.51 -2.68
4 16 11.01 -1.85 -3.54 11.2 -0.4 -3.83 15.55 -2.35 -3.79 14.69 -3.52 -3.5
4 16 11.2 -0.4 -3.83 11.39 1.05 -3.54 16.41 -1.18 -3.5 15.55 -2.35 -3.79
4 16 11.39 1.05 -3.54 11.55 2.29 -2.71 17.14 -0.19 -2.68 16.41 -1.18 -3.5
4 16 11.55 2.29 -2.71 11.66 3.11 -1.47 17.63 0.47 -1.45 17.14 -0.19 -2.68
4 16 11.66 3.11 -1.47 11.7 3.4 0 17.8 0.7 0 17.63 0.47 -1.45
4 16 11.7 3.4 0 11.66 3.11 1.47 17.63 0.47 1.45 17.8 0.7 0
4 16 11.66 3.11 1.47 11.55 2.29 2.71 17.14 -0.19 2.68 17.63 0.47 1.45
4 16 11.55 2.29 2.71 11.39 1.05 3.54 16.41 -1.18 3.5 17.14 -0.19 2.68
4 16 11.39 1.05 3.54 11.2 -0.4 3.83 15.55 -2.35 3.79 16.41 -1.18 3.5
4 16 7 0 3.8 7 -1.45 3.51 11.01 -1.85 3.54 11.2 -0.4 3.83
4 16 7 -1.45 3.51 7 -2.69 2.69 10.85 -3.09 2.71 11.01 -1.85 3.54
4 16 7 -2.69 2.69 7 -3.51 1.45 10.74 -3.91 1.47 10.85 -3.09 2.71
4 16 7 -3.51 1.45 7 -3.8 0 10.7 -4.2 0 10.74 -3.91 1.47
4 16 7 -3.8 0 7 -3.51 -1.45 10.74 -3.91 -1.47 10.7 -4.2 0
4 16 7 -3.51 -1.45 7 -2.69 -2.69 10.85 -3.09 -2.71 10.74 -3.91 -1.47
4 16 7 -2.69 -2.69 7 -1.45 -3.51 11.01 -1.85 -3.54 10.85 -3.09 -2.71
4 16 7 -1.45 -3.51 7 0 -3.8 11.2 -0.4 -3.83 11.01 -1.85 -3.54
4 16 7 0 -3.8 7 1.45 -3.51 11.39 1.05 -3.54 11.2 -0.4 -3.83
4 16 7 1.45 -3.51 7 2.69 -2.69 11.55 2.29 -2.71 11.39 1.05 -3.54
4 16 7 2.69 -2.69 7 3.51 -1.45 11.66 3.11 -1.47 11.55 2.29 -2.71
4 16 7 3.51 -1.45 7 3.8 0 11.7 3.4 0 11.66 3.11 -1.47
4 16 7 3.8 0 7 3.51 1.45 11.66 3.11 1.47 11.7 3.4 0
4 16 7 3.51 1.45 7 2.69 2.69 11.55 2.29 2.71 11.66 3.11 1.47
4 16 7 2.69 2.69 7 1.45 3.51 11.39 1.05 3.54 11.55 2.29 2.71
4 16 7 1.45 3.51 7 0 3.8 11.2 -0.4 3.83 11.39 1.05 3.54
5 24 28.1 -20.9 0 27.64 -20.95 0.63 27.85 -20.8 0.68 27.46 -21.08 0.48
5 24 27.64 -20.95 0.63 27.85 -20.8 0.68 28.1 -20.9 0 26.53 -20.44 1.5
5 24 27.85 -20.8 0.68 28.1 -20.9 0 27.64 -20.95 0.63 28.06 -20.65 0.63
5 24 28.1 -20.9 0 27.46 -21.08 0.48 27.64 -20.95 0.63 27.34 -21.17 0.26
5 24 27.46 -21.08 0.48 27.64 -20.95 0.63 28.1 -20.9 0 26.1 -20.74 1.15
5 24 28.1 -20.9 0 27.34 -21.17 0.26 27.46 -21.08 0.48 27.3 -21.2 0
5 24 27.34 -21.17 0.26 27.46 -21.08 0.48 28.1 -20.9 0 25.8 -20.93 0.62
5 24 28.1 -20.9 0 27.3 -21.2 0 27.34 -21.17 0.26 27.34 -21.17 -0.26
5 24 27.3 -21.2 0 27.34 -21.17 0.26 28.1 -20.9 0 25.7 -21 0
5 24 28.1 -20.9 0 27.34 -21.17 -0.26 27.3 -21.2 0 27.46 -21.08 -0.48
5 24 27.34 -21.17 -0.26 27.3 -21.2 0 28.1 -20.9 0 25.8 -20.93 -0.62
5 24 28.1 -20.9 0 27.46 -21.08 -0.48 27.34 -21.17 -0.26 27.64 -20.95 -0.63
5 24 27.46 -21.08 -0.48 27.34 -21.17 -0.26 28.1 -20.9 0 26.1 -20.74 -1.15
5 24 28.1 -20.9 0 27.64 -20.95 -0.63 27.46 -21.08 -0.48 27.85 -20.8 -0.68
5 24 27.64 -20.95 -0.63 27.46 -21.08 -0.48 28.1 -20.9 0 26.53 -20.44 -1.5
5 24 28.1 -20.9 0 27.85 -20.8 -0.68 27.64 -20.95 -0.63 28.06 -20.65 -0.63
5 24 27.85 -20.8 -0.68 27.64 -20.95 -0.63 28.1 -20.9 0 27.05 -20.1 -1.62
5 24 28.1 -20.9 0 28.06 -20.65 -0.63 27.85 -20.8 -0.68 28.24 -20.52 -0.48
5 24 28.06 -20.65 -0.63 27.85 -20.8 -0.68 28.1 -20.9 0 27.57 -19.76 -1.5
5 24 28.1 -20.9 0 28.24 -20.52 -0.48 28.06 -20.65 -0.63 28.36 -20.43 -0.26
5 24 28.24 -20.52 -0.48 28.06 -20.65 -0.63 28.1 -20.9 0 28 -19.46 -1.15
5 24 28.1 -20.9 0 28.36 -20.43 -0.26 28.24 -20.52 -0.48 28.4 -20.4 0
5 24 28.36 -20.43 -0.26 28.24 -20.52 -0.48 28.1 -20.9 0 28.3 -19.27 -0.62
5 24 28.1 -20.9 0 28.4 -20.4 0 28.36 -20.43 -0.26 28.36 -20.43 0.26
5 24 28.4 -20.4 0 28.36 -20.43 -0.26 28.1 -20.9 0 28.4 -19.2 0
5 24 28.1 -20.9 0 28.36 -20.43 0.26 28.4 -20.4 0 28.24 -20.52 0.48
5 24 28.36 -20.43 0.26 28.4 -20.4 0 28.1 -20.9 0 28.3 -19.27 0.62
5 24 28.1 -20.9 0 28.24 -20.52 0.48 28.36 -20.43 0.26 28.06 -20.65 0.63
5 24 28.24 -20.52 0.48 28.36 -20.43 0.26 28.1 -20.9 0 28 -19.46 1.15
5 24 28.1 -20.9 0 28.06 -20.65 0.63 28.24 -20.52 0.48 27.85 -20.8 0.68
5 24 28.06 -20.65 0.63 28.24 -20.52 0.48 28.1 -20.9 0 27.57 -19.76 1.5
5 24 27.85 -20.8 0.68 28.06 -20.65 0.63 28.1 -20.9 0 27.05 -20.1 1.62
5 24 27.85 -20.8 0.68 26.53 -20.44 1.5 27.05 -20.1 1.62 27.64 -20.95 0.63
5 24 26.53 -20.44 1.5 27.05 -20.1 1.62 27.85 -20.8 0.68 24.73 -19.16 2.15
5 24 27.05 -20.1 1.62 27.85 -20.8 0.68 26.53 -20.44 1.5 28.06 -20.65 0.63
5 24 27.64 -20.95 0.63 26.53 -20.44 1.5 27.85 -20.8 0.68 26.1 -20.74 1.15
5 24 26.1 -20.74 1.15 26.53 -20.44 1.5 27.64 -20.95 0.63 24.09 -19.55 1.65
5 24 27.46 -21.08 0.48 26.1 -20.74 1.15 27.64 -20.95 0.63 25.8 -20.93 0.62
5 24 27.46 -21.08 0.48 25.8 -20.93 0.62 26.1 -20.74 1.15 27.34 -21.17 0.26
5 24 25.8 -20.93 0.62 26.1 -20.74 1.15 27.46 -21.08 0.48 23.65 -19.81 0.89
5 24 27.34 -21.17 0.26 25.8 -20.93 0.62 27.46 -21.08 0.48 27.3 -21.2 0
5 24 27.3 -21.2 0 25.7 -21 0 27.34 -21.17 0.26 27.34 -21.17 -0.26
5 24 25.7 -21 0 25.8 -20.93 0.62 27.34 -21.17 0.26 23.5 -19.9 0
5 24 27.34 -21.17 -0.26 25.8 -20.93 -0.62 27.3 -21.2 0 26.1 -20.74 -1.15
5 24 25.8 -20.93 -0.62 25.7 -21 0 27.3 -21.2 0 23.65 -19.81 -0.89
5 24 27.34 -21.17 -0.26 26.1 -20.74 -1.15 25.8 -20.93 -0.62 27.46 -21.08 -0.48
5 24 26.1 -20.74 -1.15 25.8 -20.93 -0.62 27.34 -21.17 -0.26 24.09 -19.55 -1.65
5 24 27.46 -21.08 -0.48 26.1 -20.74 -1.15 27.34 -21.17 -0.26 26.53 -20.44 -1.5
5 24 26.53 -20.44 -1.5 26.1 -20.74 -1.15 27.46 -21.08 -0.48 24.73 -19.16 -2.15
5 24 27.64 -20.95 -0.63 26.53 -20.44 -1.5 27.46 -21.08 -0.48 27.05 -20.1 -1.62
5 24 27.64 -20.95 -0.63 27.05 -20.1 -1.62 26.53 -20.44 -1.5 27.85 -20.8 -0.68
5 24 27.05 -20.1 -1.62 26.53 -20.44 -1.5 27.64 -20.95 -0.63 25.5 -18.7 -2.33
5 24 27.85 -20.8 -0.68 27.05 -20.1 -1.62 27.64 -20.95 -0.63 27.57 -19.76 -1.5
5 24 27.85 -20.8 -0.68 27.57 -19.76 -1.5 27.05 -20.1 -1.62 28.06 -20.65 -0.63
5 24 27.57 -19.76 -1.5 27.05 -20.1 -1.62 27.85 -20.8 -0.68 26.27 -18.24 -2.15
5 24 28.06 -20.65 -0.63 27.57 -19.76 -1.5 27.85 -20.8 -0.68 28 -19.46 -1.15
5 24 28 -19.46 -1.15 27.57 -19.76 -1.5 28.06 -20.65 -0.63 26.91 -17.85 -1.65
5 24 28.24 -20.52 -0.48 28 -19.46 -1.15 28.06 -20.65 -0.63 28.36 -20.43 -0.26
5 24 28.36 -20.43 -0.26 28.3 -19.27 -0.62 28.24 -20.52 -0.48 28.4 -20.4 0
5 24 28.3 -19.27 -0.62 28 -19.46 -1.15 28.24 -20.52 -0.48 27.35 -17.59 -0.89
5 24 28.4 -20.4 0 28.4 -19.2 0 28.36 -20.43 -0.26 28.36 -20.43 0.26
5 24 28.4 -19.2 0 28.3 -19.27 -0.62 28.36 -20.43 -0.26 27.5 -17.5 0
5 24 28.36 -20.43 0.26 28.3 -19.27 0.62 28.4 -20.4 0 28.24 -20.52 0.48
5 24 28.3 -19.27 0.62 28.4 -19.2 0 28.4 -20.4 0 27.35 -17.59 0.89
5 24 28.24 -20.52 0.48 28 -19.46 1.15 28.36 -20.43 0.26 27.57 -19.76 1.5
5 24 28 -19.46 1.15 28.3 -19.27 0.62 28.36 -20.43 0.26 26.91 -17.85 1.65
5 24 27.57 -19.76 1.5 28 -19.46 1.15 28.24 -20.52 0.48 26.27 -18.24 2.15
5 24 28.06 -20.65 0.63 27.57 -19.76 1.5 28.24 -20.52 0.48 27.05 -20.1 1.62
5 24 28.06 -20.65 0.63 27.05 -20.1 1.62 27.57 -19.76 1.5 27.85 -20.8 0.68
5 24 27.05 -20.1 1.62 27.57 -19.76 1.5 28.06 -20.65 0.63 25.5 -18.7 2.33
5 24 27.05 -20.1 1.62 24.73 -19.16 2.15 25.5 -18.7 2.33 26.53 -20.44 1.5
5 24 24.73 -19.16 2.15 25.5 -18.7 2.33 27.05 -20.1 1.62 21.55 -15.2 3.02
5 24 25.5 -18.7 2.33 27.05 -20.1 1.62 24.73 -19.16 2.15 27.57 -19.76 1.5
5 24 26.53 -20.44 1.5 24.73 -19.16 2.15 27.05 -20.1 1.62 24.09 -19.55 1.65
5 24 26.53 -20.44 1.5 24.09 -19.55 1.65 24.73 -19.16 2.15 26.1 -20.74 1.15
5 24 24.09 -19.55 1.65 24.73 -19.16 2.15 26.53 -20.44 1.5 20.58 -15.62 2.31
5 24 26.1 -20.74 1.15 24.09 -19.55 1.65 26.53 -20.44 1.5 25.8 -20.93 0.62
5 24 25.8 -20.93 0.62 23.65 -19.81 0.89 26.1 -20.74 1.15 25.7 -21 0
5 24 23.65 -19.81 0.89 24.09 -19.55 1.65 26.1 -20.74 1.15 19.93 -15.9 1.25
5 24 25.7 -21 0 23.5 -19.9 0 25.8 -20.93 0.62 25.8 -20.93 -0.62
5 24 23.5 -19.9 0 23.65 -19.81 0.89 25.8 -20.93 0.62 19.7 -16 0
5 24 25.8 -20.93 -0.62 23.65 -19.81 -0.89 25.7 -21 0 26.1 -20.74 -1.15
5 24 23.65 -19.81 -0.89 23.5 -19.9 0 25.7 -21 0 19.93 -15.9 -1.25
5 24 26.1 -20.74 -1.15 24.09 -19.55 -1.65 25.8 -20.93 -0.62 24.73 -19.16 -2.15
5 24 24.09 -19.55 -1.65 23.65 -19.81 -0.89 25.8 -20.93 -0.62 20.58 -15.62 -2.31
5 24 26.1 -20.74 -1.15 24.73 -19.16 -2.15 24.09 -19.55 -1.65 26.53 -20.44 -1.5
5 24 24.73 -19.16 -2.15 24.09 -19.55 -1.65 26.1 -20.74 -1.15 21.55 -15.2 -3.02
5 24 26.53 -20.44 -1.5 24.73 -19.16 -2.15 26.1 -20.74 -1.15 25.5 -18.7 -2.33
5 24 26.53 -20.44 -1.5 25.5 -18.7 -2.33 24.73 -19.16 -2.15 27.05 -20.1 -1.62
5 24 25.5 -18.7 -2.33 24.73 -19.16 -2.15 26.53 -20.44 -1.5 22.7 -14.7 -3.27
5 24 27.05 -20.1 -1.62 25.5 -18.7 -2.33 26.53 -20.44 -1.5 27.57 -19.76 -1.5
5 24 27.57 -19.76 -1.5 26.27 -18.24 -2.15 27.05 -20.1 -1.62 28 -19.46 -1.15
5 24 26.27 -18.24 -2.15 25.5 -18.7 -2.33 27.05 -20.1 -1.62 23.85 -14.2 -3.02
5 24 28 -19.46 -1.15 26.91 -17.85 -1.65 27.57 -19.76 -1.5 28.3 -19.27 -0.62
5 24 26.91 -17.85 -1.65 26.27 -18.24 -2.15 27.57 -19.76 -1.5 24.82 -13.78 -2.31
5 24 28.3 -19.27 -0.62 27.35 -17.59 -0.89 28 -19.46 -1.15 28.4 -19.2 0
5 24 27.35 -17.59 -0.89 26.91 -17.85 -1.65 28 -19.46 -1.15 25.47 -13.5 -1.25
5 24 28.4 -19.2 0 27.5 -17.5 0 28.3 -19.27 -0.62 28.3 -19.27 0.62
5 24 27.5 -17.5 0 27.35 -17.59 -0.89 28.3 -19.27 -0.62 25.7 -13.4 0
5 24 28.3 -19.27 0.62 27.35 -17.59 0.89 28.4 -19.2 0 28 -19.46 1.15
5 24 27.35 -17.59 0.89 27.5 -17.5 0 28.4 -19.2 0 25.47 -13.5 1.25
5 24 28 -19.46 1.15 26.91 -17.85 1.65 28.3 -19.27 0.62 27.57 -19.76 1.5
5 24 26.91 -17.85 1.65 27.35 -17.59 0.89 28.3 -19.27 0.62 24.82 -13.78 2.31
5 24 27.57 -19.76 1.5 26.27 -18.24 2.15 28 -19.46 1.15 27.05 -20.1 1.62
5 24 26.27 -18.24 2.15 26.91 -17.85 1.65 28 -19.46 1.15 23.85 -14.2 3.02
5 24 25.5 -18.7 2.33 26.27 -18.24 2.15 27.57 -19.76 1.5 22.7 -14.7 3.27
5 24 25.5 -18.7 2.33 21.55 -15.2 3.02 22.7 -14.7 3.27 24.73 -19.16 2.15
5 24 21.55 -15.2 3.02 22.7 -14.7 3.27 25.5 -18.7 2.33 19.87 -10.68 3.23
5 24 22.7 -14.7 3.27 25.5 -18.7 2.33 21.55 -15.2 3.02 26.27 -18.24 2.15
5 24 24.73 -19.16 2.15 21.55 -15.2 3.02 25.5 -18.7 2.33 20.58 -15.62 2.31
5 24 24.73 -19.16 2.15 20.58 -15.62 2.31 21.55 -15.2 3.02 24.09 -19.55 1.65
5 24 20.58 -15.62 2.31 21.55 -15.2 3.02 24.73 -19.16 2.15 18.78 -11.01 2.47
5 24 24.09 -19.55 1.65 20.58 -15.62 2.31 24.73 -19.16 2.15 19.93 -15.9 1.25
5 24 24.09 -19.55 1.65 19.93 -15.9 1.25 20.58 -15.62 2.31 23.65 -19.81 0.89
5 24 19.93 -15.9 1.25 20.58 -15.62 2.31 24.09 -19.55 1.65 18.05 -11.22 1.34
5 24 23.65 -19.81 0.89 19.93 -15.9 1.25 24.09 -19.55 1.65 23.5 -19.9 0
5 24 23.5 -19.9 0 19.7 -16 0 23.65 -19.81 0.89 23.65 -19.81 -0.89
5 24 19.7 -16 0 19.93 -15.9 1.25 23.65 -19.81 0.89 17.8 -11.3 0
5 24 23.65 -19.81 -0.89 19.93 -15.9 -1.25 23.5 -19.9 0 20.58 -15.62 -2.31
5 24 19.93 -15.9 -1.25 19.7 -16 0 23.5 -19.9 0 18.05 -11.22 -1.34
5 24 23.65 -19.81 -0.89 20.58 -15.62 -2.31 19.93 -15.9 -1.25 24.09 -19.55 -1.65
5 24 20.58 -15.62 -2.31 19.93 -15.9 -1.25 23.65 -19.81 -0.89 18.78 -11.01 -2.47
5 24 24.09 -19.55 -1.65 20.58 -15.62 -2.31 23.65 -19.81 -0.89 21.55 -15.2 -3.02
5 24 24.09 -19.55 -1.65 21.55 -15.2 -3.02 20.58 -15.62 -2.31 24.73 -19.16 -2.15
5 24 21.55 -15.2 -3.02 20.58 -15.62 -2.31 24.09 -19.55 -1.65 19.87 -10.68 -3.23
5 24 24.73 -19.16 -2.15 21.55 -15.2 -3.02 24.09 -19.55 -1.65 22.7 -14.7 -3.27
5 24 24.73 -19.16 -2.15 22.7 -14.7 -3.27 21.55 -15.2 -3.02 25.5 -18.7 -2.33
5 24 22.7 -14.7 -3.27 21.55 -15.2 -3.02 24.73 -19.16 -2.15 21.15 -10.3 -3.5
5 24 25.5 -18.7 -2.33 22.7 -14.7 -3.27 24.73 -19.16 -2.15 23.85 -14.2 -3.02
5 24 25.5 -18.7 -2.33 23.85 -14.2 -3.02 22.7 -14.7 -3.27 26.27 -18.24 -2.15
5 24 23.85 -14.2 -3.02 22.7 -14.7 -3.27 25.5 -18.7 -2.33 22.43 -9.92 -3.23
5 24 26.27 -18.24 -2.15 23.85 -14.2 -3.02 25.5 -18.7 -2.33 26.91 -17.85 -1.65
5 24 26.91 -17.85 -1.65 24.82 -13.78 -2.31 26.27 -18.24 -2.15 27.35 -17.59 -0.89
5 24 24.82 -13.78 -2.31 23.85 -14.2 -3.02 26.27 -18.24 -2.15 23.52 -9.59 -2.47
5 24 27.35 -17.59 -0.89 25.47 -13.5 -1.25 26.91 -17.85 -1.65 27.5 -17.5 0
5 24 25.47 -13.5 -1.25 24.82 -13.78 -2.31 26.91 -17.85 -1.65 24.25 -9.38 -1.34
5 24 27.5 -17.5 0 25.7 -13.4 0 27.35 -17.59 -0.89 27.35 -17.59 0.89
5 24 25.7 -13.4 0 25.47 -13.5 -1.25 27.35 -17.59 -0.89 24.5 -9.3 0
5 24 27.35 -17.59 0.89 25.47 -13.5 1.25 27.5 -17.5 0 26.91 -17.85 1.65
5 24 25.47 -13.5 1.25 25.7 -13.4 0 27.5 -17.5 0 24.25 -9.38 1.34
5 24 26.91 -17.85 1.65 24.82 -13.78 2.31 27.35 -17.59 0.89 26.27 -18.24 2.15
5 24 24.82 -13.78 2.31 25.47 -13.5 1.25 27.35 -17.59 0.89 23.52 -9.59 2.47
5 24 26.27 -18.24 2.15 23.85 -14.2 3.02 26.91 -17.85 1.65 22.7 -14.7 3.27
5 24 23.85 -14.2 3.02 24.82 -13.78 2.31 26.91 -17.85 1.65 22.43 -9.92 3.23
5 24 26.27 -18.24 2.15 22.7 -14.7 3.27 23.85 -14.2 3.02 25.5 -18.7 2.33
5 24 22.7 -14.7 3.27 23.85 -14.2 3.02 26.27 -18.24 2.15 21.15 -10.3 3.5
5 24 21.55 -15.2 3.02 19.87 -10.68 3.23 22.7 -14.7 3.27 20.58 -15.62 2.31
5 24 19.87 -10.68 3.23 21.15 -10.3 3.5 22.7 -14.7 3.27 18.04 -6.68 3.41
5 24 21.15 -10.3 3.5 22.7 -14.7 3.27 21.55 -15.2 3.02 23.85 -14.2 3.02
5 24 20.58 -15.62 2.31 18.78 -11.01 2.47 21.55 -15.2 3.02 19.93 -15.9 1.25
5 24 18.78 -11.01 2.47 19.87 -10.68 3.23 21.55 -15.2 3.02 16.97 -7.22 2.61
5 24 19.93 -15.9 1.25 18.05 -11.22 1.34 20.58 -15.62 2.31 19.7 -16 0
5 24 18.05 -11.22 1.34 18.78 -11.01 2.47 20.58 -15.62 2.31 16.25 -7.57 1.41
5 24 19.7 -16 0 17.8 -11.3 0 19.93 -15.9 1.25 19.93 -15.9 -1.25
5 24 17.8 -11.3 0 18.05 -11.22 1.34 19.93 -15.9 1.25 16 -7.7 0
5 24 19.93 -15.9 -1.25 18.05 -11.22 -1.34 19.7 -16 0 20.58 -15.62 -2.31
5 24 18.05 -11.22 -1.34 17.8 -11.3 0 19.7 -16 0 16.25 -7.57 -1.41
5 24 20.58 -15.62 -2.31 18.78 -11.01 -2.47 19.93 -15.9 -1.25 21.55 -15.2 -3.02
5 24 18.78 -11.01 -2.47 18.05 -11.22 -1.34 19.93 -15.9 -1.25 16.97 -7.22 -2.61
5 24 21.55 -15.2 -3.02 19.87 -10.68 -3.23 20.58 -15.62 -2.31 22.7 -14.7 -3.27
5 24 19.87 -10.68 -3.23 18.78 -11.01 -2.47 20.58 -15.62 -2.31 18.04 -6.68 -3.41
5 24 22.7 -14.7 -3.27 21.15 -10.3 -3.5 21.55 -15.2 -3.02 23.85 -14.2 -3.02
5 24 21.15 -10.3 -3.5 19.87 -10.68 -3.23 21.55 -15.2 -3.02 19.3 -6.05 -3.69
5 24 23.85 -14.2 -3.02 22.43 -9.92 -3.23 22.7 -14.7 -3.27 24.82 -13.78 -2.31
5 24 22.43 -9.92 -3.23 21.15 -10.3 -3.5 22.7 -14.7 -3.27 20.56 -5.42 -3.41
5 24 24.82 -13.78 -2.31 23.52 -9.59 -2.47 23.85 -14.2 -3.02 25.47 -13.5 -1.25
5 24 23.52 -9.59 -2.47 22.43 -9.92 -3.23 23.85 -14.2 -3.02 21.63 -4.88 -2.61
5 24 25.47 -13.5 -1.25 24.25 -9.38 -1.34 24.82 -13.78 -2.31 25.7 -13.4 0
5 24 24.25 -9.38 -1.34 23.52 -9.59 -2.47 24.82 -13.78 -2.31 22.35 -4.53 -1.41
5 24 25.7 -13.4 0 24.5 -9.3 0 25.47 -13.5 -1.25 25.47 -13.5 1.25
5 24 24.5 -9.3 0 24.25 -9.38 -1.34 25.47 -13.5 -1.25 22.6 -4.4 0
5 24 25.47 -13.5 1.25 24.25 -9.38 1.34 25.7 -13.4 0 24.82 -13.78 2.31
5 24 24.25 -9.38 1.34 24.5 -9.3 0 25.7 -13.4 0 22.35 -4.53 1.41
5 24 24.82 -13.78 2.31 23.52 -9.59 2.47 25.47 -13.5 1.25 23.85 -14.2 3.02
5 24 23.52 -9.59 2.47 24.25 -9.38 1.34 25.47 -13.5 1.25 21.63 -4.88 2.61
5 24 23.85 -14.2 3.02 22.43 -9.92 3.23 24.82 -13.78 2.31 22.7 -14.7 3.27
5 24 22.43 -9.92 3.23 23.52 -9.59 2.47 24.82 -13.78 2.31 20.56 -5.42 3.41
5 24 21.15 -10.3 3.5 22.43 -9.92 3.23 23.85 -14.2 3.02 19.3 -6.05 3.69
5 24 19.87 -10.68 3.23 18.04 -6.68 3.41 21.15 -10.3 3.5 18.78 -11.01 2.47
5 24 18.04 -6.68 3.41 19.3 -6.05 3.69 21.15 -10.3 3.5 14.69 -3.52 3.5
5 24 19.3 -6.05 3.69 21.15 -10.3 3.5 19.87 -10.68 3.23 22.43 -9.92 3.23
5 24 18.78 -11.01 2.47 16.97 -7.22 2.61 19.87 -10.68 3.23 18.05 -11.22 1.34
5 24 16.97 -7.22 2.61 18.04 -6.68 3.41 19.87 -10.68 3.23 13.96 -4.51 2.68
5 24 18.05 -11.22 1.34 16.25 -7.57 1.41 18.78 -11.01 2.47 17.8 -11.3 0
5 24 16.25 -7.57 1.41 16.97 -7.22 2.61 18.78 -11.01 2.47 13.47 -5.17 1.45
5 24 17.8 -11.3 0 16 -7.7 0 18.05 -11.22 1.34 18.05 -11.22 -1.34
5 24 16 -7.7 0 16.25 -7.57 1.41 18.05 -11.22 1.34 13.3 -5.4 0
5 24 18.05 -11.22 -1.34 16.25 -7.57 -1.41 17.8 -11.3 0 18.78 -11.01 -2.47
5 24 16.25 -7.57 -1.41 16 -7.7 0 17.8 -11.3 0 13.47 -5.17 -1.45
5 24 18.78 -11.01 -2.47 16.97 -7.22 -2.61 18.05 -11.22 -1.34 19.87 -10.68 -3.23
5 24 16.97 -7.22 -2.61 16.25 -7.57 -1.41 18.05 -11.22 -1.34 13.96 -4.51 -2.68
5 24 19.87 -10.68 -3.23 18.04 -6.68 -3.41 18.78 -11.01 -2.47 21.15 -10.3 -3.5
5 24 18.04 -6.68 -3.41 16.97 -7.22 -2.61 18.78 -11.01 -2.47 14.69 -3.52 -3.5
5 24 21.15 -10.3 -3.5 19.3 -6.05 -3.69 19.87 -10.68 -3.23 22.43 -9.92 -3.23
5 24 19.3 -6.05 -3.69 18.04 -6.68 -3.41 19.87 -10.68 -3.23 15.55 -2.35 -3.79
5 24 22.43 -9.92 -3.23 20.56 -5.42 -3.41 21.15 -10.3 -3.5 23.52 -9.59 -2.47
5 24 20.56 -5.42 -3.41 19.3 -6.05 -3.69 21.15 -10.3 -3.5 16.41 -1.18 -3.5
5 24 23.52 -9.59 -2.47 21.63 -4.88 -2.61 22.43 -9.92 -3.23 24.25 -9.38 -1.34
5 24 21.63 -4.88 -2.61 20.56 -5.42 -3.41 22.43 -9.92 -3.23 17.14 -0.19 -2.68
5 24 24.25 -9.38 -1.34 22.35 -4.53 -1.41 23.52 -9.59 -2.47 24.5 -9.3 0
5 24 22.35 -4.53 -1.41 21.63 -4.88 -2.61 23.52 -9.59 -2.47 17.63 0.47 -1.45
5 24 24.5 -9.3 0 22.6 -4.4 0 24.25 -9.38 -1.34 24.25 -9.38 1.34
5 24 22.6 -4.4 0 22.35 -4.53 -1.41 24.25 -9.38 -1.34 17.8 0.7 0
5 24 24.25 -9.38 1.34 22.35 -4.53 1.41 24.5 -9.3 0 23.52 -9.59 2.47
5 24 22.35 -4.53 1.41 22.6 -4.4 0 24.5 -9.3 0 17.63 0.47 1.45
5 24 23.52 -9.59 2.47 21.63 -4.88 2.61 24.25 -9.38 1.34 22.43 -9.92 3.23
5 24 21.63 -4.88 2.61 22.35 -4.53 1.41 24.25 -9.38 1.34 17.14 -0.19 2.68
5 24 22.43 -9.92 3.23 20.56 -5.42 3.41 23.52 -9.59 2.47 21.15 -10.3 3.5
5 24 20.56 -5.42 3.41 21.63 -4.88 2.61 23.52 -9.59 2.47 16.41 -1.18 3.5
5 24 19.3 -6.05 3.69 20.56 -5.42 3.41 22.43 -9.92 3.23 15.55 -2.35 3.79
5 24 19.3 -6.05 3.69 14.69 -3.52 3.5 15.55 -2.35 3.79 18.04 -6.68 3.41
5 24 14.69 -3.52 3.5 15.55 -2.35 3.79 19.3 -6.05 3.69 11.01 -1.85 3.54
5 24 15.55 -2.35 3.79 19.3 -6.05 3.69 14.69 -3.52 3.5 20.56 -5.42 3.41
5 24 18.04 -6.68 3.41 14.69 -3.52 3.5 19.3 -6.05 3.69 13.96 -4.51 2.68
5 24 18.04 -6.68 3.41 13.96 -4.51 2.68 14.69 -3.52 3.5 16.97 -7.22 2.61
5 24 13.96 -4.51 2.68 14.69 -3.52 3.5 18.04 -6.68 3.41 10.85 -3.09 2.71
5 24 16.97 -7.22 2.61 13.96 -4.51 2.68 18.04 -6.68 3.41 13.47 -5.17 1.45
5 24 16.97 -7.22 2.61 13.47 -5.17 1.45 13.96 -4.51 2.68 16.25 -7.57 1.41
5 24 13.47 -5.17 1.45 13.96 -4.51 2.68 16.97 -7.22 2.61 10.74 -3.91 1.47
5 24 16.25 -7.57 1.41 13.47 -5.17 1.45 16.97 -7.22 2.61 16 -7.7 0
5 24 16 -7.7 0 13.3 -5.4 0 16.25 -7.57 1.41 16.25 -7.57 -1.41
5 24 13.3 -5.4 0 13.47 -5.17 1.45 16.25 -7.57 1.41 10.7 -4.2 0
5 24 16.25 -7.57 -1.41 13.47 -5.17 -1.45 16 -7.7 0 13.96 -4.51 -2.68
5 24 13.47 -5.17 -1.45 13.3 -5.4 0 16 -7.7 0 10.74 -3.91 -1.47
5 24 16.25 -7.57 -1.41 13.96 -4.51 -2.68 13.47 -5.17 -1.45 16.97 -7.22 -2.61
5 24 13.96 -4.51 -2.68 13.47 -5.17 -1.45 16.25 -7.57 -1.41 10.85 -3.09 -2.71
5 24 16.97 -7.22 -2.61 13.96 -4.51 -2.68 16.25 -7.57 -1.41 14.69 -3.52 -3.5
5 24 16.97 -7.22 -2.61 14.69 -3.52 -3.5 13.96 -4.51 -2.68 18.04 -6.68 -3.41
5 24 14.69 -3.52 -3.5 13.96 -4.51 -2.68 16.97 -7.22 -2.61 11.01 -1.85 -3.54
5 24 18.04 -6.68 -3.41 14.69 -3.52 -3.5 16.97 -7.22 -2.61 15.55 -2.35 -3.79
5 24 18.04 -6.68 -3.41 15.55 -2.35 -3.79 14.69 -3.52 -3.5 19.3 -6.05 -3.69
5 24 15.55 -2.35 -3.79 14.69 -3.52 -3.5 18.04 -6.68 -3.41 11.2 -0.4 -3.83
5 24 19.3 -6.05 -3.69 15.55 -2.35 -3.79 18.04 -6.68 -3.41 20.56 -5.42 -3.41
5 24 20.56 -5.42 -3.41 16.41 -1.18 -3.5 19.3 -6.05 -3.69 21.63 -4.88 -2.61
5 24 16.41 -1.18 -3.5 15.55 -2.35 -3.79 19.3 -6.05 -3.69 11.39 1.05 -3.54
5 24 21.63 -4.88 -2.61 17.14 -0.19 -2.68 20.56 -5.42 -3.41 22.35 -4.53 -1.41
5 24 17.14 -0.19 -2.68 16.41 -1.18 -3.5 20.56 -5.42 -3.41 11.55 2.29 -2.71
5 24 22.35 -4.53 -1.41 17.63 0.47 -1.45 21.63 -4.88 -2.61 22.6 -4.4 0
5 24 17.63 0.47 -1.45 17.14 -0.19 -2.68 21.63 -4.88 -2.61 11.66 3.11 -1.47
5 24 22.6 -4.4 0 17.8 0.7 0 22.35 -4.53 -1.41 22.35 -4.53 1.41
5 24 17.8 0.7 0 17.63 0.47 -1.45 22.35 -4.53 -1.41 11.7 3.4 0
5 24 22.35 -4.53 1.41 17.63 0.47 1.45 22.6 -4.4 0 21.63 -4.88 2.61
5 24 17.63 0.47 1.45 17.8 0.7 0 22.6 -4.4 0 11.66 3.11 1.47
5 24 21.63 -4.88 2.61 17.14 -0.19 2.68 22.35 -4.53 1.41 20.56 -5.42 3.41
5 24 17.14 -0.19 2.68 17.63 0.47 1.45 22.35 -4.53 1.41 11.55 2.29 2.71
5 24 20.56 -5.42 3.41 16.41 -1.18 3.5 21.63 -4.88 2.61 19.3 -6.05 3.69
5 24 16.41 -1.18 3.5 17.14 -0.19 2.68 21.63 -4.88 2.61 11.39 1.05 3.54
5 24 15.55 -2.35 3.79 16.41 -1.18 3.5 20.56 -5.42 3.41 11.2 -0.4 3.83
5 24 14.69 -3.52 3.5 11.01 -1.85 3.54 15.55 -2.35 3.79 13.96 -4.51 2.68
5 24 11.01 -1.85 3.54 11.2 -0.4 3.83 15.55 -2.35 3.79 7 -1.45 3.51
5 24 11.2 -0.4 3.83 15.55 -2.35 3.79 14.69 -3.52 3.5 16.41 -1.18 3.5
5 24 13.96 -4.51 2.68 10.85 -3.09 2.71 14.69 -3.52 3.5 13.47 -5.17 1.45
5 24 10.85 -3.09 2.71 11.01 -1.85 3.54 14.69 -3.52 3.5 7 -2.69 2.69
5 24 13.47 -5.17 1.45 10.74 -3.91 1.47 13.96 -4.51 2.68 13.3 -5.4 0
5 24 10.74 -3.91 1.47 10.85 -3.09 2.71 13.96 -4.51 2.68 7 -3.51 1.45
5 24 13.3 -5.4 0 10.7 -4.2 0 13.47 -5.17 1.45 13.47 -5.17 -1.45
5 24 10.7 -4.2 0 10.74 -3.91 1.47 13.47 -5.17 1.45 7 -3.8 0
5 24 13.47 -5.17 -1.45 10.74 -3.91 -1.47 13.3 -5.4 0 13.96 -4.51 -2.68
5 24 10.74 -3.91 -1.47 10.7 -4.2 0 13.3 -5.4 0 7 -3.51 -1.45
5 24 13.96 -4.51 -2.68 10.85 -3.09 -2.71 13.47 -5.17 -1.45 14.69 -3.52 -3.5
5 24 10.85 -3.09 -2.71 10.74 -3.91 -1.47 13.47 -5.17 -1.45 7 -2.69 -2.69
5 24 14.69 -3.52 -3.5 11.01 -1.85 -3.54 13.96 -4.51 -2.68 15.55 -2.35 -3.79
5 24 11.01 -1.85 -3.54 10.85 -3.09 -2.71 13.96 -4.51 -2.68 7 -1.45 -3.51
5 24 15.55 -2.35 -3.79 11.2 -0.4 -3.83 14.69 -3.52 -3.5 16.41 -1.18 -3.5
5 24 11.2 -0.4 -3.83 11.01 -1.85 -3.54 14.69 -3.52 -3.5 7 0 -3.8
5 24 16.41 -1.18 -3.5 11.39 1.05 -3.54 15.55 -2.35 -3.79 17.14 -0.19 -2.68
5 24 11.39 1.05 -3.54 11.2 -0.4 -3.83 15.55 -2.35 -3.79 7 1.45 -3.51
5 24 17.14 -0.19 -2.68 11.55 2.29 -2.71 16.41 -1.18 -3.5 17.63 0.47 -1.45
5 24 11.55 2.29 -2.71 11.39 1.05 -3.54 16.41 -1.18 -3.5 7 2.69 -2.69
5 24 17.63 0.47 -1.45 11.66 3.11 -1.47 17.14 -0.19 -2.68 17.8 0.7 0
5 24 11.66 3.11 -1.47 11.55 2.29 -2.71 17.14 -0.19 -2.68 7 3.51 -1.45
5 24 17.8 0.7 0 11.7 3.4 0 17.63 0.47 -1.45 17.63 0.47 1.45
5 24 11.7 3.4 0 11.66 3.11 -1.47 17.63 0.47 -1.45 7 3.8 0
5 24 17.63 0.47 1.45 11.66 3.11 1.47 17.8 0.7 0 17.14 -0.19 2.68
5 24 11.66 3.11 1.47 11.7 3.4 0 17.8 0.7 0 7 3.51 1.45
5 24 17.14 -0.19 2.68 11.55 2.29 2.71 17.63 0.47 1.45 16.41 -1.18 3.5
5 24 11.55 2.29 2.71 11.66 3.11 1.47 17.63 0.47 1.45 7 2.69 2.69
5 24 16.41 -1.18 3.5 11.39 1.05 3.54 17.14 -0.19 2.68 15.55 -2.35 3.79
5 24 11.39 1.05 3.54 11.55 2.29 2.71 17.14 -0.19 2.68 7 1.45 3.51
5 24 11.2 -0.4 3.83 11.39 1.05 3.54 16.41 -1.18 3.5 7 0 3.8
5 24 11.01 -1.85 3.54 7 -1.45 3.51 11.2 -0.4 3.83 10.85 -3.09 2.71
5 24 7 0 3.8 11.2 -0.4 3.83 11.01 -1.85 3.54 11.39 1.05 3.54
5 24 10.85 -3.09 2.71 7 -2.69 2.69 11.01 -1.85 3.54 10.74 -3.91 1.47
5 24 10.74 -3.91 1.47 7 -3.51 1.45 10.85 -3.09 2.71 10.7 -4.2 0
5 24 10.7 -4.2 0 7 -3.8 0 10.74 -3.91 1.47 10.74 -3.91 -1.47
5 24 10.74 -3.91 -1.47 7 -3.51 -1.45 10.7 -4.2 0 10.85 -3.09 -2.71
5 24 10.85 -3.09 -2.71 7 -2.69 -2.69 10.74 -3.91 -1.47 11.01 -1.85 -3.54
5 24 11.01 -1.85 -3.54 7 -1.45 -3.51 10.85 -3.09 -2.71 11.2 -0.4 -3.83
5 24 11.2 -0.4 -3.83 7 0 -3.8 11.01 -1.85 -3.54 11.39 1.05 -3.54
5 24 11.39 1.05 -3.54 7 1.45 -3.51 11.2 -0.4 -3.83 11.55 2.29 -2.71
5 24 11.55 2.29 -2.71 7 2.69 -2.69 11.39 1.05 -3.54 11.66 3.11 -1.47
5 24 11.66 3.11 -1.47 7 3.51 -1.45 11.55 2.29 -2.71 11.7 3.4 0
5 24 11.7 3.4 0 7 3.8 0 11.66 3.11 -1.47 11.66 3.11 1.47
5 24 11.66 3.11 1.47 7 3.51 1.45 11.7 3.4 0 11.55 2.29 2.71
5 24 11.55 2.29 2.71 7 2.69 2.69 11.66 3.11 1.47 11.39 1.05 3.54
5 24 11.39 1.05 3.54 7 1.45 3.51 11.55 2.29 2.71 11.2 -0.4 3.83
3 16 -27.64 -20.95 0.63 -27.85 -20.8 0.68 -28.1 -20.9 0
3 16 -27.46 -21.08 0.48 -27.64 -20.95 0.63 -28.1 -20.9 0
3 16 -27.34 -21.17 0.26 -27.46 -21.08 0.48 -28.1 -20.9 0
3 16 -27.3 -21.2 0 -27.34 -21.17 0.26 -28.1 -20.9 0
3 16 -27.34 -21.17 -0.26 -27.3 -21.2 0 -28.1 -20.9 0
3 16 -27.46 -21.08 -0.48 -27.34 -21.17 -0.26 -28.1 -20.9 0
3 16 -27.64 -20.95 -0.63 -27.46 -21.08 -0.48 -28.1 -20.9 0
3 16 -27.85 -20.8 -0.68 -27.64 -20.95 -0.63 -28.1 -20.9 0
3 16 -28.06 -20.65 -0.63 -27.85 -20.8 -0.68 -28.1 -20.9 0
3 16 -28.24 -20.52 -0.48 -28.06 -20.65 -0.63 -28.1 -20.9 0
3 16 -28.36 -20.43 -0.26 -28.24 -20.52 -0.48 -28.1 -20.9 0
3 16 -28.4 -20.4 0 -28.36 -20.43 -0.26 -28.1 -20.9 0
3 16 -28.36 -20.43 0.26 -28.4 -20.4 0 -28.1 -20.9 0
3 16 -28.24 -20.52 0.48 -28.36 -20.43 0.26 -28.1 -20.9 0
3 16 -28.06 -20.65 0.63 -28.24 -20.52 0.48 -28.1 -20.9 0
3 16 -27.85 -20.8 0.68 -28.06 -20.65 0.63 -28.1 -20.9 0
3 16 -26.53 -20.44 1.5 -27.05 -20.1 1.62 -27.85 -20.8 0.68
3 16 -27.64 -20.95 0.63 -26.53 -20.44 1.5 -27.85 -20.8 0.68
4 16 -26.1 -20.74 1.15 -26.53 -20.44 1.5 -27.64 -20.95 0.63 -27.46 -21.08 0.48
3 16 -25.8 -20.93 0.62 -26.1 -20.74 1.15 -27.46 -21.08 0.48
3 16 -27.34 -21.17 0.26 -25.8 -20.93 0.62 -27.46 -21.08 0.48
4 16 -27.34 -21.17 0.26 -27.3 -21.2 0 -25.7 -21 0 -25.8 -20.93 0.62
4 16 -27.3 -21.2 0 -27.34 -21.17 -0.26 -25.8 -20.93 -0.62 -25.7 -21 0
3 16 -26.1 -20.74 -1.15 -25.8 -20.93 -0.62 -27.34 -21.17 -0.26
3 16 -27.46 -21.08 -0.48 -26.1 -20.74 -1.15 -27.34 -21.17 -0.26
4 16 -26.53 -20.44 -1.5 -26.1 -20.74 -1.15 -27.46 -21.08 -0.48 -27.64 -20.95 -0.63
3 16 -27.05 -20.1 -1.62 -26.53 -20.44 -1.5 -27.64 -20.95 -0.63
3 16 -27.85 -20.8 -0.68 -27.05 -20.1 -1.62 -27.64 -20.95 -0.63
3 16 -27.57 -19.76 -1.5 -27.05 -20.1 -1.62 -27.85 -20.8 -0.68
3 16 -28.06 -20.65 -0.63 -27.57 -19.76 -1.5 -27.85 -20.8 -0.68
4 16 -28 -19.46 -1.15 -27.57 -19.76 -1.5 -28.06 -20.65 -0.63 -28.24 -20.52 -0.48
4 16 -28.24 -20.52 -0.48 -28.36 -20.43 -0.26 -28.3 -19.27 -0.62 -28 -19.46 -1.15
4 16 -28.36 -20.43 -0.26 -28.4 -20.4 0 -28.4 -19.2 0 -28.3 -19.27 -0.62
4 16 -28.4 -20.4 0 -28.36 -20.43 0.26 -28.3 -19.27 0.62 -28.4 -19.2 0
4 16 -28.36 -20.43 0.26 -28.24 -20.52 0.48 -28 -19.46 1.15 -28.3 -19.27 0.62
4 16 -27.57 -19.76 1.5 -28 -19.46 1.15 -28.24 -20.52 0.48 -28.06 -20.65 0.63
3 16 -27.05 -20.1 1.62 -27.57 -19.76 1.5 -28.06 -20.65 0.63
3 16 -27.85 -20.8 0.68 -27.05 -20.1 1.62 -28.06 -20.65 0.63
3 16 -24.73 -19.16 2.15 -25.5 -18.7 2.33 -27.05 -20.1 1.62
3 16 -26.53 -20.44 1.5 -24.73 -19.16 2.15 -27.05 -20.1 1.62
3 16 -24.09 -19.55 1.65 -24.73 -19.16 2.15 -26.53 -20.44 1.5
3 16 -26.1 -20.74 1.15 -24.09 -19.55 1.65 -26.53 -20.44 1.5
4 16 -26.1 -20.74 1.15 -25.8 -20.93 0.62 -23.65 -19.81 0.89 -24.09 -19.55 1.65
4 16 -25.8 -20.93 0.62 -25.7 -21 0 -23.5 -19.9 0 -23.65 -19.81 0.89
4 16 -25.7 -21 0 -25.8 -20.93 -0.62 -23.65 -19.81 -0.89 -23.5 -19.9 0
4 16 -25.8 -20.93 -0.62 -26.1 -20.74 -1.15 -24.09 -19.55 -1.65 -23.65 -19.81 -0.89
3 16 -24.73 -19.16 -2.15 -24.09 -19.55 -1.65 -26.1 -20.74 -1.15
3 16 -26.53 -20.44 -1.5 -24.73 -19.16 -2.15 -26.1 -20.74 -1.15
3 16 -25.5 -18.7 -2.33 -24.73 -19.16 -2.15 -26.53 -20.44 -1.5
3 16 -27.05 -20.1 -1.62 -25.5 -18.7 -2.33 -26.53 -20.44 -1.5
4 16 -27.05 -20.1 -1.62 -27.57 -19.76 -1.5 -26.27 -18.24 -2.15 -25.5 -18.7 -2.33
4 16 -27.57 -19.76 -1.5 -28 -19.46 -1.15 -26.91 -17.85 -1.65 -26.27 -18.24 -2.15
4 16 -28 -19.46 -1.15 -28.3 -19.27 -0.62 -27.35 -17.59 -0.89 -26.91 -17.85 -1.65
4 16 -28.3 -19.27 -0.62 -28.4 -19.2 0 -27.5 -17.5 0 -27.35 -17.59 -0.89
4 16 -28.4 -19.2 0 -28.3 -19.27 0.62 -27.35 -17.59 0.89 -27.5 -17.5 0
4 16 -28.3 -19.27 0.62 -28 -19.46 1.15 -26.91 -17.85 1.65 -27.35 -17.59 0.89
4 16 -28 -19.46 1.15 -27.57 -19.76 1.5 -26.27 -18.24 2.15 -26.91 -17.85 1.65
4 16 -27.57 -19.76 1.5 -27.05 -20.1 1.62 -25.5 -18.7 2.33 -26.27 -18.24 2.15
3 16 -21.55 -15.2 3.02 -22.7 -14.7 3.27 -25.5 -18.7 2.33
3 16 -24.73 -19.16 2.15 -21.55 -15.2 3.02 -25.5 -18.7 2.33
3 16 -20.58 -15.62 2.31 -21.55 -15.2 3.02 -24.73 -19.16 2.15
3 16 -24.09 -19.55 1.65 -20.58 -15.62 2.31 -24.73 -19.16 2.15
3 16 -19.93 -15.9 1.25 -20.58 -15.62 2.31 -24.09 -19.55 1.65
3 16 -23.65 -19.81 0.89 -19.93 -15.9 1.25 -24.09 -19.55 1.65
4 16 -23.65 -19.81 0.89 -23.5 -19.9 0 -19.7 -16 0 -19.93 -15.9 1.25
4 16 -23.5 -19.9 0 -23.65 -19.81 -0.89 -19.93 -15.9 -1.25 -19.7 -16 0
3 16 -20.58 -15.62 -2.31 -19.93 -15.9 -1.25 -23.65 -19.81 -0.89
3 16 -24.09 -19.55 -1.65 -20.58 -15.62 -2.31 -23.65 -19.81 -0.89
3 16 -21.55 -15.2 -3.02 -20.58 -15.62 -2.31 -24.09 -19.55 -1.65
3 16 -24.73 -19.16 -2.15 -21.55 -15.2 -3.02 -24.09 -19.55 -1.65
3 16 -22.7 -14.7 -3.27 -21.55 -15.2 -3.02 -24.73 -19.16 -2.15
3 16 -25.5 -18.7 -2.33 -22.7 -14.7 -3.27 -24.73 -19.16 -2.15
3 16 -23.85 -14.2 -3.02 -22.7 -14.7 -3.27 -25.5 -18.7 -2.33
3 16 -26.27 -18.24 -2.15 -23.85 -14.2 -3.02 -25.5 -18.7 -2.33
4 16 -26.27 -18.24 -2.15 -26.91 -17.85 -1.65 -24.82 -13.78 -2.31 -23.85 -14.2 -3.02
4 16 -26.91 -17.85 -1.65 -27.35 -17.59 -0.89 -25.47 -13.5 -1.25 -24.82 -13.78 -2.31
4 16 -27.35 -17.59 -0.89 -27.5 -17.5 0 -25.7 -13.4 0 -25.47 -13.5 -1.25
4 16 -27.5 -17.5 0 -27.35 -17.59 0.89 -25.47 -13.5 1.25 -25.7 -13.4 0
4 16 -27.35 -17.59 0.89 -26.91 -17.85 1.65 -24.82 -13.78 2.31 -25.47 -13.5 1.25
4 16 -26.91 -17.85 1.65 -26.27 -18.24 2.15 -23.85 -14.2 3.02 -24.82 -13.78 2.31
3 16 -22.7 -14.7 3.27 -23.85 -14.2 3.02 -26.27 -18.24 2.15
3 16 -25.5 -18.7 2.33 -22.7 -14.7 3.27 -26.27 -18.24 2.15
4 16 -22.7 -14.7 3.27 -21.55 -15.2 3.02 -19.87 -10.68 3.23 -21.15 -10.3 3.5
4 16 -21.55 -15.2 3.02 -20.58 -15.62 2.31 -18.78 -11.01 2.47 -19.87 -10.68 3.23
4 16 -20.58 -15.62 2.31 -19.93 -15.9 1.25 -18.05 -11.22 1.34 -18.78 -11.01 2.47
4 16 -19.93 -15.9 1.25 -19.7 -16 0 -17.8 -11.3 0 -18.05 -11.22 1.34
4 16 -19.7 -16 0 -19.93 -15.9 -1.25 -18.05 -11.22 -1.34 -17.8 -11.3 0
4 16 -19.93 -15.9 -1.25 -20.58 -15.62 -2.31 -18.78 -11.01 -2.47 -18.05 -11.22 -1.34
4 16 -20.58 -15.62 -2.31 -21.55 -15.2 -3.02 -19.87 -10.68 -3.23 -18.78 -11.01 -2.47
4 16 -21.55 -15.2 -3.02 -22.7 -14.7 -3.27 -21.15 -10.3 -3.5 -19.87 -10.68 -3.23
4 16 -22.7 -14.7 -3.27 -23.85 -14.2 -3.02 -22.43 -9.92 -3.23 -21.15 -10.3 -3.5
4 16 -23.85 -14.2 -3.02 -24.82 -13.78 -2.31 -23.52 -9.59 -2.47 -22.43 -9.92 -3.23
4 16 -24.82 -13.78 -2.31 -25.47 -13.5 -1.25 -24.25 -9.38 -1.34 -23.52 -9.59 -2.47
4 16 -25.47 -13.5 -1.25 -25.7 -13.4 0 -24.5 -9.3 0 -24.25 -9.38 -1.34
4 16 -25.7 -13.4 0 -25.47 -13.5 1.25 -24.25 -9.38 1.34 -24.5 -9.3 0
4 16 -25.47 -13.5 1.25 -24.82 -13.78 2.31 -23.52 -9.59 2.47 -24.25 -9.38 1.34
4 16 -24.82 -13.78 2.31 -23.85 -14.2 3.02 -22.43 -9.92 3.23 -23.52 -9.59 2.47
4 16 -23.85 -14.2 3.02 -22.7 -14.7 3.27 -21.15 -10.3 3.5 -22.43 -9.92 3.23
4 16 -21.15 -10.3 3.5 -19.87 -10.68 3.23 -18.04 -6.68 3.41 -19.3 -6.05 3.69
4 16 -19.87 -10.68 3.23 -18.78 -11.01 2.47 -16.97 -7.22 2.61 -18.04 -6.68 3.41
4 16 -18.78 -11.01 2.47 -18.05 -11.22 1.34 -16.25 -7.57 1.41 -16.97 -7.22 2.61
4 16 -18.05 -11.22 1.34 -17.8 -11.3 0 -16 -7.7 0 -16.25 -7.57 1.41
4 16 -17.8 -11.3 0 -18.05 -11.22 -1.34 -16.25 -7.57 -1.41 -16 -7.7 0
4 16 -18.05 -11.22 -1.34 -18.78 -11.01 -2.47 -16.97 -7.22 -2.61 -16.25 -7.57 -1.41
4 16 -18.78 -11.01 -2.47 -19.87 -10.68 -3.23 -18.04 -6.68 -3.41 -16.97 -7.22 -2.61
4 16 -19.87 -10.68 -3.23 -21.15 -10.3 -3.5 -19.3 -6.05 -3.69 -18.04 -6.68 -3.41
4 16 -21.15 -10.3 -3.5 -22.43 -9.92 -3.23 -20.56 -5.42 -3.41 -19.3 -6.05 -3.69
4 16 -22.43 -9.92 -3.23 -23.52 -9.59 -2.47 -21.63 -4.88 -2.61 -20.56 -5.42 -3.41
4 16 -23.52 -9.59 -2.47 -24.25 -9.38 -1.34 -22.35 -4.53 -1.41 -21.63 -4.88 -2.61
4 16 -24.25 -9.38 -1.34 -24.5 -9.3 0 -22.6 -4.4 0 -22.35 -4.53 -1.41
4 16 -24.5 -9.3 0 -24.25 -9.38 1.34 -22.35 -4.53 1.41 -22.6 -4.4 0
4 16 -24.25 -9.38 1.34 -23.52 -9.59 2.47 -21.63 -4.88 2.61 -22.35 -4.53 1.41
4 16 -23.52 -9.59 2.47 -22.43 -9.92 3.23 -20.56 -5.42 3.41 -21.63 -4.88 2.61
4 16 -22.43 -9.92 3.23 -21.15 -10.3 3.5 -19.3 -6.05 3.69 -20.56 -5.42 3.41
3 16 -14.69 -3.52 3.5 -15.55 -2.35 3.79 -19.3 -6.05 3.69
3 16 -18.04 -6.68 3.41 -14.69 -3.52 3.5 -19.3 -6.05 3.69
3 16 -13.96 -4.51 2.68 -14.69 -3.52 3.5 -18.04 -6.68 3.41
3 16 -16.97 -7.22 2.61 -13.96 -4.51 2.68 -18.04 -6.68 3.41
3 16 -13.47 -5.17 1.45 -13.96 -4.51 2.68 -16.97 -7.22 2.61
3 16 -16.25 -7.57 1.41 -13.47 -5.17 1.45 -16.97 -7.22 2.61
4 16 -16.25 -7.57 1.41 -16 -7.7 0 -13.3 -5.4 0 -13.47 -5.17 1.45
4 16 -16 -7.7 0 -16.25 -7.57 -1.41 -13.47 -5.17 -1.45 -13.3 -5.4 0
3 16 -13.96 -4.51 -2.68 -13.47 -5.17 -1.45 -16.25 -7.57 -1.41
3 16 -16.97 -7.22 -2.61 -13.96 -4.51 -2.68 -16.25 -7.57 -1.41
3 16 -14.69 -3.52 -3.5 -13.96 -4.51 -2.68 -16.97 -7.22 -2.61
3 16 -18.04 -6.68 -3.41 -14.69 -3.52 -3.5 -16.97 -7.22 -2.61
3 16 -15.55 -2.35 -3.79 -14.69 -3.52 -3.5 -18.04 -6.68 -3.41
3 16 -19.3 -6.05 -3.69 -15.55 -2.35 -3.79 -18.04 -6.68 -3.41
4 16 -19.3 -6.05 -3.69 -20.56 -5.42 -3.41 -16.41 -1.18 -3.5 -15.55 -2.35 -3.79
4 16 -20.56 -5.42 -3.41 -21.63 -4.88 -2.61 -17.14 -0.19 -2.68 -16.41 -1.18 -3.5
4 16 -21.63 -4.88 -2.61 -22.35 -4.53 -1.41 -17.63 0.47 -1.45 -17.14 -0.19 -2.68
4 16 -22.35 -4.53 -1.41 -22.6 -4.4 0 -17.8 0.7 0 -17.63 0.47 -1.45
4 16 -22.6 -4.4 0 -22.35 -4.53 1.41 -17.63 0.47 1.45 -17.8 0.7 0
4 16 -22.35 -4.53 1.41 -21.63 -4.88 2.61 -17.14 -0.19 2.68 -17.63 0.47 1.45
4 16 -21.63 -4.88 2.61 -20.56 -5.42 3.41 -16.41 -1.18 3.5 -17.14 -0.19 2.68
4 16 -20.56 -5.42 3.41 -19.3 -6.05 3.69 -15.55 -2.35 3.79 -16.41 -1.18 3.5
4 16 -15.55 -2.35 3.79 -14.69 -3.52 3.5 -11.01 -1.85 3.54 -11.2 -0.4 3.83
4 16 -14.69 -3.52 3.5 -13.96 -4.51 2.68 -10.85 -3.09 2.71 -11.01 -1.85 3.54
4 16 -13.96 -4.51 2.68 -13.47 -5.17 1.45 -10.74 -3.91 1.47 -10.85 -3.09 2.71
4 16 -13.47 -5.17 1.45 -13.3 -5.4 0 -10.7 -4.2 0 -10.74 -3.91 1.47
4 16 -13.3 -5.4 0 -13.47 -5.17 -1.45 -10.74 -3.91 -1.47 -10.7 -4.2 0
4 16 -13.47 -5.17 -1.45 -13.96 -4.51 -2.68 -10.85 -3.09 -2.71 -10.74 -3.91 -1.47
4 16 -13.96 -4.51 -2.68 -14.69 -3.52 -3.5 -11.01 -1.85 -3.54 -10.85 -3.09 -2.71
4 16 -14.69 -3.52 -3.5 -15.55 -2.35 -3.79 -11.2 -0.4 -3.83 -11.01 -1.85 -3.54
4 16 -15.55 -2.35 -3.79 -16.41 -1.18 -3.5 -11.39 1.05 -3.54 -11.2 -0.4 -3.83
4 16 -16.41 -1.18 -3.5 -17.14 -0.19 -2.68 -11.55 2.29 -2.71 -11.39 1.05 -3.54
4 16 -17.14 -0.19 -2.68 -17.63 0.47 -1.45 -11.66 3.11 -1.47 -11.55 2.29 -2.71
4 16 -17.63 0.47 -1.45 -17.8 0.7 0 -11.7 3.4 0 -11.66 3.11 -1.47
4 16 -17.8 0.7 0 -17.63 0.47 1.45 -11.66 3.11 1.47 -11.7 3.4 0
4 16 -17.63 0.47 1.45 -17.14 -0.19 2.68 -11.55 2.29 2.71 -11.66 3.11 1.47
4 16 -17.14 -0.19 2.68 -16.41 -1.18 3.5 -11.39 1.05 3.54 -11.55 2.29 2.71
4 16 -16.41 -1.18 3.5 -15.55 -2.35 3.79 -11.2 -0.4 3.83 -11.39 1.05 3.54
4 16 -11.2 -0.4 3.83 -11.01 -1.85 3.54 -7 -1.45 3.51 -7 0 3.8
4 16 -11.01 -1.85 3.54 -10.85 -3.09 2.71 -7 -2.69 2.69 -7 -1.45 3.51
4 16 -10.85 -3.09 2.71 -10.74 -3.91 1.47 -7 -3.51 1.45 -7 -2.69 2.69
4 16 -10.74 -3.91 1.47 -10.7 -4.2 0 -7 -3.8 0 -7 -3.51 1.45
4 16 -10.7 -4.2 0 -10.74 -3.91 -1.47 -7 -3.51 -1.45 -7 -3.8 0
4 16 -10.74 -3.91 -1.47 -10.85 -3.09 -2.71 -7 -2.69 -2.69 -7 -3.51 -1.45
4 16 -10.85 -3.09 -2.71 -11.01 -1.85 -3.54 -7 -1.45 -3.51 -7 -2.69 -2.69
4 16 -11.01 -1.85 -3.54 -11.2 -0.4 -3.83 -7 0 -3.8 -7 -1.45 -3.51
4 16 -11.2 -0.4 -3.83 -11.39 1.05 -3.54 -7 1.45 -3.51 -7 0 -3.8
4 16 -11.39 1.05 -3.54 -11.55 2.29 -2.71 -7 2.69 -2.69 -7 1.45 -3.51
4 16 -11.55 2.29 -2.71 -11.66 3.11 -1.47 -7 3.51 -1.45 -7 2.69 -2.69
4 16 -11.66 3.11 -1.47 -11.7 3.4 0 -7 3.8 0 -7 3.51 -1.45
4 16 -11.7 3.4 0 -11.66 3.11 1.47 -7 3.51 1.45 -7 3.8 0
4 16 -11.66 3.11 1.47 -11.55 2.29 2.71 -7 2.69 2.69 -7 3.51 1.45
4 16 -11.55 2.29 2.71 -11.39 1.05 3.54 -7 1.45 3.51 -7 2.69 2.69
4 16 -11.39 1.05 3.54 -11.2 -0.4 3.83 -7 0 3.8 -7 1.45 3.51
5 24 -28.1 -20.9 0 -27.64 -20.95 0.63 -27.85 -20.8 0.68 -27.46 -21.08 0.48
5 24 -27.64 -20.95 0.63 -27.85 -20.8 0.68 -28.1 -20.9 0 -26.53 -20.44 1.5
5 24 -27.85 -20.8 0.68 -28.1 -20.9 0 -27.64 -20.95 0.63 -28.06 -20.65 0.63
5 24 -28.1 -20.9 0 -27.46 -21.08 0.48 -27.64 -20.95 0.63 -27.34 -21.17 0.26
5 24 -27.46 -21.08 0.48 -27.64 -20.95 0.63 -28.1 -20.9 0 -26.1 -20.74 1.15
5 24 -28.1 -20.9 0 -27.34 -21.17 0.26 -27.46 -21.08 0.48 -27.3 -21.2 0
5 24 -27.34 -21.17 0.26 -27.46 -21.08 0.48 -28.1 -20.9 0 -25.8 -20.93 0.62
5 24 -28.1 -20.9 0 -27.3 -21.2 0 -27.34 -21.17 0.26 -27.34 -21.17 -0.26
5 24 -27.3 -21.2 0 -27.34 -21.17 0.26 -28.1 -20.9 0 -25.7 -21 0
5 24 -28.1 -20.9 0 -27.34 -21.17 -0.26 -27.3 -21.2 0 -27.46 -21.08 -0.48
5 24 -27.34 -21.17 -0.26 -27.3 -21.2 0 -28.1 -20.9 0 -25.8 -20.93 -0.62
5 24 -28.1 -20.9 0 -27.46 -21.08 -0.48 -27.34 -21.17 -0.26 -27.64 -20.95 -0.63
5 24 -27.46 -21.08 -0.48 -27.34 -21.17 -0.26 -28.1 -20.9 0 -26.1 -20.74 -1.15
5 24 -28.1 -20.9 0 -27.64 -20.95 -0.63 -27.46 -21.08 -0.48 -27.85 -20.8 -0.68
5 24 -27.64 -20.95 -0.63 -27.46 -21.08 -0.48 -28.1 -20.9 0 -26.53 -20.44 -1.5
5 24 -28.1 -20.9 0 -27.85 -20.8 -0.68 -27.64 -20.95 -0.63 -28.06 -20.65 -0.63
5 24 -27.85 -20.8 -0.68 -27.64 -20.95 -0.63 -28.1 -20.9 0 -27.05 -20.1 -1.62
5 24 -28.1 -20.9 0 -28.06 -20.65 -0.63 -27.85 -20.8 -0.68 -28.24 -20.52 -0.48
5 24 -28.06 -20.65 -0.63 -27.85 -20.8 -0.68 -28.1 -20.9 0 -27.57 -19.76 -1.5
5 24 -28.1 -20.9 0 -28.24 -20.52 -0.48 -28.06 -20.65 -0.63 -28.36 -20.43 -0.26
5 24 -28.24 -20.52 -0.48 -28.06 -20.65 -0.63 -28.1 -20.9 0 -28 -19.46 -1.15
5 24 -28.1 -20.9 0 -28.36 -20.43 -0.26 -28.24 -20.52 -0.48 -28.4 -20.4 0
5 24 -28.36 -20.43 -0.26 -28.24 -20.52 -0.48 -28.1 -20.9 0 -28.3 -19.27 -0.62
5 24 -28.1 -20.9 0 -28.4 -20.4 0 -28.36 -20.43 -0.26 -28.36 -20.43 0.26
5 24 -28.4 -20.4 0 -28.36 -20.43 -0.26 -28.1 -20.9 0 -28.4 -19.2 0
5 24 -28.1 -20.9 0 -28.36 -20.43 0.26 -28.4 -20.4 0 -28.24 -20.52 0.48
5 24 -28.36 -20.43 0.26 -28.4 -20.4 0 -28.1 -20.9 0 -28.3 -19.27 0.62
5 24 -28.1 -20.9 0 -28.24 -20.52 0.48 -28.36 -20.43 0.26 -28.06 -20.65 0.63
5 24 -28.24 -20.52 0.48 -28.36 -20.43 0.26 -28.1 -20.9 0 -28 -19.46 1.15
5 24 -28.1 -20.9 0 -28.06 -20.65 0.63 -28.24 -20.52 0.48 -27.85 -20.8 0.68
5 24 -28.06 -20.65 0.63 -28.24 -20.52 0.48 -28.1 -20.9 0 -27.57 -19.76 1.5
5 24 -27.85 -20.8 0.68 -28.06 -20.65 0.63 -28.1 -20.9 0 -27.05 -20.1 1.62
5 24 -27.85 -20.8 0.68 -26.53 -20.44 1.5 -27.05 -20.1 1.62 -27.64 -20.95 0.63
5 24 -26.53 -20.44 1.5 -27.05 -20.1 1.62 -27.85 -20.8 0.68 -24.73 -19.16 2.15
5 24 -27.05 -20.1 1.62 -27.85 -20.8 0.68 -26.53 -20.44 1.5 -28.06 -20.65 0.63
5 24 -27.64 -20.95 0.63 -26.53 -20.44 1.5 -27.85 -20.8 0.68 -26.1 -20.74 1.15
5 24 -26.1 -20.74 1.15 -26.53 -20.44 1.5 -27.64 -20.95 0.63 -24.09 -19.55 1.65
5 24 -27.46 -21.08 0.48 -26.1 -20.74 1.15 -27.64 -20.95 0.63 -25.8 -20.93 0.62
5 24 -27.46 -21.08 0.48 -25.8 -20.93 0.62 -26.1 -20.74 1.15 -27.34 -21.17 0.26
5 24 -25.8 -20.93 0.62 -26.1 -20.74 1.15 -27.46 -21.08 0.48 -23.65 -19.81 0.89
5 24 -27.34 -21.17 0.26 -25.8 -20.93 0.62 -27.46 -21.08 0.48 -27.3 -21.2 0
5 24 -27.3 -21.2 0 -25.7 -21 0 -27.34 -21.17 0.26 -27.34 -21.17 -0.26
5 24 -25.7 -21 0 -25.8 -20.93 0.62 -27.34 -21.17 0.26 -23.5 -19.9 0
5 24 -27.34 -21.17 -0.26 -25.8 -20.93 -0.62 -27.3 -21.2 0 -26.1 -20.74 -1.15
5 24 -25.8 -20.93 -0.62 -25.7 -21 0 -27.3 -21.2 0 -23.65 -19.81 -0.89
5 24 -27.34 -21.17 -0.26 -26.1 -20.74 -1.15 -25.8 -20.93 -0.62 -27.46 -21.08 -0.48
5 24 -26.1 -20.74 -1.15 -25.8 -20.93 -0.62 -27.34 -21.17 -0.26 -24.09 -19.55 -1.65
5 24 -27.46 -21.08 -0.48 -26.1 -20.74 -1.15 -27.34 -21.17 -0.26 -26.53 -20.44 -1.5
5 24 -26.53 -20.44 -1.5 -26.1 -20.74 -1.15 -27.46 -21.08 -0.48 -24.73 -19.16 -2.15
5 24 -27.64 -20.95 -0.63 -26.53 -20.44 -1.5 -27.46 -21.08 -0.48 -27.05 -20.1 -1.62
5 24 -27.64 -20.95 -0.63 -27.05 -20.1 -1.62 -26.53 -20.44 -1.5 -27.85 -20.8 -0.68
5 24 -27.05 -20.1 -1.62 -26.53 -20.44 -1.5 -27.64 -20.95 -0.63 -25.5 -18.7 -2.33
5 24 -27.85 -20.8 -0.68 -27.05 -20.1 -1.62 -27.64 -20.95 -0.63 -27.57 -19.76 -1.5
5 24 -27.85 -20.8 -0.68 -27.57 -19.76 -1.5 -27.05 -20.1 -1.62 -28.06 -20.65 -0.63
5 24 -27.57 -19.76 -1.5 -27.05 -20.1 -1.62 -27.85 -20.8 -0.68 -26.27 -18.24 -2.15
5 24 -28.06 -20.65 -0.63 -27.57 -19.76 -1.5 -27.85 -20.8 -0.68 -28 -19.46 -1.15
5 24 -28 -19.46 -1.15 -27.57 -19.76 -1.5 -28.06 -20.65 -0.63 -26.91 -17.85 -1.65
5 24 -28.24 -20.52 -0.48 -28 -19.46 -1.15 -28.06 -20.65 -0.63 -28.36 -20.43 -0.26
5 24 -28.36 -20.43 -0.26 -28.3 -19.27 -0.62 -28.24 -20.52 -0.48 -28.4 -20.4 0
5 24 -28.3 -19.27 -0.62 -28 -19.46 -1.15 -28.24 -20.52 -0.48 -27.35 -17.59 -0.89
5 24 -28.4 -20.4 0 -28.4 -19.2 0 -28.36 -20.43 -0.26 -28.36 -20.43 0.26
5 24 -28.4 -19.2 0 -28.3 -19.27 -0.62 -28.36 -20.43 -0.26 -27.5 -17.5 0
5 24 -28.36 -20.43 0.26 -28.3 -19.27 0.62 -28.4 -20.4 0 -28.24 -20.52 0.48
5 24 -28.3 -19.27 0.62 -28.4 -19.2 0 -28.4 -20.4 0 -27.35 -17.59 0.89
5 24 -28.24 -20.52 0.48 -28 -19.46 1.15 -28.36 -20.43 0.26 -27.57 -19.76 1.5
5 24 -28 -19.46 1.15 -28.3 -19.27 0.62 -28.36 -20.43 0.26 -26.91 -17.85 1.65
5 24 -27.57 -19.76 1.5 -28 -19.46 1.15 -28.24 -20.52 0.48 -26.27 -18.24 2.15
5 24 -28.06 -20.65 0.63 -27.57 -19.76 1.5 -28.24 -20.52 0.48 -27.05 -20.1 1.62
5 24 -28.06 -20.65 0.63 -27.05 -20.1 1.62 -27.57 -19.76 1.5 -27.85 -20.8 0.68
5 24 -27.05 -20.1 1.62 -27.57 -19.76 1.5 -28.06 -20.65 0.63 -25.5 -18.7 2.33
5 24 -27.05 -20.1 1.62 -24.73 -19.16 2.15 -25.5 -18.7 2.33 -26.53 -20.44 1.5
5 24 -24.73 -19.16 2.15 -25.5 -18.7 2.33 -27.05 -20.1 1.62 -21.55 -15.2 3.02
5 24 -25.5 -18.7 2.33 -27.05 -20.1 1.62 -24.73 -19.16 2.15 -27.57 -19.76 1.5
5 24 -26.53 -20.44 1.5 -24.73 -19.16 2.15 -27.05 -20.1 1.62 -24.09 -19.55 1.65
5 24 -26.53 -20.44 1.5 -24.09 -19.55 1.65 -24.73 -19.16 2.15 -26.1 -20.74 1.15
5 24 -24.09 -19.55 1.65 -24.73 -19.16 2.15 -26.53 -20.44 1.5 -20.58 -15.62 2.31
5 24 -26.1 -20.74 1.15 -24.09 -19.55 1.65 -26.53 -20.44 1.5 -25.8 -20.93 0.62
5 24 -25.8 -20.93 0.62 -23.65 -19.81 0.89 -26.1 -20.74 1.15 -25.7 -21 0
5 24 -23.65 -19.81 0.89 -24.09 -19.55 1.65 -26.1 -20.74 1.15 -19.93 -15.9 1.25
5 24 -25.7 -21 0 -23.5 -19.9 0 -25.8 -20.93 0.62 -25.8 -20.93 -0.62
5 24 -23.5 -19.9 0 -23.65 -19.81 0.89 -25.8 -20.93 0.62 -19.7 -16 0
5 24 -25.8 -20.93 -0.62 -23.65 -19.81 -0.89 -25.7 -21 0 -26.1 -20.74 -1.15
5 24 -23.65 -19.81 -0.89 -23.5 -19.9 0 -25.7 -21 0 -19.93 -15.9 -1.25
5 24 -26.1 -20.74 -1.15 -24.09 -19.55 -1.65 -25.8 -20.93 -0.62 -24.73 -19.16 -2.15
5 24 -24.09 -19.55 -1.65 -23.65 -19.81 -0.89 -25.8 -20.93 -0.62 -20.58 -15.62 -2.31
5 24 -26.1 -20.74 -1.15 -24.73 -19.16 -2.15 -24.09 -19.55 -1.65 -26.53 -20.44 -1.5
5 24 -24.73 -19.16 -2.15 -24.09 -19.55 -1.65 -26.1 -20.74 -1.15 -21.55 -15.2 -3.02
5 24 -26.53 -20.44 -1.5 -24.73 -19.16 -2.15 -26.1 -20.74 -1.15 -25.5 -18.7 -2.33
5 24 -26.53 -20.44 -1.5 -25.5 -18.7 -2.33 -24.73 -19.16 -2.15 -27.05 -20.1 -1.62
5 24 -25.5 -18.7 -2.33 -24.73 -19.16 -2.15 -26.53 -20.44 -1.5 -22.7 -14.7 -3.27
5 24 -27.05 -20.1 -1.62 -25.5 -18.7 -2.33 -26.53 -20.44 -1.5 -27.57 -19.76 -1.5
5 24 -27.57 -19.76 -1.5 -26.27 -18.24 -2.15 -27.05 -20.1 -1.62 -28 -19.46 -1.15
5 24 -26.27 -18.24 -2.15 -25.5 -18.7 -2.33 -27.05 -20.1 -1.62 -23.85 -14.2 -3.02
5 24 -28 -19.46 -1.15 -26.91 -17.85 -1.65 -27.57 -19.76 -1.5 -28.3 -19.27 -0.62
5 24 -26.91 -17.85 -1.65 -26.27 -18.24 -2.15 -27.57 -19.76 -1.5 -24.82 -13.78 -2.31
5 24 -28.3 -19.27 -0.62 -27.35 -17.59 -0.89 -28 -19.46 -1.15 -28.4 -19.2 0
5 24 -27.35 -17.59 -0.89 -26.91 -17.85 -1.65 -28 -19.46 -1.15 -25.47 -13.5 -1.25
5 24 -28.4 -19.2 0 -27.5 -17.5 0 -28.3 -19.27 -0.62 -28.3 -19.27 0.62
5 24 -27.5 -17.5 0 -27.35 -17.59 -0.89 -28.3 -19.27 -0.62 -25.7 -13.4 0
5 24 -28.3 -19.27 0.62 -27.35 -17.59 0.89 -28.4 -19.2 0 -28 -19.46 1.15
5 24 -27.35 -17.59 0.89 -27.5 -17.5 0 -28.4 -19.2 0 -25.47 -13.5 1.25
5 24 -28 -19.46 1.15 -26.91 -17.85 1.65 -28.3 -19.27 0.62 -27.57 -19.76 1.5
5 24 -26.91 -17.85 1.65 -27.35 -17.59 0.89 -28.3 -19.27 0.62 -24.82 -13.78 2.31
5 24 -27.57 -19.76 1.5 -26.27 -18.24 2.15 -28 -19.46 1.15 -27.05 -20.1 1.62
5 24 -26.27 -18.24 2.15 -26.91 -17.85 1.65 -28 -19.46 1.15 -23.85 -14.2 3.02
5 24 -25.5 -18.7 2.33 -26.27 -18.24 2.15 -27.57 -19.76 1.5 -22.7 -14.7 3.27
5 24 -25.5 -18.7 2.33 -21.55 -15.2 3.02 -22.7 -14.7 3.27 -24.73 -19.16 2.15
5 24 -21.55 -15.2 3.02 -22.7 -14.7 3.27 -25.5 -18.7 2.33 -19.87 -10.68 3.23
5 24 -22.7 -14.7 3.27 -25.5 -18.7 2.33 -21.55 -15.2 3.02 -26.27 -18.24 2.15
5 24 -24.73 -19.16 2.15 -21.55 -15.2 3.02 -25.5 -18.7 2.33 -20.58 -15.62 2.31
5 24 -24.73 -19.16 2.15 -20.58 -15.62 2.31 -21.55 -15.2 3.02 -24.09 -19.55 1.65
5 24 -20.58 -15.62 2.31 -21.55 -15.2 3.02 -24.73 -19.16 2.15 -18.78 -11.01 2.47
5 24 -24.09 -19.55 1.65 -20.58 -15.62 2.31 -24.73 -19.16 2.15 -19.93 -15.9 1.25
5 24 -24.09 -19.55 1.65 -19.93 -15.9 1.25 -20.58 -15.62 2.31 -23.65 -19.81 0.89
5 24 -19.93 -15.9 1.25 -20.58 -15.62 2.31 -24.09 -19.55 1.65 -18.05 -11.22 1.34
5 24 -23.65 -19.81 0.89 -19.93 -15.9 1.25 -24.09 -19.55 1.65 -23.5 -19.9 0
5 24 -23.5 -19.9 0 -19.7 -16 0 -23.65 -19.81 0.89 -23.65 -19.81 -0.89
5 24 -19.7 -16 0 -19.93 -15.9 1.25 -23.65 -19.81 0.89 -17.8 -11.3 0
5 24 -23.65 -19.81 -0.89 -19.93 -15.9 -1.25 -23.5 -19.9 0 -20.58 -15.62 -2.31
5 24 -19.93 -15.9 -1.25 -19.7 -16 0 -23.5 -19.9 0 -18.05 -11.22 -1.34
5 24 -23.65 -19.81 -0.89 -20.58 -15.62 -2.31 -19.93 -15.9 -1.25 -24.09 -19.55 -1.65
5 24 -20.58 -15.62 -2.31 -19.93 -15.9 -1.25 -23.65 -19.81 -0.89 -18.78 -11.01 -2.47
5 24 -24.09 -19.55 -1.65 -20.58 -15.62 -2.31 -23.65 -19.81 -0.89 -21.55 -15.2 -3.02
5 24 -24.09 -19.55 -1.65 -21.55 -15.2 -3.02 -20.58 -15.62 -2.31 -24.73 -19.16 -2.15
5 24 -21.55 -15.2 -3.02 -20.58 -15.62 -2.31 -24.09 -19.55 -1.65 -19.87 -10.68 -3.23
5 24 -24.73 -19.16 -2.15 -21.55 -15.2 -3.02 -24.09 -19.55 -1.65 -22.7 -14.7 -3.27
5 24 -24.73 -19.16 -2.15 -22.7 -14.7 -3.27 -21.55 -15.2 -3.02 -25.5 -18.7 -2.33
5 24 -22.7 -14.7 -3.27 -21.55 -15.2 -3.02 -24.73 -19.16 -2.15 -21.15 -10.3 -3.5
5 24 -25.5 -18.7 -2.33 -22.7 -14.7 -3.27 -24.73 -19.16 -2.15 -23.85 -14.2 -3.02
5 24 -25.5 -18.7 -2.33 -23.85 -14.2 -3.02 -22.7 -14.7 -3.27 -26.27 -18.24 -2.15
5 24 -23.85 -14.2 -3.02 -22.7 -14.7 -3.27 -25.5 -18.7 -2.33 -22.43 -9.92 -3.23
5 24 -26.27 -18.24 -2.15 -23.85 -14.2 -3.02 -25.5 -18.7 -2.33 -26.91 -17.85 -1.65
5 24 -26.91 -17.85 -1.65 -24.82 -13.78 -2.31 -26.27 -18.24 -2.15 -27.35 -17.59 -0.89
5 24 -24.82 -13.78 -2.31 -23.85 -14.2 -3.02 -26.27 -18.24 -2.15 -23.52 -9.59 -2.47
5 24 -27.35 -17.59 -0.89 -25.47 -13.5 -1.25 -26.91 -17.85 -1.65 -27.5 -17.5 0
5 24 -25.47 -13.5 -1.25 -24.82 -13.78 -2.31 -26.91 -17.85 -1.65 -24.25 -9.38 -1.34
5 24 -27.5 -17.5 0 -25.7 -13.4 0 -27.35 -17.59 -0.89 -27.35 -17.59 0.89
5 24 -25.7 -13.4 0 -25.47 -13.5 -1.25 -27.35 -17.59 -0.89 -24.5 -9.3 0
5 24 -27.35 -17.59 0.89 -25.47 -13.5 1.25 -27.5 -17.5 0 -26.91 -17.85 1.65
5 24 -25.47 -13.5 1.25 -25.7 -13.4 0 -27.5 -17.5 0 -24.25 -9.38 1.34
5 24 -26.91 -17.85 1.65 -24.82 -13.78 2.31 -27.35 -17.59 0.89 -26.27 -18.24 2.15
5 24 -24.82 -13.78 2.31 -25.47 -13.5 1.25 -27.35 -17.59 0.89 -23.52 -9.59 2.47
5 24 -26.27 -18.24 2.15 -23.85 -14.2 3.02 -26.91 -17.85 1.65 -22.7 -14.7 3.27
5 24 -23.85 -14.2 3.02 -24.82 -13.78 2.31 -26.91 -17.85 1.65 -22.43 -9.92 3.23
5 24 -26.27 -18.24 2.15 -22.7 -14.7 3.27 -23.85 -14.2 3.02 -25.5 -18.7 2.33
5 24 -22.7 -14.7 3.27 -23.85 -14.2 3.02 -26.27 -18.24 2.15 -21.15 -10.3 3.5
5 24 -21.55 -15.2 3.02 -19.87 -10.68 3.23 -22.7 -14.7 3.27 -20.58 -15.62 2.31
5 24 -19.87 -10.68 3.23 -21.15 -10.3 3.5 -22.7 -14.7 3.27 -18.04 -6.68 3.41
5 24 -21.15 -10.3 3.5 -22.7 -14.7 3.27 -21.55 -15.2 3.02 -23.85 -14.2 3.02
5 24 -20.58 -15.62 2.31 -18.78 -11.01 2.47 -21.55 -15.2 3.02 -19.93 -15.9 1.25
5 24 -18.78 -11.01 2.47 -19.87 -10.68 3.23 -21.55 -15.2 3.02 -16.97 -7.22 2.61
5 24 -19.93 -15.9 1.25 -18.05 -11.22 1.34 -20.58 -15.62 2.31 -19.7 -16 0
5 24 -18.05 -11.22 1.34 -18.78 -11.01 2.47 -20.58 -15.62 2.31 -16.25 -7.57 1.41
5 24 -19.7 -16 0 -17.8 -11.3 0 -19.93 -15.9 1.25 -19.93 -15.9 -1.25
5 24 -17.8 -11.3 0 -18.05 -11.22 1.34 -19.93 -15.9 1.25 -16 -7.7 0
5 24 -19.93 -15.9 -1.25 -18.05 -11.22 -1.34 -19.7 -16 0 -20.58 -15.62 -2.31
5 24 -18.05 -11.22 -1.34 -17.8 -11.3 0 -19.7 -16 0 -16.25 -7.57 -1.41
5 24 -20.58 -15.62 -2.31 -18.78 -11.01 -2.47 -19.93 -15.9 -1.25 -21.55 -15.2 -3.02
5 24 -18.78 -11.01 -2.47 -18.05 -11.22 -1.34 -19.93 -15.9 -1.25 -16.97 -7.22 -2.61
5 24 -21.55 -15.2 -3.02 -19.87 -10.68 -3.23 -20.58 -15.62 -2.31 -22.7 -14.7 -3.27
5 24 -19.87 -10.68 -3.23 -18.78 -11.01 -2.47 -20.58 -15.62 -2.31 -18.04 -6.68 -3.41
5 24 -22.7 -14.7 -3.27 -21.15 -10.3 -3.5 -21.55 -15.2 -3.02 -23.85 -14.2 -3.02
5 24 -21.15 -10.3 -3.5 -19.87 -10.68 -3.23 -21.55 -15.2 -3.02 -19.3 -6.05 -3.69
5 24 -23.85 -14.2 -3.02 -22.43 -9.92 -3.23 -22.7 -14.7 -3.27 -24.82 -13.78 -2.31
5 24 -22.43 -9.92 -3.23 -21.15 -10.3 -3.5 -22.7 -14.7 -3.27 -20.56 -5.42 -3.41
5 24 -24.82 -13.78 -2.31 -23.52 -9.59 -2.47 -23.85 -14.2 -3.02 -25.47 -13.5 -1.25
5 24 -23.52 -9.59 -2.47 -22.43 -9.92 -3.23 -23.85 -14.2 -3.02 -21.63 -4.88 -2.61
5 24 -25.47 -13.5 -1.25 -24.25 -9.38 -1.34 -24.82 -13.78 -2.31 -25.7 -13.4 0
5 24 -24.25 -9.38 -1.34 -23.52 -9.59 -2.47 -24.82 -13.78 -2.31 -22.35 -4.53 -1.41
5 24 -25.7 -13.4 0 -24.5 -9.3 0 -25.47 -13.5 -1.25 -25.47 -13.5 1.25
5 24 -24.5 -9.3 0 -24.25 -9.38 -1.34 -25.47 -13.5 -1.25 -22.6 -4.4 0
5 24 -25.47 -13.5 1.25 -24.25 -9.38 1.34 -25.7 -13.4 0 -24.82 -13.78 2.31
5 24 -24.25 -9.38 1.34 -24.5 -9.3 0 -25.7 -13.4 0 -22.35 -4.53 1.41
5 24 -24.82 -13.78 2.31 -23.52 -9.59 2.47 -25.47 -13.5 1.25 -23.85 -14.2 3.02
5 24 -23.52 -9.59 2.47 -24.25 -9.38 1.34 -25.47 -13.5 1.25 -21.63 -4.88 2.61
5 24 -23.85 -14.2 3.02 -22.43 -9.92 3.23 -24.82 -13.78 2.31 -22.7 -14.7 3.27
5 24 -22.43 -9.92 3.23 -23.52 -9.59 2.47 -24.82 -13.78 2.31 -20.56 -5.42 3.41
5 24 -21.15 -10.3 3.5 -22.43 -9.92 3.23 -23.85 -14.2 3.02 -19.3 -6.05 3.69
5 24 -19.87 -10.68 3.23 -18.04 -6.68 3.41 -21.15 -10.3 3.5 -18.78 -11.01 2.47
5 24 -18.04 -6.68 3.41 -19.3 -6.05 3.69 -21.15 -10.3 3.5 -14.69 -3.52 3.5
5 24 -19.3 -6.05 3.69 -21.15 -10.3 3.5 -19.87 -10.68 3.23 -22.43 -9.92 3.23
5 24 -18.78 -11.01 2.47 -16.97 -7.22 2.61 -19.87 -10.68 3.23 -18.05 -11.22 1.34
5 24 -16.97 -7.22 2.61 -18.04 -6.68 3.41 -19.87 -10.68 3.23 -13.96 -4.51 2.68
5 24 -18.05 -11.22 1.34 -16.25 -7.57 1.41 -18.78 -11.01 2.47 -17.8 -11.3 0
5 24 -16.25 -7.57 1.41 -16.97 -7.22 2.61 -18.78 -11.01 2.47 -13.47 -5.17 1.45
5 24 -17.8 -11.3 0 -16 -7.7 0 -18.05 -11.22 1.34 -18.05 -11.22 -1.34
5 24 -16 -7.7 0 -16.25 -7.57 1.41 -18.05 -11.22 1.34 -13.3 -5.4 0
5 24 -18.05 -11.22 -1.34 -16.25 -7.57 -1.41 -17.8 -11.3 0 -18.78 -11.01 -2.47
5 24 -16.25 -7.57 -1.41 -16 -7.7 0 -17.8 -11.3 0 -13.47 -5.17 -1.45
5 24 -18.78 -11.01 -2.47 -16.97 -7.22 -2.61 -18.05 -11.22 -1.34 -19.87 -10.68 -3.23
5 24 -16.97 -7.22 -2.61 -16.25 -7.57 -1.41 -18.05 -11.22 -1.34 -13.96 -4.51 -2.68
5 24 -19.87 -10.68 -3.23 -18.04 -6.68 -3.41 -18.78 -11.01 -2.47 -21.15 -10.3 -3.5
5 24 -18.04 -6.68 -3.41 -16.97 -7.22 -2.61 -18.78 -11.01 -2.47 -14.69 -3.52 -3.5
5 24 -21.15 -10.3 -3.5 -19.3 -6.05 -3.69 -19.87 -10.68 -3.23 -22.43 -9.92 -3.23
5 24 -19.3 -6.05 -3.69 -18.04 -6.68 -3.41 -19.87 -10.68 -3.23 -15.55 -2.35 -3.79
5 24 -22.43 -9.92 -3.23 -20.56 -5.42 -3.41 -21.15 -10.3 -3.5 -23.52 -9.59 -2.47
5 24 -20.56 -5.42 -3.41 -19.3 -6.05 -3.69 -21.15 -10.3 -3.5 -16.41 -1.18 -3.5
5 24 -23.52 -9.59 -2.47 -21.63 -4.88 -2.61 -22.43 -9.92 -3.23 -24.25 -9.38 -1.34
5 24 -21.63 -4.88 -2.61 -20.56 -5.42 -3.41 -22.43 -9.92 -3.23 -17.14 -0.19 -2.68
5 24 -24.25 -9.38 -1.34 -22.35 -4.53 -1.41 -23.52 -9.59 -2.47 -24.5 -9.3 0
5 24 -22.35 -4.53 -1.41 -21.63 -4.88 -2.61 -23.52 -9.59 -2.47 -17.63 0.47 -1.45
5 24 -24.5 -9.3 0 -22.6 -4.4 0 -24.25 -9.38 -1.34 -24.25 -9.38 1.34
5 24 -22.6 -4.4 0 -22.35 -4.53 -1.41 -24.25 -9.38 -1.34 -17.8 0.7 0
5 24 -24.25 -9.38 1.34 -22.35 -4.53 1.41 -24.5 -9.3 0 -23.52 -9.59 2.47
5 24 -22.35 -4.53 1.41 -22.6 -4.4 0 -24.5 -9.3 0 -17.63 0.47 1.45
5 24 -23.52 -9.59 2.47 -21.63 -4.88 2.61 -24.25 -9.38 1.34 -22.43 -9.92 3.23
5 24 -21.63 -4.88 2.61 -22.35 -4.53 1.41 -24.25 -9.38 1.34 -17.14 -0.19 2.68
5 24 -22.43 -9.92 3.23 -20.56 -5.42 3.41 -23.52 -9.59 2.47 -21.15 -10.3 3.5
5 24 -20.56 -5.42 3.41 -21.63 -4.88 2.61 -23.52 -9.59 2.47 -16.41 -1.18 3.5
5 24 -19.3 -6.05 3.69 -20.56 -5.42 3.41 -22.43 -9.92 3.23 -15.55 -2.35 3.79
5 24 -19.3 -6.05 3.69 -14.69 -3.52 3.5 -15.55 -2.35 3.79 -18.04 -6.68 3.41
5 24 -14.69 -3.52 3.5 -15.55 -2.35 3.79 -19.3 -6.05 3.69 -11.01 -1.85 3.54
5 24 -15.55 -2.35 3.79 -19.3 -6.05 3.69 -14.69 -3.52 3.5 -20.56 -5.42 3.41
5 24 -18.04 -6.68 3.41 -14.69 -3.52 3.5 -19.3 -6.05 3.69 -13.96 -4.51 2.68
5 24 -18.04 -6.68 3.41 -13.96 -4.51 2.68 -14.69 -3.52 3.5 -16.97 -7.22 2.61
5 24 -13.96 -4.51 2.68 -14.69 -3.52 3.5 -18.04 -6.68 3.41 -10.85 -3.09 2.71
5 24 -16.97 -7.22 2.61 -13.96 -4.51 2.68 -18.04 -6.68 3.41 -13.47 -5.17 1.45
5 24 -16.97 -7.22 2.61 -13.47 -5.17 1.45 -13.96 -4.51 2.68 -16.25 -7.57 1.41
5 24 -13.47 -5.17 1.45 -13.96 -4.51 2.68 -16.97 -7.22 2.61 -10.74 -3.91 1.47
5 24 -16.25 -7.57 1.41 -13.47 -5.17 1.45 -16.97 -7.22 2.61 -16 -7.7 0
5 24 -16 -7.7 0 -13.3 -5.4 0 -16.25 -7.57 1.41 -16.25 -7.57 -1.41
5 24 -13.3 -5.4 0 -13.47 -5.17 1.45 -16.25 -7.57 1.41 -10.7 -4.2 0
5 24 -16.25 -7.57 -1.41 -13.47 -5.17 -1.45 -16 -7.7 0 -13.96 -4.51 -2.68
5 24 -13.47 -5.17 -1.45 -13.3 -5.4 0 -16 -7.7 0 -10.74 -3.91 -1.47
5 24 -16.25 -7.57 -1.41 -13.96 -4.51 -2.68 -13.47 -5.17 -1.45 -16.97 -7.22 -2.61
5 24 -13.96 -4.51 -2.68 -13.47 -5.17 -1.45 -16.25 -7.57 -1.41 -10.85 -3.09 -2.71
5 24 -16.97 -7.22 -2.61 -13.96 -4.51 -2.68 -16.25 -7.57 -1.41 -14.69 -3.52 -3.5
5 24 -16.97 -7.22 -2.61 -14.69 -3.52 -3.5 -13.96 -4.51 -2.68 -18.04 -6.68 -3.41
5 24 -14.69 -3.52 -3.5 -13.96 -4.51 -2.68 -16.97 -7.22 -2.61 -11.01 -1.85 -3.54
5 24 -18.04 -6.68 -3.41 -14.69 -3.52 -3.5 -16.97 -7.22 -2.61 -15.55 -2.35 -3.79
5 24 -18.04 -6.68 -3.41 -15.55 -2.35 -3.79 -14.69 -3.52 -3.5 -19.3 -6.05 -3.69
5 24 -15.55 -2.35 -3.79 -14.69 -3.52 -3.5 -18.04 -6.68 -3.41 -11.2 -0.4 -3.83
5 24 -19.3 -6.05 -3.69 -15.55 -2.35 -3.79 -18.04 -6.68 -3.41 -20.56 -5.42 -3.41
5 24 -20.56 -5.42 -3.41 -16.41 -1.18 -3.5 -19.3 -6.05 -3.69 -21.63 -4.88 -2.61
5 24 -16.41 -1.18 -3.5 -15.55 -2.35 -3.79 -19.3 -6.05 -3.69 -11.39 1.05 -3.54
5 24 -21.63 -4.88 -2.61 -17.14 -0.19 -2.68 -20.56 -5.42 -3.41 -22.35 -4.53 -1.41
5 24 -17.14 -0.19 -2.68 -16.41 -1.18 -3.5 -20.56 -5.42 -3.41 -11.55 2.29 -2.71
5 24 -22.35 -4.53 -1.41 -17.63 0.47 -1.45 -21.63 -4.88 -2.61 -22.6 -4.4 0
5 24 -17.63 0.47 -1.45 -17.14 -0.19 -2.68 -21.63 -4.88 -2.61 -11.66 3.11 -1.47
5 24 -22.6 -4.4 0 -17.8 0.7 0 -22.35 -4.53 -1.41 -22.35 -4.53 1.41
5 24 -17.8 0.7 0 -17.63 0.47 -1.45 -22.35 -4.53 -1.41 -11.7 3.4 0
5 24 -22.35 -4.53 1.41 -17.63 0.47 1.45 -22.6 -4.4 0 -21.63 -4.88 2.61
5 24 -17.63 0.47 1.45 -17.8 0.7 0 -22.6 -4.4 0 -11.66 3.11 1.47
5 24 -21.63 -4.88 2.61 -17.14 -0.19 2.68 -22.35 -4.53 1.41 -20.56 -5.42 3.41
5 24 -17.14 -0.19 2.68 -17.63 0.47 1.45 -22.35 -4.53 1.41 -11.55 2.29 2.71
5 24 -20.56 -5.42 3.41 -16.41 -1.18 3.5 -21.63 -4.88 2.61 -19.3 -6.05 3.69
5 24 -16.41 -1.18 3.5 -17.14 -0.19 2.68 -21.63 -4.88 2.61 -11.39 1.05 3.54
5 24 -15.55 -2.35 3.79 -16.41 -1.18 3.5 -20.56 -5.42 3.41 -11.2 -0.4 3.83
5 24 -14.69 -3.52 3.5 -11.01 -1.85 3.54 -15.55 -2.35 3.79 -13.96 -4.51 2.68
5 24 -11.01 -1.85 3.54 -11.2 -0.4 3.83 -15.55 -2.35 3.79 -7 -1.45 3.51
5 24 -11.2 -0.4 3.83 -15.55 -2.35 3.79 -14.69 -3.52 3.5 -16.41 -1.18 3.5
5 24 -13.96 -4.51 2.68 -10.85 -3.09 2.71 -14.69 -3.52 3.5 -13.47 -5.17 1.45
5 24 -10.85 -3.09 2.71 -11.01 -1.85 3.54 -14.69 -3.52 3.5 -7 -2.69 2.69
5 24 -13.47 -5.17 1.45 -10.74 -3.91 1.47 -13.96 -4.51 2.68 -13.3 -5.4 0
5 24 -10.74 -3.91 1.47 -10.85 -3.09 2.71 -13.96 -4.51 2.68 -7 -3.51 1.45
5 24 -13.3 -5.4 0 -10.7 -4.2 0 -13.47 -5.17 1.45 -13.47 -5.17 -1.45
5 24 -10.7 -4.2 0 -10.74 -3.91 1.47 -13.47 -5.17 1.45 -7 -3.8 0
5 24 -13.47 -5.17 -1.45 -10.74 -3.91 -1.47 -13.3 -5.4 0 -13.96 -4.51 -2.68
5 24 -10.74 -3.91 -1.47 -10.7 -4.2 0 -13.3 -5.4 0 -7 -3.51 -1.45
5 24 -13.96 -4.51 -2.68 -10.85 -3.09 -2.71 -13.47 -5.17 -1.45 -14.69 -3.52 -3.5
5 24 -10.85 -3.09 -2.71 -10.74 -3.91 -1.47 -13.47 -5.17 -1.45 -7 -2.69 -2.69
5 24 -14.69 -3.52 -3.5 -11.01 -1.85 -3.54 -13.96 -4.51 -2.68 -15.55 -2.35 -3.79
5 24 -11.01 -1.85 -3.54 -10.85 -3.09 -2.71 -13.96 -4.51 -2.68 -7 -1.45 -3.51
5 24 -15.55 -2.35 -3.79 -11.2 -0.4 -3.83 -14.69 -3.52 -3.5 -16.41 -1.18 -3.5
5 24 -11.2 -0.4 -3.83 -11.01 -1.85 -3.54 -14.69 -3.52 -3.5 -7 0 -3.8
5 24 -16.41 -1.18 -3.5 -11.39 1.05 -3.54 -15.55 -2.35 -3.79 -17.14 -0.19 -2.68
5 24 -11.39 1.05 -3.54 -11.2 -0.4 -3.83 -15.55 -2.35 -3.79 -7 1.45 -3.51
5 24 -17.14 -0.19 -2.68 -11.55 2.29 -2.71 -16.41 -1.18 -3.5 -17.63 0.47 -1.45
5 24 -11.55 2.29 -2.71 -11.39 1.05 -3.54 -16.41 -1.18 -3.5 -7 2.69 -2.69
5 24 -17.63 0.47 -1.45 -11.66 3.11 -1.47 -17.14 -0.19 -2.68 -17.8 0.7 0
5 24 -11.66 3.11 -1.47 -11.55 2.29 -2.71 -17.14 -0.19 -2.68 -7 3.51 -1.45
5 24 -17.8 0.7 0 -11.7 3.4 0 -17.63 0.47 -1.45 -17.63 0.47 1.45
5 24 -11.7 3.4 0 -11.66 3.11 -1.47 -17.63 0.47 -1.45 -7 3.8 0
5 24 -17.63 0.47 1.45 -11.66 3.11 1.47 -17.8 0.7 0 -17.14 -0.19 2.68
5 24 -11.66 3.11 1.47 -11.7 3.4 0 -17.8 0.7 0 -7 3.51 1.45
5 24 -17.14 -0.19 2.68 -11.55 2.29 2.71 -17.63 0.47 1.45 -16.41 -1.18 3.5
5 24 -11.55 2.29 2.71 -11.66 3.11 1.47 -17.63 0.47 1.45 -7 2.69 2.69
5 24 -16.41 -1.18 3.5 -11.39 1.05 3.54 -17.14 -0.19 2.68 -15.55 -2.35 3.79
5 24 -11.39 1.05 3.54 -11.55 2.29 2.71 -17.14 -0.19 2.68 -7 1.45 3.51
5 24 -11.2 -0.4 3.83 -11.39 1.05 3.54 -16.41 -1.18 3.5 -7 0 3.8
5 24 -11.01 -1.85 3.54 -7 -1.45 3.51 -11.2 -0.4 3.83 -10.85 -3.09 2.71
5 24 -7 0 3.8 -11.2 -0.4 3.83 -11.01 -1.85 3.54 -11.39 1.05 3.54
5 24 -10.85 -3.09 2.71 -7 -2.69 2.69 -11.01 -1.85 3.54 -10.74 -3.91 1.47
5 24 -10.74 -3.91 1.47 -7 -3.51 1.45 -10.85 -3.09 2.71 -10.7 -4.2 0
5 24 -10.7 -4.2 0 -7 -3.8 0 -10.74 -3.91 1.47 -10.74 -3.91 -1.47
5 24 -10.74 -3.91 -1.47 -7 -3.51 -1.45 -10.7 -4.2 0 -10.85 -3.09 -2.71
5 24 -10.85 -3.09 -2.71 -7 -2.69 -2.69 -10.74 -3.91 -1.47 -11.01 -1.85 -3.54
5 24 -11.01 -1.85 -3.54 -7 -1.45 -3.51 -10.85 -3.09 -2.71 -11.2 -0.4 -3.83
5 24 -11.2 -0.4 -3.83 -7 0 -3.8 -11.01 -1.85 -3.54 -11.39 1.05 -3.54
5 24 -11.39 1.05 -3.54 -7 1.45 -3.51 -11.2 -0.4 -3.83 -11.55 2.29 -2.71
5 24 -11.55 2.29 -2.71 -7 2.69 -2.69 -11.39 1.05 -3.54 -11.66 3.11 -1.47
5 24 -11.66 3.11 -1.47 -7 3.51 -1.45 -11.55 2.29 -2.71 -11.7 3.4 0
5 24 -11.7 3.4 0 -7 3.8 0 -11.66 3.11 -1.47 -11.66 3.11 1.47
5 24 -11.66 3.11 1.47 -7 3.51 1.45 -11.7 3.4 0 -11.55 2.29 2.71
5 24 -11.55 2.29 2.71 -7 2.69 2.69 -11.66 3.11 1.47 -11.39 1.05 3.54
5 24 -11.39 1.05 3.54 -7 1.45 3.51 -11.55 2.29 2.71 -11.2 -0.4 3.83
