0 ~Monorail Motor Bottom Subpart
0 Name: s\2684s02.dat
0 Author: Bernd Broich [bbroich]
0 !LDRAW_ORG Subpart UPDATE 2002-05
0 !LICENSE Redistributable under CCAL version 2.0 : see CAreadme.txt

0 !HISTORY 2002-11-30 [PTadmin] Official Update 2002-05
0 !HISTORY 2007-08-29 [PTadmin] Header formatted for Contributor Agreement
0 !HISTORY 2008-07-01 [PTadmin] Official Update 2008-01

0 // Top Plane
2 24 35 119.4 16.5 35 119.4 22
2 24 35 119.4 16.5 44 120.3 16.5
2 24 44 120.3 16.5 44 120.3 22

4 16 26.905 118.591 21.405 27.5 118.65 22 35 119.4 22 35 119.4 21.405
4 16 26.905 118.591 21.405 28.185 118.719 19.736 35 119.4 19.736 35 119.4 21.405
4 16 35 119.4 17.204 35 119.4 14.541 31.184 119.018 14.541 29.798 118.88 17.204
4 16 35 119.4 19.736 35 119.4 17.204 29.798 118.88 17.204 28.185 118.719 19.736
4 16 61 122 11.768 61 122 8.905 33.235 119.224 8.905 32.333 119.133 11.768
4 16 61 122 14.541 61 122 11.768 32.333 119.133 11.768 31.184 119.018 14.541
4 16 61 122 14.541 61 122 16.5 35 119.4 16.5 35 119.4 14.541
4 16 61 122 22 61 122 16.5 44 120.3 16.5 44 120.3 22
4 16 61 122 3 61 122 0 34.408 119.341 0 34.277 119.328 3
4 16 61 122 5.975 61 122 3 34.277 119.328 3 33.885 119.289 5.975
4 16 61 122 8.905 61 122 5.975 33.885 119.289 5.975 33.235 119.224 8.905

0 Top Cylinder
2 24 26.905 116.25 21.405 28.185 116.25 19.736
2 24 26.905 118.591 21.405 28.185 118.719 19.736
2 24 28.185 116.25 19.736 29.798 116.25 17.204
2 24 28.185 118.719 19.736 29.798 118.88 17.204
2 24 29.798 116.25 17.204 31.184 116.25 14.541
2 24 29.798 118.88 17.204 31.184 119.018 14.541
2 24 31.184 116.25 14.541 32.333 116.25 11.768
2 24 31.184 119.018 14.541 32.333 119.133 11.768
2 24 32.333 116.25 11.768 33.235 116.25 8.905
2 24 32.333 119.133 11.768 33.235 119.224 8.905
2 24 33.235 116.25 8.905 33.885 116.25 5.975
2 24 33.235 119.224 8.905 33.885 119.289 5.975
2 24 33.885 116.25 5.975 34.277 116.25 3
2 24 33.885 119.289 5.975 34.277 119.328 3
2 24 34.277 116.25 3 34.408 116.25 0
2 24 34.277 119.328 3 34.408 119.341 0

4 16 26.905 116.25 21.405 28.185 116.25 19.736 28.185 118.719 19.736 26.905 118.591 21.405
4 16 28.185 116.25 19.736 29.798 116.25 17.204 29.798 118.88 17.204 28.185 118.719 19.736
4 16 29.798 116.25 17.204 31.184 116.25 14.541 31.184 119.018 14.541 29.798 118.88 17.204
4 16 31.184 116.25 14.541 32.333 116.25 11.768 32.333 119.133 11.768 31.184 119.018 14.541
4 16 32.333 116.25 11.768 33.235 116.25 8.905 33.235 119.224 8.905 32.333 119.133 11.768
4 16 33.235 116.25 8.905 33.885 116.25 5.975 33.885 119.289 5.975 33.235 119.224 8.905
4 16 33.885 116.25 5.975 34.277 116.25 3 34.277 119.328 3 33.885 119.289 5.975
4 16 34.277 116.25 3 34.408 116.25 0 34.408 119.341 0 34.277 119.328 3

5 24 28.185 118.719 19.736 28.185 116.25 19.736 26.905 118 21.405 29.798 118 17.204
5 24 29.798 118.88 17.204 29.798 116.25 17.204 31.184 118 14.541 28.185 118 19.736
5 24 31.184 119.018 14.541 31.184 116.25 14.541 32.333 118 11.768 29.798 118 17.204
5 24 32.333 119.133 11.768 32.333 116.25 11.768 33.235 118 8.905 31.184 118 14.541
5 24 33.235 119.224 8.905 33.235 116.25 8.905 33.885 118 5.975 32.333 118 11.768
5 24 33.885 119.289 5.975 33.885 116.25 5.975 34.277 118 3 33.235 118 8.905
5 24 34.277 119.328 3 34.277 116.25 3 34.408 118 0 33.885 118 5.975
5 24 34.408 119.341 0 34.408 116.25 0 34.277 118 3 34.277 118 -3

0 Mantle
1 16 18 128.75 35 2.5 0 0 0 0 2.5 0 1 0 4-4edge.dat
1 16 18 128.75 35 2.5 0 0 0 0 2.5 0 5 0 4-4cyli.dat
1 16 18 128.75 40 2.5 0 0 0 0 2.5 0 1 0 4-4disc.dat
1 16 18 128.75 40 2.5 0 0 0 0 2.5 0 1 0 4-4edge.dat

2 24 28.5 135 35 33.717 125 40
2 24 28.5 135 35 40.5 112 35
2 24 35.283 122 40 33.717 125 40
2 24 35.283 122 40 40.5 112 35
2 24 56 135 35 61 125 40
2 24 61 122 40 35.283 122 40
2 24 61 122 40 56 112 35
2 24 61 122 40 61 122 0
2 24 61 122 40 61 125 40
2 24 61 125 40 33.717 125 40
2 24 9.5 135 35 56 135 35

4 16 33.717 125 40 28.5 135 35 56 135 35 61 125 40
4 16 33.717 125 40 35.283 122 40 40.5 112 35 28.5 135 35
4 16 35.283 122 40 40.5 112 35 56 112 35 61 122 40
4 16 56 112 22 56 112 35 61 122 40 61 122 22
4 16 61 122 40 35.283 122 40 33.717 125 40 61 125 40
4 16 9.5 112 35 9.5 135 35 28.5 135 35 40.5 112 35

0 Switch Gap
2 24 6.5 112 33.048 0 112 33.048
2 24 6.5 112 33.048 6.5 128 33.048
2 24 7 106.5 40 7 106.5 33.048
2 24 7 106.5 40 9.5 106.5 40
2 24 7 106.5 33.048 7 128 33.048
2 24 7 128 33.048 7 128 40
2 24 7 128 40 0 128 40
2 24 7 128 40 7 106.5 40
2 24 9.5 106.5 40 9.5 106.5 32
2 24 9.5 135 35 9.5 112 35
2 24 9.5 135 35 9.5 135 40
2 24 9.5 135 40 0 135 40
2 24 9.5 135 40 9.5 106.5 40

4 16 0 128 32 0 128 40 7 128 40 7 128 32
4 16 0 128 40 0 135 40 7 135 40 7 128 40
4 16 7 106.5 32 7 106.5 40 7 128 40 7 128 32
4 16 7 106.5 33.048 0 106.5 33.048 0 112 33.048 7 112 33.048
4 16 7 128 33.048 6.5 128 33.048 6.5 112 33.048 7 112 33.048
4 16 9.5 106.5 32 9.5 106.5 40 7 106.5 40 7 106.5 32
4 16 9.5 106.5 40 9.5 135 40 7 135 40 7 106.5 40
4 16 9.5 112 32 9.5 106.5 32 9.5 106.5 40 9.5 112 40
4 16 9.5 112 35 9.5 112 40 9.5 135 40 9.5 135 35

0 Top Wheel Gap
2 24 24.5 112 24.144 24.5 112 33.048
2 24 24.5 112 24.144 26.358 112 22.117
2 24 26 112 25.5 53 112 25.5
2 24 26 112 31 26 112 25.5
2 24 26 112 31 53 112 31
2 24 26.358 112 22.117 26.905 112 21.405
2 24 26.905 112 21.405 26.905 118.591 21.405
2 24 27.5 112 22 26.905 112 21.405
2 24 27.5 112 22 27.5 118.65 22
2 24 27.5 118.65 22 26.905 118.591 21.405
2 24 35 119.4 22 27.5 118.65 22
2 24 53 112 31 53 112 25.5
2 24 56 112 22 27.5 112 22
2 24 56 112 35 56 112 22
2 24 61 122 22 44 120.3 22
2 24 61 122 22 56 112 22
2 24 9.5 112 33.048 24.5 112 33.048
2 24 9.5 112 35 56 112 35
2 24 9.5 112 35 9.5 112 33.048

3 16 24.5 112 24.144 26.358 112 22.117 26 112 25.5
4 16 26 112 25.5 26 112 31 24.5 112 35 24.5 112 24.144
4 16 26 112 25.5 53 112 25.5 56 112 22 27.5 112 22
4 16 26 112 31 53 112 31 56 112 35 24.5 112 35
4 16 26.358 112 22.117 26.905 112 21.405 27.5 112 22 26 112 25.5
4 16 26.905 112 21.405 26.905 118.591 21.405 27.5 118.65 22 27.5 112 22
4 16 53 112 25.5 53 112 31 56 112 35 56 112 22
4 16 56 112 22 61 122 22 27.5 118.65 22 27.5 112 22
4 16 9.5 112 33.048 24.5 112 33.048 24.5 112 35 9.5 112 35

0 Axle Clip
2 24 32.5 121.853 16.5 32.5 121.853 22
2 24 32.5 121.853 16.5 36.287 122.349 16.5
2 24 32.5 121.853 22 36.287 122.349 22
2 24 32.5 132 16.5 32.5 121.853 16.5
2 24 32.5 132 22 32.5 121.853 22
2 24 32.5 132 22 32.5 132 16.5
2 24 35 119.4 16.5 35 126 16.5
2 24 35 119.4 22 35 126 22
2 24 35 126 22 35 126 16.5
2 24 36 132 16.5 32.5 132 16.5
2 24 36 132 16.5 37.5 130.5 16.5
2 24 36 132 22 32.5 132 22
2 24 36 132 22 36 132 16.5
2 24 36 132 22 37.5 130.5 22
2 24 37.5 128.5 16.5 35 126 16.5
2 24 37.5 128.5 16.5 37.5 130.5 16.5
2 24 37.5 128.5 22 35 126 22
2 24 37.5 128.5 22 37.5 128.5 16.5
2 24 37.5 128.5 22 37.5 130.5 22
2 24 37.5 130.5 22 37.5 130.5 16.5
2 24 41.5 128.5 16.5 41.5 130.5 16.5
2 24 41.5 128.5 16.5 44 126 16.5
2 24 41.5 128.5 22 41.5 128.5 16.5
2 24 41.5 128.5 22 41.5 130.5 22
2 24 41.5 128.5 22 44 126 22
2 24 41.5 130.5 22 41.5 130.5 16.5
2 24 42.287 123.129 16.5 46.5 123.688 16.5
2 24 42.287 123.129 22 46.5 123.688 22
2 24 43 132 16.5 41.5 130.5 16.5
2 24 43 132 16.5 46.5 132 16.5
2 24 43 132 22 41.5 130.5 22
2 24 43 132 22 43 132 16.5
2 24 43 132 22 46.5 132 22
2 24 44 120.3 16.5 44 126 16.5
2 24 44 120.3 22 44 126 22
2 24 44 126 22 44 126 16.5
2 24 46.5 123.688 16.5 46.5 123.688 22
2 24 46.5 132 16.5 46.5 123.688 16.5
2 24 46.5 132 22 46.5 123.688 22
2 24 46.5 132 22 46.5 132 16.5

3 16 36 132 16.5 35 132 16.5 35 126 16.5
3 16 36 132 22 35 132 22 35 126 22
3 16 43 132 16.5 44 132 16.5 44 126 16.5
3 16 43 132 22 44 132 22 44 126 22

4 16 32.5 121.853 13.636 36.287 122.349 13.882 36.287 122.349 16.5 32.5 121.853 16.5
4 16 32.5 121.853 22 36.287 122.349 22 36.287 122.349 25.5 32.5 121.853 25.5
4 16 32.5 132 22 32.5 132 16.5 32.5 121.853 16.5 32.5 121.853 22
4 16 35 126 22 35 126 16.5 35 119.4 16.5 35 119.4 22
4 16 35 132 16.5 32.5 132 16.5 32.5 121.853 16.5 35 122.18 16.5
4 16 35 132 22 32.5 132 22 32.5 121.853 22 35 122.18 22
4 16 36 132 16.5 36 132 22 32.5 132 22 32.5 132 16.5
4 16 36 132 16.5 36 132 22 37.5 130.5 22 37.5 130.5 16.5
4 16 37.5 128.5 16.5 37.5 128.5 22 35 126 22 35 126 16.5
4 16 37.5 128.5 16.5 37.5 128.5 22 37.5 130.5 22 37.5 130.5 16.5
4 16 37.5 128.5 16.5 37.5 130.5 16.5 36 132 16.5 35 126 16.5
4 16 37.5 128.5 22 37.5 130.5 22 36 132 22 35 126 22
4 16 41.5 128.5 16.5 41.5 130.5 16.5 43 132 16.5 44 126 16.5
4 16 41.5 128.5 22 41.5 128.5 16.5 41.5 130.5 16.5 41.5 130.5 22
4 16 41.5 128.5 22 41.5 128.5 16.5 44 126 16.5 44 126 22
4 16 41.5 128.5 22 41.5 130.5 22 43 132 22 44 126 22
4 16 42.287 123.129 14.269 46.5 123.688 14.546 46.5 123.688 16.5 42.287 123.129 16.5
4 16 42.287 123.129 22 46.5 123.688 22 46.5 123.688 25.5 42.287 123.129 25.5
4 16 43 132 22 43 132 16.5 41.5 130.5 16.5 41.5 130.5 22
4 16 43 132 22 43 132 16.5 46.5 132 16.5 46.5 132 22
4 16 44 126 22 44 126 16.5 44 120.3 16.5 44 120.3 22
4 16 44 132 16.5 46.5 132 16.5 46.5 123.688 16.5 44 123.361 16.5
4 16 44 132 22 46.5 132 22 46.5 123.688 22 44 123.361 22
4 16 46.5 132 22 46.5 132 16.5 46.5 123.688 16.5 46.5 123.688 22

0 Bottom
1 16 13 118.5 29 2.5 0 0 0 1 0 0 0 2.5 4-4disc.dat
1 16 13 118.5 29 2.5 0 0 0 1 0 0 0 2.5 4-4edge.dat
1 16 13 118.5 29 2.5 0 0 0 16.5 0 0 0 2.5 4-4cyli.dat
1 16 13 135 29 2.5 0 0 0 1 0 0 0 2.5 4-4edge.dat
1 16 13 135 29 2.5 0 0 0 1 0 0 0 2.5 4-4ndis.dat
1 16 15 135 13 -4 0 0 0 1 0 0 0 -3.5 1-4disc.dat
1 16 15 135 13 -4 0 0 0 1 0 0 0 -3.5 1-4edge.dat
1 16 20.5 135 29 3.5 0 0 0 -15 0 0 0 3.5 4-4cyli.dat
1 16 20.5 135 29 3.5 0 0 0 1 0 0 0 3.5 4-4edge.dat
1 16 20.5 135 29 3.5 0 0 0 1 0 0 0 3.5 4-4ndis.dat

1 16 39 124 31 -3 0 0 0 0 -3 0 3 0 1-4con0.dat
1 16 39 124 31 -3 0 0 0 0 -3 0 3 0 2-4NDIS.dat
1 16 39 124 31 -3 0 0 0 0 -3 0 3 0 2-4edge.dat
1 16 39 124 31 0 0 3 -3 0 0 0 3 0 1-4con0.dat
1 16 39 124.693 16.5 -2.713 0 3.235 -2.374 0 -1.591 0 1 0 1-8ndis.dat
1 16 39 124.693 16.5 3.235 0 -2.713 -1.591 0 -2.374 0 1 0 1-4edge.dat
1 16 39 124.693 16.5 3.235 0 -2.713 -1.591 0 -2.374 0 1 0 1-8ndis.dat
1 16 39 124.693 22 -2.713 0 3.235 -2.374 0 -1.591 0 1 0 1-8ndis.dat
1 16 39 124.693 22 3.235 0 -2.713 -1.591 0 -2.374 0 1 0 1-4edge.dat
1 16 39 124.693 22 3.235 0 -2.713 -1.591 0 -2.374 0 1 0 1-8ndis.dat
1 16 39 124.693 22 3.235 0 -2.713 -1.591 0 -2.374 0 3.5 0 1-4CYLI.dat
1 16 39 124.693 25.5 -2.713 0 3.235 -2.374 0 -1.591 0 1 0 1-8ndis.dat
1 16 39 124.693 25.5 3.235 0 -2.713 -1.591 0 -2.374 0 1 0 1-4edge.dat
1 16 39 124.693 25.5 3.235 0 -2.713 -1.591 0 -2.374 0 1 0 1-8ndis.dat
1 16 39 124.693 0 3.235 0 -2.713 -1.591 0 -2.374 0 16.5 0 1-4CYLI.dat

1 16 52.5 124.475 15.466 0.496 -0.13 0 0.065 0.992 0 0 0 -0.5 1-4disc.dat
1 16 52.5 124.475 15.466 0.496 -0.13 0 0.065 0.992 0 0 0 -0.5 1-4edge.dat
1 16 52.5 135 15.466 0.5 0 0 0 -11 0 0 0 -0.5 1-4CYLI.dat
1 16 52.5 135 15.466 0.5 0 0 0 -11 0 0 0 -0.5 1-4ndis.dat
1 16 52.5 135 15.466 0.5 0 0 0 1 0 0 0 -0.5 1-4edge.dat
1 16 53 135 15.5 3 0 0 0 1 0 0 0 -3.5 1-4disc.dat
1 16 53 135 15.5 3 0 0 0 1 0 0 0 -3.5 1-4edge.dat
1 16 57 124.934 12.272 0 -0.677 -0.998 2.066 0 0 0 9.977 -0.068 1-4edge.dat
1 16 57 124.934 12.272 0 -0.677 -0.998 2.066 0 0 0 9.977 -0.068 1-4ndis.dat
1 16 57 124.934 0 0 0 -1 2.066 0 0 0 12.3 0 1-4CYLI.dat
1 16 57 127 15.772 3 -4 0 0 8 0 0 -0.272 -3.5 1-4CYLI.dat
1 16 57 127 15.772 3 0 0 0 1 0 0 0 -3.5 1-4edge.dat
1 16 57 127 15.772 3 0 0 0 1 0 0 0 -3.5 1-4ndis.dat

2 24 15 127 12.5 15 135 12.5
2 24 15 127 12.5 27.934 127 13.34
2 24 15 127 25 15 127 12.5
2 24 15 127 25 15 135 25
2 24 15 127 25 18.013 127 22.995
2 24 15 127 9.5 29.154 127 10.419
2 24 15 135 12.5 36.287 135 13.882
2 24 15 135 25 15 135 12.5
2 24 15 135 25 18.013 135 22.995
2 24 15 135 9.5 36.287 135 10.882
2 24 18.013 127 22.995 20.5 127 22.5
2 24 18.013 135 22.995 20.5 135 22.5
2 24 20.5 127 22.5 22.988 127 22.995
2 24 20.5 135 22.5 22.988 135 22.995
2 24 22.988 127 22.995 26 127 25
2 24 22.988 135 22.995 26 135 25
2 24 26 112 31 26 135 31
2 24 26 121 16.768 26 127 16.768
2 24 26 121 16.768 26.818 121.107 15.484
2 24 26 121 25.5 26 112 25.5
2 24 26 121 25.5 26 121 16.768
2 24 26 121 25.5 36.287 122.349 25.5
2 24 26 127 16.768 26.818 127 15.484
2 24 26 127 25 26 127 16.768
2 24 26 127 25 26 135 25
2 24 26 135 25 26 135 31

2 24 26.818 121.107 15.484 27.934 121.254 13.34
2 24 26.818 127 15.484 27.934 127 13.34
2 24 27.934 121.254 13.34 27.934 127 13.34
2 24 27.934 121.254 13.34 36.287 122.349 13.882
2 24 29.154 121.414 10.419 29.154 127 10.419
2 24 29.154 121.414 10.419 29.912 121.513 8.015
2 24 29.154 121.414 10.419 36.287 122.349 10.882
2 24 29.154 127 10.419 29.912 127 8.015
2 24 29.912 121.513 8.015 30.497 121.59 5.377
2 24 29.912 127 8.015 30.497 127 5.377
2 24 30.497 121.59 5.377 30.849 121.636 2.7
2 24 30.497 127 5.377 30.849 127 2.7
2 24 30.849 121.636 2.7 30.967 121.651 0
2 24 30.849 127 2.7 30.967 127 0
2 24 36 135 31 26 135 31
2 24 36 135 31 36 124 31
2 24 36 135 31 39 135 34
2 24 36.287 122.349 10.882 36.287 135 10.882
2 24 36.287 122.349 16.5 36.287 122.349 0
2 24 36.287 122.349 22 36.287 122.349 25.5
2 24 36.287 135 10.882 36.287 135 13.882
2 24 36.287 135 13.882 36.287 122.349 13.882
2 24 39 135 34 39 124 34
2 24 42 135 31 39 135 34
2 24 42 135 31 42 124 31

2 24 42.235 123.129 11.269 42.235 135 11.269
2 24 42.235 123.129 11.269 56 124.934 12.204
2 24 42.235 123.129 14.269 42.235 135 14.269
2 24 42.235 123.129 14.269 52.5 124.475 14.966
2 24 42.235 123.129 16.5 42.235 123.129 0
2 24 42.235 123.129 22 42.235 123.129 25.5
2 24 42.235 123.129 25.5 53 124.541 25.5
2 24 42.235 135 11.269 53 135 12
2 24 42.235 135 14.269 42.235 135 11.269
2 24 42.235 135 14.269 52.5 135 14.966
2 24 53 124.541 25.5 53 124.541 15.466
2 24 53 124.607 25.5 53 112 25.5
2 24 53 135 31 42 135 31
2 24 53 135 31 53 112 31
2 24 53 135 31 53 135 15.466
2 24 56 124.934 12.204 56 124.934 0
2 24 56 135 35 56 135 15.5
2 24 57 127 12.272 57 127 0
2 24 60 127 18 60 127 15.772
2 24 60 127 18 61 125 18
2 24 60 127 18 61 127 18
2 24 61 125 40 61 125 18
2 24 61 127 18 61 125 18
2 24 61 127 18 61 127 0
2 24 7 131 36 0 131 36
2 24 7 131 36 7 135 36
2 24 7 135 36 0 135 36

3 16 11 127 9.5 15 127 9.5 11 127 0
3 16 18.013 135 22.995 20.5 135 22.5 22.988 135 22.995
3 16 26 121 16.768 26.818 121.107 15.484 32.5 121.853 13.636
3 16 26 127 16.768 26.818 127 15.484 15 127 12.5
3 16 26.818 121.107 15.484 27.934 121.254 13.34 32.5 121.853 13.636
3 16 26.818 127 15.484 27.934 127 13.34 15 127 12.5
3 16 29.912 127 8.015 30.497 127 5.377 11 127 0
3 16 30.497 127 5.377 30.849 127 2.7 11 127 0
3 16 30.849 127 2.7 30.967 127 0 11 127 0
3 16 39 135 34 26 135 35 52.5 135 35
3 16 44 112 25.5 35 112 25.5 39.522 120.727 25.5
3 16 44 120.3 16.5 35 119.4 16.5 39.522 120.727 16.5
3 16 44 120.3 22 35 119.4 22 39.522 120.727 22
3 16 56 124.934 12.204 56 127 12.204 53 135 12
3 16 57 127 12.272 56 127 12.204 53 135 12
3 16 60 127 18 61 125 18 61 127 18

4 16 10.5 135 26.5 10.5 135 31.5 7 135 31.5 7 135 26.5
4 16 15 127 12.5 26 127 16.768 26 127 20 15 127 20
4 16 15 127 12.5 27.934 127 13.34 27.934 135 13.34 15 135 12.5
4 16 15 127 25 15 135 25 15 135 12.5 15 127 12.5
4 16 15 127 25 18.013 127 22.995 18.013 127 20 15 127 20
4 16 15 127 9.5 36.287 127 10.882 36.287 135 10.882 15 135 9.5
4 16 15 135 21 11 135 21 11 135 13 15 135 13
4 16 15 135 25 18.013 135 22.995 18.013 127 22.995 15 127 25
4 16 15 135 25 18.013 135 22.995 22.988 135 22.995 26 135 25
4 16 15 135 9.5 36.287 135 10.882 36.287 135 13.882 15 135 12.5
4 16 15.5 135 26.5 15 135 26.5 15 135 25.5 15.5 135 25.5
4 16 17 135 25.5 17 135 32.5 15.5 135 35 15.5 135 25.5
4 16 18.013 127 22.995 20.5 127 22.5 20.5 127 20 18.013 127 20
4 16 18.013 135 22.995 20.5 135 22.5 20.5 127 22.5 18.013 127 22.995
4 16 20.5 127 22.5 22.988 127 22.995 22.988 127 20 20.5 127 20
4 16 20.5 135 22.5 22.988 135 22.995 22.988 127 22.995 20.5 127 22.5
4 16 22.988 127 22.995 26 127 25 26 127 20 22.988 127 20
4 16 22.988 135 22.995 26 135 25 26 127 25 22.988 127 22.995

4 16 24 135 25 15 135 25 15 135 25.5 24 135 25.5
4 16 24 135 25 26 135 25 26 135 35 24 135 35
4 16 24 135 32.5 17 135 32.5 15.5 135 35 24 135 35
4 16 26 112 25.5 26 112 31 26 121 31 26 121 25.5
4 16 26 112 25.5 35 112 25.5 35 122.181 25.5 26 121 25.5
4 16 26 121 16.768 26 121 25 26 127 25 26 127 16.768
4 16 26 121 16.768 26.818 121.107 15.484 26.818 127 15.484 26 127 16.768
4 16 26 135 25 26 135 31 26 121 31 26 121 25
4 16 26 135 31 26 112 31 36 112 31 36 135 31
4 16 26 135 31 26 135 35 39 135 34 36 135 31
4 16 26.818 121.107 15.484 27.934 121.254 13.34 27.934 127 13.34 26.818 127 15.484
4 16 29.154 121.414 10.419 29.912 121.513 8.015 36.287 122.349 8.015 36.287 122.349 10.882
4 16 29.154 121.414 10.419 36.287 122.349 10.882 36.287 127 10.882 29.154 127 10.419
4 16 29.154 127 10.419 29.912 127 8.015 11 127 0 15 127 9.5
4 16 29.154 127 10.419 29.912 127 8.015 29.912 121.513 8.015 29.154 121.414 10.419
4 16 29.912 121.513 8.015 30.497 121.59 5.377 36.287 122.349 5.377 36.287 122.349 8.015
4 16 29.912 127 8.015 30.497 127 5.377 30.497 121.59 5.377 29.912 121.513 8.015
4 16 30.497 121.59 5.377 30.849 121.636 2.7 36.287 122.349 2.7 36.287 122.349 5.377
4 16 30.497 127 5.377 30.849 127 2.7 30.849 121.636 2.7 30.497 121.59 5.377
4 16 30.849 121.636 2.7 30.967 121.651 0 36.287 122.349 0 36.287 122.349 2.7
4 16 30.849 127 2.7 30.967 127 0 30.967 121.651 0 30.849 121.636 2.7
4 16 32.5 121.853 13.636 32.5 121.853 25.5 26 121 25.5 26 121 16.768
4 16 36 112 31 36 121 31 42 121 31 42 112 31
4 16 36.287 122.349 10.882 36.287 122.349 13.882 36.287 135 13.882 36.287 135 10.882
4 16 36.287 122.349 13.882 36.287 135 13.882 27.934 135 13.34 27.934 121.254 13.34

4 16 39 135 34 39 124 34 36 124 31 36 135 31
4 16 39 135 34 39 124 34 42 124 31 42 135 31
4 16 39.522 120.727 16.5 36.287 122.349 16.5 35 122.181 16.5 35 119.4 16.5
4 16 39.522 120.727 16.5 42.235 123.129 16.5 44 123.36 16.5 44 120.3 16.5
4 16 39.522 120.727 22 36.287 122.349 22 35 122.181 22 35 119.4 22
4 16 39.522 120.727 22 42.235 123.129 22 44 123.36 22 44 120.3 22
4 16 39.522 120.727 25.5 36.287 122.349 25.5 35 122.181 25.5 35 112 25.5
4 16 39.522 120.727 25.5 42.235 123.129 25.5 44 123.36 25.5 44 112 25.5
4 16 42.235 123.129 11.269 42.235 135 11.269 53 135 12 56 124.934 12.204
4 16 42.235 123.129 11.269 56 124.934 12.204 56 124.934 0 42.235 123.129 0
4 16 42.235 123.129 14.269 42.235 123.129 11.269 42.235 135 11.269 42.235 135 14.269
4 16 42.235 135 11.269 42.235 135 14.269 53 135 15 53 135 12
4 16 52.5 124.475 25.5 46.5 123.688 25.5 46.5 123.688 14.546 52.5 124.475 14.966
4 16 52.5 135 15 42.235 135 14.269 42.235 123.129 14.269 52.5 124.607 15
4 16 53 112 25.5 44 112 25.5 44 123.361 25.5 53 124.541 25.5
4 16 53 124.541 25.5 53 124.541 15.466 52.5 124.475 15.466 52.5 124.475 25.5
4 16 53 135 25.5 53 135 15.466 53 124.541 15.466 53 124.541 25.5
4 16 53 135 25.5 53 135 31 53 112 31 53 112 25.5
4 16 53 135 31 53 112 31 42 112 31 42 135 31
4 16 53 135 31 53 135 35 39 135 34 42 135 31
4 16 53 135 35 53 135 15.466 56 135 15.5 56 135 35
4 16 60 127 12.272 57 127 12.272 57 127 0 60 127 0
4 16 60 127 15.772 60 127 18 56 135 18 56 135 15.5
4 16 60 127 18 61 127 18 61 127 0 60 127 0
4 16 61 122 40 61 125 40 61 125 0 61 122 0
4 16 61 125 18 61 125 0 61 127 0 61 127 18
4 16 61 125 40 61 125 18 56 135 18 56 135 35
4 16 7 135 36 7 131 36 0 131 36 0 135 36
4 16 9.5 135 35 9.5 135 31.5 15.5 135 31.5 15.5 135 35
4 16 9.5 135 36 0 135 36 0 135 40 9.5 135 40
4 16 9.5 135 36 9.5 135 31.5 7 135 31.5 7 135 36

5 24 18.013 135 22.995 18.013 127 22.995 15 135 25 20.5 135 22.5
5 24 20.5 135 22.5 20.5 127 22.5 18.013 135 22.995 22.988 135 22.995
5 24 22.988 135 22.995 22.988 127 22.995 20.5 135 22.5 26 135 25
5 24 26.818 127 15.484 26.818 121.107 15.484 26 124 16.768 27.934 124 13.34
5 24 29.912 121.513 8.015 29.912 127 8.015 30.497 124 5.377 29.154 124 10.419
5 24 30.497 121.59 5.377 30.497 127 5.377 30.849 124 2.7 29.912 124 8.015
5 24 30.849 121.636 2.7 30.849 127 2.7 30.967 124 0 30.497 124 5.377
5 24 30.967 121.651 0 30.967 127 0 30.849 124 -2.7 30.849 124 2.7

0 Non seen objects
1 16 20.5 120 29 3.5 0 0 0 1 0 0 0 3.5 4-4disc.dat
1 16 20.5 120 29 3.5 0 0 0 1 0 0 0 3.5 4-4edge.dat

2 24 24.5 116.25 24.144 24.5 112 24.144
2 24 24.5 116.25 24.144 24.5 116.25 33.048
2 24 24.5 116.25 24.144 26.358 116.25 22.117
2 24 24.5 116.25 33.048 24.5 112 33.048
2 24 26.358 116.25 22.117 26.905 116.25 21.405
2 24 6.5 112 32.5 0 112 32.5
2 24 6.5 112 33.048 6.5 112 32.5
2 24 6.5 128 32.5 0 128 32.5
2 24 6.5 128 32.5 6.5 112 32.5
2 24 6.5 128 33.048 6.5 128 32.5
2 24 7 106.5 33.048 0 106.5 33.048
2 24 9.5 106.5 32 0 106.5 32
2 24 9.5 106.5 32 9.5 116.25 32
2 24 9.5 112 33.048 9.5 116.25 33.048
2 24 9.5 116.25 32 0 116.25 32
2 24 9.5 116.25 32 9.5 116.25 33.048
2 24 9.5 116.25 33.048 24.5 116.25 33.048

3 16 34.277 116.25 3 34.408 116.25 0 34.277 116.25 0
4 16 24.5 112 33.048 24.5 116.25 33.048 24.5 116.25 24.144 24.5 112 24.144
4 16 24.5 116.25 24.144 26.358 116.25 22.117 26.358 112 22.117 24.5 112 24.144
4 16 24.5 116.25 24.144 26.358 116.25 22.117 26.358 116.25 0 24.5 116.25 0
4 16 26.358 116.25 22.117 26.905 116.25 21.405 26.905 112 21.405 26.358 112 22.117
4 16 26.358 116.25 22.117 26.905 116.25 21.405 26.905 116.25 0 26.358 116.25 0
4 16 26.905 116.25 21.405 28.185 116.25 19.736 28.185 116.25 0 26.905 116.25 0
4 16 28.185 116.25 19.736 29.798 116.25 17.204 29.798 116.25 0 28.185 116.25 0
4 16 29.798 116.25 17.204 31.184 116.25 14.541 31.184 116.25 0 29.798 116.25 0
4 16 31.184 116.25 14.541 32.333 116.25 11.768 32.333 116.25 0 31.184 116.25 0
4 16 32.333 116.25 11.768 33.235 116.25 8.905 33.235 116.25 0 32.333 116.25 0
4 16 33.235 116.25 8.905 33.885 116.25 5.975 33.885 116.25 0 33.235 116.25 0
4 16 33.885 116.25 5.975 34.277 116.25 3 34.277 116.25 0 33.885 116.25 0
4 16 6.5 112 32.5 0 112 32.5 0 112 33.048 6.5 112 33.048
4 16 6.5 112 32.5 0 112 32.5 0 128 32.5 6.5 128 32.5
4 16 6.5 112 32.5 6.5 112 33.048 6.5 128 33.048 6.5 128 32.5
4 16 7 106.5 33.048 0 106.5 33.048 0 106.5 32 7 106.5 32
4 16 9.5 106.5 32 9.5 116.25 32 0 116.25 32 0 106.5 32
4 16 9.5 112 32 9.5 116.25 32 9.5 116.25 33.048 9.5 112 33.048
4 16 9.5 116.25 32 9.5 116.25 0 0 116.25 0 0 116.25 32
4 16 9.5 116.25 33.048 24.5 116.25 33.048 24.5 112 33.048 9.5 112 33.048
4 16 9.5 116.25 33.048 24.5 116.25 33.048 24.5 116.25 0 9.5 116.25 0
0
