0 ~Tile  1 x  2 with SW Avionics Pattern - Gold detail
0 Name: s\3069ps2a.dat
0 Author: Franklin W. Cain [fwcain]
0 !LDRAW_ORG Subpart UPDATE 2002-04
0 !LICENSE Redistributable under CCAL version 2.0 : see CAreadme.txt

0 !HISTORY 2002-08-18 [PTadmin] Official Update 2002-04
0 !HISTORY 2007-08-30 [PTadmin] Header formatted for Contributor Agreement
0 !HISTORY 2008-07-01 [PTadmin] Official Update 2008-01

 4 16 0.000 0 1.750 -2.009 0 1.997 -2.25 0 2.750 0 0 2.750
 4 16 0.000 0 1.750 2.009 0 1.997 2.25 0 2.750 0 0 2.750
 4 16 0.000 0 8.250 -2.009 0 8.003 -2.25 0 7.250 0 0 7.250
 4 16 0.000 0 8.250 2.009 0 8.003 2.25 0 7.250 0 0 7.250
 3 16 -2.009 0 1.997 -3.712 0 2.702 -2.25 0 2.750
 3 16 2.009 0 1.997 3.712 0 2.702 2.25 0 2.750
 3 16 -2.009 0 8.003 -3.712 0 7.298 -2.25 0 7.250
 3 16 2.009 0 8.003 3.712 0 7.298 2.25 0 7.250
 3 16 -3.712 0 2.702 -4.850 0 3.756 -2.25 0 2.750
 3 16 3.712 0 2.702 4.850 0 3.756 2.25 0 2.750
 3 16 -3.712 0 7.298 -4.850 0 6.244 -2.25 0 7.250
 3 16 3.712 0 7.298 4.850 0 6.244 2.25 0 7.250
 4 16 -4.850 0 3.756 -5.250 0 5.000 -2.25 0 5.000 -2.250 0 2.750
 4 16 4.850 0 3.756 5.250 0 5.000 2.25 0 5.000 2.250 0 2.750
 4 16 -4.850 0 6.244 -5.250 0 5.000 -2.25 0 5.000 -2.250 0 7.250
 4 16 4.850 0 6.244 5.250 0 5.000 2.25 0 5.000 2.250 0 7.250
0
 1 16 -0.125 0 4.875 -2.125 0 0 0 1 0 0 0 -2.125 1-4ndis.dat
 1 16 0.125 0 4.875 2.125 0 0 0 1 0 0 0 -2.125 1-4ndis.dat
 1 16 -0.125 0 5.125 -2.125 0 0 0 1 0 0 0 2.125 1-4ndis.dat
 1 16 0.125 0 5.125 2.125 0 0 0 1 0 0 0 2.125 1-4ndis.dat
0
 1 16 -0.125 0 4.875 -1.875 0 0 0 1 0 0 0 -1.875 1-4disc.dat
 1 16 0.125 0 4.875 1.875 0 0 0 1 0 0 0 -1.875 1-4disc.dat
 1 16 -0.125 0 5.125 -1.875 0 0 0 1 0 0 0 1.875 1-4disc.dat
 1 16 0.125 0 5.125 1.875 0 0 0 1 0 0 0 1.875 1-4disc.dat
0
0 buttons (below 'scope)
0
 4 16 -5 0 -3.50 -5 0 -6.25 -4 0 -5.375 -4 0 -4.375
 4 16 -2 0 -3.50 -2 0 -6.25 -3 0 -5.375 -3 0 -4.375
 4 16 -5 0 -3.50 -2 0 -3.50 -3 0 -4.375 -4 0 -4.375
 4 16 -5 0 -6.25 -2 0 -6.25 -3 0 -5.375 -4 0 -5.375
0
 4 16 -5 0 -6.75 -5 0 -9.50 -4 0 -8.625 -4 0 -7.625
 4 16 -2 0 -6.75 -2 0 -9.50 -3 0 -8.625 -3 0 -7.625
 4 16 -5 0 -6.75 -2 0 -6.75 -3 0 -7.625 -4 0 -7.625
 4 16 -5 0 -9.50 -2 0 -9.50 -3 0 -8.625 -4 0 -8.625
0
 1 16 -3.5 0 -1.625 0.5 0 0 0 1 0 0 0 0.5 4-4ndis.dat
 1 16 -3.5 0 -4.875 0.5 0 0 0 1 0 0 0 0.5 4-4ndis.dat
 1 16 -3.5 0 -8.125 0.5 0 0 0 1 0 0 0 0.5 4-4ndis.dat
0
 4 16 -5 0 -0.25 -5 0 -3.00 -4 0 -2.125 -4 0 -1.125
 4 16 -2 0 -0.25 -2 0 -3.00 -3 0 -2.125 -3 0 -1.125
 4 16 -5 0 -0.25 -2 0 -0.25 -3 0 -1.125 -4 0 -1.125
 4 16 -5 0 -3.00 -2 0 -3.00 -3 0 -2.125 -4 0 -2.125
0
0 (variable-color buttons)
0
 4 16 3.25 0 -0.75 3.25 0 -2.50 4.50 0 -2.50 4.50 0 -0.75
 4 16 1.50 0 -4.00 1.50 0 -5.75 2.75 0 -5.75 2.75 0 -4.00
 4 16 3.25 0 -4.00 3.25 0 -5.75 4.50 0 -5.75 4.50 0 -4.00
 4 16 3.25 0 -7.25 3.25 0 -9.00 4.50 0 -9.00 4.50 0 -7.25
0
